{"count": 2176, "next": "https://pokeapi.co/api/v2/item?offset=800&limit=200", "previous": "https://pokeapi.co/api/v2/item?offset=400&limit=200", "results": [{"name": "bug-gem", "url": "https://pokeapi.co/api/v2/item/601/"}, {"name": "rock-gem", "url": "https://pokeapi.co/api/v2/item/602/"}, {"name": "ghost-gem", "url": "https://pokeapi.co/api/v2/item/603/"}, {"name": "dark-gem", "url": "https://pokeapi.co/api/v2/item/604/"}, {"name": "steel-gem", "url": "https://pokeapi.co/api/v2/item/605/"}, {"name": "health-wing", "url": "https://pokeapi.co/api/v2/item/606/"}, {"name": "muscle-wing", "url": "https://pokeapi.co/api/v2/item/607/"}, {"name": "resist-wing", "url": "https://pokeapi.co/api/v2/item/608/"}, {"name": "genius-wing", "url": "https://pokeapi.co/api/v2/item/609/"}, {"name": "clever-wing", "url": "https://pokeapi.co/api/v2/item/610/"}, {"name": "swift-wing", "url": "https://pokeapi.co/api/v2/item/611/"}, {"name": "pretty-wing", "url": "https://pokeapi.co/api/v2/item/612/"}, {"name": "cover-fossil", "url": "https://pokeapi.co/api/v2/item/613/"}, {"name": "plume-fossil", "url": "https://pokeapi.co/api/v2/item/614/"}, {"name": "liberty-pass", "url": "https://pokeapi.co/api/v2/item/615/"}, {"name": "pass-orb", "url": "https://pokeapi.co/api/v2/item/616/"}, {"name": "dream-ball", "url": "https://pokeapi.co/api/v2/item/617/"}, {"name": "poke-toy", "url": "https://pokeapi.co/api/v2/item/618/"}, {"name": "prop-case", "url": "https://pokeapi.co/api/v2/item/619/"}, {"name": "dragon-skull", "url": "https://pokeapi.co/api/v2/item/620/"}, {"name": "balm-mushroom", "url": "https://pokeapi.co/api/v2/item/621/"}, {"name": "big-nugget", "url": "https://pokeapi.co/api/v2/item/622/"}, {"name": "pearl-string", "url": "https://pokeapi.co/api/v2/item/623/"}, {"name": "comet-shard", "url": "https://pokeapi.co/api/v2/item/624/"}, {"name": "relic-copper", "url": "https://pokeapi.co/api/v2/item/625/"}, {"name": "relic-silver", "url": "https://pokeapi.co/api/v2/item/626/"}, {"name": "relic-gold", "url": "https://pokeapi.co/api/v2/item/627/"}, {"name": "relic-vase", "url": "https://pokeapi.co/api/v2/item/628/"}, {"name": "relic-band", "url": "https://pokeapi.co/api/v2/item/629/"}, {"name": "relic-statue", "url": "https://pokeapi.co/api/v2/item/630/"}, {"name": "relic-crown", "url": "https://pokeapi.co/api/v2/item/631/"}, {"name": "casteliacone", "url": "https://pokeapi.co/api/v2/item/632/"}, {"name": "dire-hit-2", "url": "https://pokeapi.co/api/v2/item/633/"}, {"name": "x-speed-2", "url": "https://pokeapi.co/api/v2/item/634/"}, {"name": "x-sp-atk-2", "url": "https://pokeapi.co/api/v2/item/635/"}, {"name": "x-sp-def-2", "url": "https://pokeapi.co/api/v2/item/636/"}, {"name": "x-defense-2", "url": "https://pokeapi.co/api/v2/item/637/"}, {"name": "x-attack-2", "url": "https://pokeapi.co/api/v2/item/638/"}, {"name": "x-accuracy-2", "url": "https://pokeapi.co/api/v2/item/639/"}, {"name": "x-speed-3", "url": "https://pokeapi.co/api/v2/item/640/"}, {"name": "x-sp-atk-3", "url": "https://pokeapi.co/api/v2/item/641/"}, {"name": "x-sp-def-3", "url": "https://pokeapi.co/api/v2/item/642/"}, {"name": "x-defense-3", "url": "https://pokeapi.co/api/v2/item/643/"}, {"name": "x-attack-3", "url": "https://pokeapi.co/api/v2/item/644/"}, {"name": "x-accuracy-3", "url": "https://pokeapi.co/api/v2/item/645/"}, {"name": "x-speed-6", "url": "https://pokeapi.co/api/v2/item/646/"}, {"name": "x-sp-atk-6", "url": "https://pokeapi.co/api/v2/item/647/"}, {"name": "x-sp-def-6", "url": "https://pokeapi.co/api/v2/item/648/"}, {"name": "x-defense-6", "url": "https://pokeapi.co/api/v2/item/649/"}, {"name": "x-attack-6", "url": "https://pokeapi.co/api/v2/item/650/"}, {"name": "x-accuracy-6", "url": "https://pokeapi.co/api/v2/item/651/"}, {"name": "ability-urge", "url": "https://pokeapi.co/api/v2/item/652/"}, {"name": "item-drop", "url": "https://pokeapi.co/api/v2/item/653/"}, {"name": "item-urge", "url": "https://pokeapi.co/api/v2/item/654/"}, {"name": "reset-urge", "url": "https://pokeapi.co/api/v2/item/655/"}, {"name": "dire-hit-3", "url": "https://pokeapi.co/api/v2/item/656/"}, {"name": "light-stone", "url": "https://pokeapi.co/api/v2/item/657/"}, {"name": "dark-stone", "url": "https://pokeapi.co/api/v2/item/658/"}, {"name": "tm93", "url": "https://pokeapi.co/api/v2/item/659/"}, {"name": "tm94", "url": "https://pokeapi.co/api/v2/item/660/"}, {"name": "tm95", "url": "https://pokeapi.co/api/v2/item/661/"}, {"name": "xtransceiver", "url": "https://pokeapi.co/api/v2/item/662/"}, {"name": "god-stone", "url": "https://pokeapi.co/api/v2/item/663/"}, {"name": "gram-1", "url": "https://pokeapi.co/api/v2/item/664/"}, {"name": "gram-2", "url": "https://pokeapi.co/api/v2/item/665/"}, {"name": "gram-3", "url": "https://pokeapi.co/api/v2/item/666/"}, {"name": "dragon-gem", "url": "https://pokeapi.co/api/v2/item/668/"}, {"name": "normal-gem", "url": "https://pokeapi.co/api/v2/item/669/"}, {"name": "medal-box", "url": "https://pokeapi.co/api/v2/item/670/"}, {"name": "dna-splicers", "url": "https://pokeapi.co/api/v2/item/671/"}, {"name": "permit", "url": "https://pokeapi.co/api/v2/item/673/"}, {"name": "oval-charm", "url": "https://pokeapi.co/api/v2/item/674/"}, {"name": "shiny-charm", "url": "https://pokeapi.co/api/v2/item/675/"}, {"name": "plasma-card", "url": "https://pokeapi.co/api/v2/item/676/"}, {"name": "grubby-hanky", "url": "https://pokeapi.co/api/v2/item/677/"}, {"name": "colress-machine", "url": "https://pokeapi.co/api/v2/item/678/"}, {"name": "dropped-item", "url": "https://pokeapi.co/api/v2/item/679/"}, {"name": "reveal-glass", "url": "https://pokeapi.co/api/v2/item/681/"}, {"name": "weakness-policy", "url": "https://pokeapi.co/api/v2/item/682/"}, {"name": "assault-vest", "url": "https://pokeapi.co/api/v2/item/683/"}, {"name": "pixie-plate", "url": "https://pokeapi.co/api/v2/item/684/"}, {"name": "ability-capsule", "url": "https://pokeapi.co/api/v2/item/685/"}, {"name": "whipped-dream", "url": "https://pokeapi.co/api/v2/item/686/"}, {"name": "sachet", "url": "https://pokeapi.co/api/v2/item/687/"}, {"name": "luminous-moss", "url": "https://pokeapi.co/api/v2/item/688/"}, {"name": "snowball", "url": "https://pokeapi.co/api/v2/item/689/"}, {"name": "safety-goggles", "url": "https://pokeapi.co/api/v2/item/690/"}, {"name": "rich-mulch", "url": "https://pokeapi.co/api/v2/item/691/"}, {"name": "surprise-mulch", "url": "https://pokeapi.co/api/v2/item/692/"}, {"name": "boost-mulch", "url": "https://pokeapi.co/api/v2/item/693/"}, {"name": "amaze-mulch", "url": "https://pokeapi.co/api/v2/item/694/"}, {"name": "gengarite", "url": "https://pokeapi.co/api/v2/item/695/"}, {"name": "gardevoirite", "url": "https://pokeapi.co/api/v2/item/696/"}, {"name": "ampharosite", "url": "https://pokeapi.co/api/v2/item/697/"}, {"name": "venusaurite", "url": "https://pokeapi.co/api/v2/item/698/"}, {"name": "charizardite-x", "url": "https://pokeapi.co/api/v2/item/699/"}, {"name": "blastoisinite", "url": "https://pokeapi.co/api/v2/item/700/"}, {"name": "mewtwonite-x", "url": "https://pokeapi.co/api/v2/item/701/"}, {"name": "mewtwonite-y", "url": "https://pokeapi.co/api/v2/item/702/"}, {"name": "blazikenite", "url": "https://pokeapi.co/api/v2/item/703/"}, {"name": "medichamite", "url": "https://pokeapi.co/api/v2/item/704/"}, {"name": "houndoominite", "url": "https://pokeapi.co/api/v2/item/705/"}, {"name": "aggronite", "url": "https://pokeapi.co/api/v2/item/706/"}, {"name": "banettite", "url": "https://pokeapi.co/api/v2/item/707/"}, {"name": "tyranitarite", "url": "https://pokeapi.co/api/v2/item/708/"}, {"name": "scizorite", "url": "https://pokeapi.co/api/v2/item/709/"}, {"name": "pinsirite", "url": "https://pokeapi.co/api/v2/item/710/"}, {"name": "aerodactylite", "url": "https://pokeapi.co/api/v2/item/711/"}, {"name": "lucarionite", "url": "https://pokeapi.co/api/v2/item/712/"}, {"name": "abomasite", "url": "https://pokeapi.co/api/v2/item/713/"}, {"name": "kangaskhanite", "url": "https://pokeapi.co/api/v2/item/714/"}, {"name": "gyaradosite", "url": "https://pokeapi.co/api/v2/item/715/"}, {"name": "absolite", "url": "https://pokeapi.co/api/v2/item/716/"}, {"name": "charizardite-y", "url": "https://pokeapi.co/api/v2/item/717/"}, {"name": "alakazite", "url": "https://pokeapi.co/api/v2/item/718/"}, {"name": "heracronite", "url": "https://pokeapi.co/api/v2/item/719/"}, {"name": "mawilite", "url": "https://pokeapi.co/api/v2/item/720/"}, {"name": "manectite", "url": "https://pokeapi.co/api/v2/item/721/"}, {"name": "garchompite", "url": "https://pokeapi.co/api/v2/item/722/"}, {"name": "roseli-berry", "url": "https://pokeapi.co/api/v2/item/723/"}, {"name": "kee-berry", "url": "https://pokeapi.co/api/v2/item/724/"}, {"name": "maranga-berry", "url": "https://pokeapi.co/api/v2/item/725/"}, {"name": "discount-coupon", "url": "https://pokeapi.co/api/v2/item/726/"}, {"name": "strange-souvenir", "url": "https://pokeapi.co/api/v2/item/727/"}, {"name": "lumiose-galette", "url": "https://pokeapi.co/api/v2/item/728/"}, {"name": "jaw-fossil", "url": "https://pokeapi.co/api/v2/item/729/"}, {"name": "sail-fossil", "url": "https://pokeapi.co/api/v2/item/730/"}, {"name": "fairy-gem", "url": "https://pokeapi.co/api/v2/item/731/"}, {"name": "adventure-rules", "url": "https://pokeapi.co/api/v2/item/732/"}, {"name": "elevator-key", "url": "https://pokeapi.co/api/v2/item/733/"}, {"name": "holo-caster", "url": "https://pokeapi.co/api/v2/item/734/"}, {"name": "honor-of-kalos", "url": "https://pokeapi.co/api/v2/item/735/"}, {"name": "intriguing-stone", "url": "https://pokeapi.co/api/v2/item/736/"}, {"name": "lens-case", "url": "https://pokeapi.co/api/v2/item/737/"}, {"name": "looker-ticket", "url": "https://pokeapi.co/api/v2/item/738/"}, {"name": "mega-ring", "url": "https://pokeapi.co/api/v2/item/739/"}, {"name": "power-plant-pass", "url": "https://pokeapi.co/api/v2/item/740/"}, {"name": "profs-letter", "url": "https://pokeapi.co/api/v2/item/741/"}, {"name": "roller-skates", "url": "https://pokeapi.co/api/v2/item/742/"}, {"name": "sprinklotad", "url": "https://pokeapi.co/api/v2/item/743/"}, {"name": "tmv-pass", "url": "https://pokeapi.co/api/v2/item/744/"}, {"name": "tm96", "url": "https://pokeapi.co/api/v2/item/745/"}, {"name": "tm97", "url": "https://pokeapi.co/api/v2/item/746/"}, {"name": "tm98", "url": "https://pokeapi.co/api/v2/item/747/"}, {"name": "tm99", "url": "https://pokeapi.co/api/v2/item/748/"}, {"name": "tm100", "url": "https://pokeapi.co/api/v2/item/749/"}, {"name": "latiasite", "url": "https://pokeapi.co/api/v2/item/760/"}, {"name": "latiosite", "url": "https://pokeapi.co/api/v2/item/761/"}, {"name": "common-stone", "url": "https://pokeapi.co/api/v2/item/762/"}, {"name": "makeup-bag", "url": "https://pokeapi.co/api/v2/item/763/"}, {"name": "travel-trunk", "url": "https://pokeapi.co/api/v2/item/764/"}, {"name": "shalour-sable", "url": "https://pokeapi.co/api/v2/item/765/"}, {"name": "mega-charm", "url": "https://pokeapi.co/api/v2/item/768/"}, {"name": "mega-glove", "url": "https://pokeapi.co/api/v2/item/769/"}, {"name": "devon-parts", "url": "https://pokeapi.co/api/v2/item/770/"}, {"name": "pokeblock-kit", "url": "https://pokeapi.co/api/v2/item/772/"}, {"name": "key-to-room-1", "url": "https://pokeapi.co/api/v2/item/773/"}, {"name": "key-to-room-2", "url": "https://pokeapi.co/api/v2/item/774/"}, {"name": "key-to-room-4", "url": "https://pokeapi.co/api/v2/item/775/"}, {"name": "key-to-room-6", "url": "https://pokeapi.co/api/v2/item/776/"}, {"name": "devon-scuba-gear", "url": "https://pokeapi.co/api/v2/item/779/"}, {"name": "contest-costume--jacket", "url": "https://pokeapi.co/api/v2/item/780/"}, {"name": "magma-suit", "url": "https://pokeapi.co/api/v2/item/782/"}, {"name": "aqua-suit", "url": "https://pokeapi.co/api/v2/item/783/"}, {"name": "pair-of-tickets", "url": "https://pokeapi.co/api/v2/item/784/"}, {"name": "mega-bracelet", "url": "https://pokeapi.co/api/v2/item/785/"}, {"name": "mega-pendant", "url": "https://pokeapi.co/api/v2/item/786/"}, {"name": "mega-glasses", "url": "https://pokeapi.co/api/v2/item/787/"}, {"name": "mega-anchor", "url": "https://pokeapi.co/api/v2/item/788/"}, {"name": "mega-stickpin", "url": "https://pokeapi.co/api/v2/item/789/"}, {"name": "mega-tiara", "url": "https://pokeapi.co/api/v2/item/790/"}, {"name": "mega-anklet", "url": "https://pokeapi.co/api/v2/item/791/"}, {"name": "swampertite", "url": "https://pokeapi.co/api/v2/item/793/"}, {"name": "sceptilite", "url": "https://pokeapi.co/api/v2/item/794/"}, {"name": "sablenite", "url": "https://pokeapi.co/api/v2/item/795/"}, {"name": "altarianite", "url": "https://pokeapi.co/api/v2/item/796/"}, {"name": "galladite", "url": "https://pokeapi.co/api/v2/item/797/"}, {"name": "audinite", "url": "https://pokeapi.co/api/v2/item/798/"}, {"name": "metagrossite", "url": "https://pokeapi.co/api/v2/item/799/"}, {"name": "sharpedonite", "url": "https://pokeapi.co/api/v2/item/800/"}, {"name": "slowbronite", "url": "https://pokeapi.co/api/v2/item/801/"}, {"name": "steelixite", "url": "https://pokeapi.co/api/v2/item/802/"}, {"name": "pidgeotite", "url": "https://pokeapi.co/api/v2/item/803/"}, {"name": "glalitite", "url": "https://pokeapi.co/api/v2/item/804/"}, {"name": "diancite", "url": "https://pokeapi.co/api/v2/item/805/"}, {"name": "prison-bottle", "url": "https://pokeapi.co/api/v2/item/806/"}, {"name": "mega-cuff", "url": "https://pokeapi.co/api/v2/item/807/"}, {"name": "cameruptite", "url": "https://pokeapi.co/api/v2/item/808/"}, {"name": "lopunnite", "url": "https://pokeapi.co/api/v2/item/809/"}, {"name": "salamencite", "url": "https://pokeapi.co/api/v2/item/810/"}, {"name": "beedrillite", "url": "https://pokeapi.co/api/v2/item/811/"}, {"name": "key-stone", "url": "https://pokeapi.co/api/v2/item/814/"}, {"name": "meteorite-shard", "url": "https://pokeapi.co/api/v2/item/815/"}, {"name": "eon-flute", "url": "https://pokeapi.co/api/v2/item/816/"}, {"name": "normalium-z--held", "url": "https://pokeapi.co/api/v2/item/817/"}, {"name": "firium-z--held", "url": "https://pokeapi.co/api/v2/item/818/"}, {"name": "waterium-z--held", "url": "https://pokeapi.co/api/v2/item/819/"}, {"name": "electrium-z--held", "url": "https://pokeapi.co/api/v2/item/820/"}, {"name": "grassium-z--held", "url": "https://pokeapi.co/api/v2/item/821/"}, {"name": "icium-z--held", "url": "https://pokeapi.co/api/v2/item/822/"}]}