{"count": 2176, "next": "https://pokeapi.co/api/v2/item?offset=1000&limit=200", "previous": "https://pokeapi.co/api/v2/item?offset=600&limit=200", "results": [{"name": "fightinium-z--held", "url": "https://pokeapi.co/api/v2/item/823/"}, {"name": "poisonium-z--held", "url": "https://pokeapi.co/api/v2/item/824/"}, {"name": "groundium-z--held", "url": "https://pokeapi.co/api/v2/item/825/"}, {"name": "flyinium-z--held", "url": "https://pokeapi.co/api/v2/item/826/"}, {"name": "psychium-z--held", "url": "https://pokeapi.co/api/v2/item/827/"}, {"name": "buginium-z--held", "url": "https://pokeapi.co/api/v2/item/828/"}, {"name": "rockium-z--held", "url": "https://pokeapi.co/api/v2/item/829/"}, {"name": "ghostium-z--held", "url": "https://pokeapi.co/api/v2/item/830/"}, {"name": "dragonium-z--held", "url": "https://pokeapi.co/api/v2/item/831/"}, {"name": "darkinium-z--held", "url": "https://pokeapi.co/api/v2/item/832/"}, {"name": "steelium-z--held", "url": "https://pokeapi.co/api/v2/item/833/"}, {"name": "fairium-z--held", "url": "https://pokeapi.co/api/v2/item/834/"}, {"name": "pikanium-z--held", "url": "https://pokeapi.co/api/v2/item/835/"}, {"name": "bottle-cap", "url": "https://pokeapi.co/api/v2/item/836/"}, {"name": "gold-bottle-cap", "url": "https://pokeapi.co/api/v2/item/837/"}, {"name": "z-ring", "url": "https://pokeapi.co/api/v2/item/838/"}, {"name": "decidium-z--held", "url": "https://pokeapi.co/api/v2/item/839/"}, {"name": "incinium-z--held", "url": "https://pokeapi.co/api/v2/item/840/"}, {"name": "primarium-z--held", "url": "https://pokeapi.co/api/v2/item/841/"}, {"name": "tapunium-z--held", "url": "https://pokeapi.co/api/v2/item/842/"}, {"name": "marshadium-z--held", "url": "https://pokeapi.co/api/v2/item/843/"}, {"name": "aloraichium-z--held", "url": "https://pokeapi.co/api/v2/item/844/"}, {"name": "snorlium-z--held", "url": "https://pokeapi.co/api/v2/item/845/"}, {"name": "eevium-z--held", "url": "https://pokeapi.co/api/v2/item/846/"}, {"name": "mewnium-z--held", "url": "https://pokeapi.co/api/v2/item/847/"}, {"name": "pikashunium-z--held", "url": "https://pokeapi.co/api/v2/item/877/"}, {"name": "forage-bag", "url": "https://pokeapi.co/api/v2/item/878/"}, {"name": "fishing-rod", "url": "https://pokeapi.co/api/v2/item/879/"}, {"name": "professors-mask", "url": "https://pokeapi.co/api/v2/item/880/"}, {"name": "festival-ticket", "url": "https://pokeapi.co/api/v2/item/881/"}, {"name": "sparkling-stone", "url": "https://pokeapi.co/api/v2/item/882/"}, {"name": "adrenaline-orb", "url": "https://pokeapi.co/api/v2/item/883/"}, {"name": "zygarde-cube", "url": "https://pokeapi.co/api/v2/item/884/"}, {"name": "ice-stone", "url": "https://pokeapi.co/api/v2/item/885/"}, {"name": "ride-pager", "url": "https://pokeapi.co/api/v2/item/886/"}, {"name": "beast-ball", "url": "https://pokeapi.co/api/v2/item/887/"}, {"name": "big-malasada", "url": "https://pokeapi.co/api/v2/item/888/"}, {"name": "red-nectar", "url": "https://pokeapi.co/api/v2/item/889/"}, {"name": "yellow-nectar", "url": "https://pokeapi.co/api/v2/item/890/"}, {"name": "pink-nectar", "url": "https://pokeapi.co/api/v2/item/891/"}, {"name": "purple-nectar", "url": "https://pokeapi.co/api/v2/item/892/"}, {"name": "sun-flute", "url": "https://pokeapi.co/api/v2/item/893/"}, {"name": "moon-flute", "url": "https://pokeapi.co/api/v2/item/894/"}, {"name": "enigmatic-card", "url": "https://pokeapi.co/api/v2/item/895/"}, {"name": "terrain-extender", "url": "https://pokeapi.co/api/v2/item/896/"}, {"name": "protective-pads", "url": "https://pokeapi.co/api/v2/item/897/"}, {"name": "electric-seed", "url": "https://pokeapi.co/api/v2/item/898/"}, {"name": "psychic-seed", "url": "https://pokeapi.co/api/v2/item/899/"}, {"name": "misty-seed", "url": "https://pokeapi.co/api/v2/item/900/"}, {"name": "grassy-seed", "url": "https://pokeapi.co/api/v2/item/901/"}, {"name": "fighting-memory", "url": "https://pokeapi.co/api/v2/item/902/"}, {"name": "flying-memory", "url": "https://pokeapi.co/api/v2/item/903/"}, {"name": "poison-memory", "url": "https://pokeapi.co/api/v2/item/904/"}, {"name": "ground-memory", "url": "https://pokeapi.co/api/v2/item/905/"}, {"name": "rock-memory", "url": "https://pokeapi.co/api/v2/item/906/"}, {"name": "bug-memory", "url": "https://pokeapi.co/api/v2/item/907/"}, {"name": "ghost-memory", "url": "https://pokeapi.co/api/v2/item/908/"}, {"name": "steel-memory", "url": "https://pokeapi.co/api/v2/item/909/"}, {"name": "fire-memory", "url": "https://pokeapi.co/api/v2/item/910/"}, {"name": "water-memory", "url": "https://pokeapi.co/api/v2/item/911/"}, {"name": "grass-memory", "url": "https://pokeapi.co/api/v2/item/912/"}, {"name": "electric-memory", "url": "https://pokeapi.co/api/v2/item/913/"}, {"name": "psychic-memory", "url": "https://pokeapi.co/api/v2/item/914/"}, {"name": "ice-memory", "url": "https://pokeapi.co/api/v2/item/915/"}, {"name": "dragon-memory", "url": "https://pokeapi.co/api/v2/item/916/"}, {"name": "dark-memory", "url": "https://pokeapi.co/api/v2/item/917/"}, {"name": "fairy-memory", "url": "https://pokeapi.co/api/v2/item/918/"}, {"name": "bike--green", "url": "https://pokeapi.co/api/v2/item/919/"}, {"name": "storage-key--galactic-warehouse", "url": "https://pokeapi.co/api/v2/item/920/"}, {"name": "basement-key--goldenrod", "url": "https://pokeapi.co/api/v2/item/921/"}, {"name": "xtransceiver--red", "url": "https://pokeapi.co/api/v2/item/922/"}, {"name": "xtransceiver--yellow", "url": "https://pokeapi.co/api/v2/item/923/"}, {"name": "dna-splicers--merge", "url": "https://pokeapi.co/api/v2/item/924/"}, {"name": "dna-splicers--split", "url": "https://pokeapi.co/api/v2/item/925/"}, {"name": "dropped-item--red", "url": "https://pokeapi.co/api/v2/item/926/"}, {"name": "dropped-item--yellow", "url": "https://pokeapi.co/api/v2/item/927/"}, {"name": "holo-caster--green", "url": "https://pokeapi.co/api/v2/item/928/"}, {"name": "bike--yellow", "url": "https://pokeapi.co/api/v2/item/929/"}, {"name": "holo-caster--red", "url": "https://pokeapi.co/api/v2/item/930/"}, {"name": "basement-key--new-mauville", "url": "https://pokeapi.co/api/v2/item/931/"}, {"name": "storage-key--sea-mauville", "url": "https://pokeapi.co/api/v2/item/932/"}, {"name": "ss-ticket--hoenn", "url": "https://pokeapi.co/api/v2/item/933/"}, {"name": "contest-costume--dress", "url": "https://pokeapi.co/api/v2/item/934/"}, {"name": "meteorite--2", "url": "https://pokeapi.co/api/v2/item/935/"}, {"name": "meteorite--3", "url": "https://pokeapi.co/api/v2/item/936/"}, {"name": "meteorite--4", "url": "https://pokeapi.co/api/v2/item/937/"}, {"name": "normalium-z--bag", "url": "https://pokeapi.co/api/v2/item/938/"}, {"name": "firium-z--bag", "url": "https://pokeapi.co/api/v2/item/939/"}, {"name": "waterium-z--bag", "url": "https://pokeapi.co/api/v2/item/940/"}, {"name": "electrium-z--bag", "url": "https://pokeapi.co/api/v2/item/941/"}, {"name": "grassium-z--bag", "url": "https://pokeapi.co/api/v2/item/942/"}, {"name": "icium-z--bag", "url": "https://pokeapi.co/api/v2/item/943/"}, {"name": "fightinium-z--bag", "url": "https://pokeapi.co/api/v2/item/944/"}, {"name": "poisonium-z--bag", "url": "https://pokeapi.co/api/v2/item/945/"}, {"name": "groundium-z--bag", "url": "https://pokeapi.co/api/v2/item/946/"}, {"name": "flyinium-z--bag", "url": "https://pokeapi.co/api/v2/item/947/"}, {"name": "psychium-z--bag", "url": "https://pokeapi.co/api/v2/item/948/"}, {"name": "buginium-z--bag", "url": "https://pokeapi.co/api/v2/item/949/"}, {"name": "rockium-z--bag", "url": "https://pokeapi.co/api/v2/item/950/"}, {"name": "ghostium-z--bag", "url": "https://pokeapi.co/api/v2/item/951/"}, {"name": "dragonium-z--bag", "url": "https://pokeapi.co/api/v2/item/952/"}, {"name": "darkinium-z--bag", "url": "https://pokeapi.co/api/v2/item/953/"}, {"name": "steelium-z--bag", "url": "https://pokeapi.co/api/v2/item/954/"}, {"name": "fairium-z--bag", "url": "https://pokeapi.co/api/v2/item/955/"}, {"name": "pikanium-z--bag", "url": "https://pokeapi.co/api/v2/item/956/"}, {"name": "decidium-z--bag", "url": "https://pokeapi.co/api/v2/item/957/"}, {"name": "incinium-z--bag", "url": "https://pokeapi.co/api/v2/item/958/"}, {"name": "primarium-z--bag", "url": "https://pokeapi.co/api/v2/item/959/"}, {"name": "tapunium-z--bag", "url": "https://pokeapi.co/api/v2/item/960/"}, {"name": "marshadium-z--bag", "url": "https://pokeapi.co/api/v2/item/961/"}, {"name": "aloraichium-z--bag", "url": "https://pokeapi.co/api/v2/item/962/"}, {"name": "snorlium-z--bag", "url": "https://pokeapi.co/api/v2/item/963/"}, {"name": "eevium-z--bag", "url": "https://pokeapi.co/api/v2/item/964/"}, {"name": "mewnium-z--bag", "url": "https://pokeapi.co/api/v2/item/965/"}, {"name": "pikashunium-z--bag", "url": "https://pokeapi.co/api/v2/item/966/"}, {"name": "solganium-z--held", "url": "https://pokeapi.co/api/v2/item/967/"}, {"name": "lunalium-z--held", "url": "https://pokeapi.co/api/v2/item/968/"}, {"name": "ultranecrozium-z--held", "url": "https://pokeapi.co/api/v2/item/969/"}, {"name": "mimikium-z--held", "url": "https://pokeapi.co/api/v2/item/970/"}, {"name": "lycanium-z--held", "url": "https://pokeapi.co/api/v2/item/971/"}, {"name": "kommonium-z--held", "url": "https://pokeapi.co/api/v2/item/972/"}, {"name": "solganium-z--bag", "url": "https://pokeapi.co/api/v2/item/973/"}, {"name": "lunalium-z--bag", "url": "https://pokeapi.co/api/v2/item/974/"}, {"name": "ultranecrozium-z--bag", "url": "https://pokeapi.co/api/v2/item/975/"}, {"name": "mimikium-z--bag", "url": "https://pokeapi.co/api/v2/item/976/"}, {"name": "lycanium-z--bag", "url": "https://pokeapi.co/api/v2/item/977/"}, {"name": "kommonium-z--bag", "url": "https://pokeapi.co/api/v2/item/978/"}, {"name": "z-power-ring", "url": "https://pokeapi.co/api/v2/item/979/"}, {"name": "pink-petal", "url": "https://pokeapi.co/api/v2/item/980/"}, {"name": "orange-petal", "url": "https://pokeapi.co/api/v2/item/981/"}, {"name": "blue-petal", "url": "https://pokeapi.co/api/v2/item/982/"}, {"name": "red-petal", "url": "https://pokeapi.co/api/v2/item/983/"}, {"name": "green-petal", "url": "https://pokeapi.co/api/v2/item/984/"}, {"name": "yellow-petal", "url": "https://pokeapi.co/api/v2/item/985/"}, {"name": "purple-petal", "url": "https://pokeapi.co/api/v2/item/986/"}, {"name": "rainbow-flower", "url": "https://pokeapi.co/api/v2/item/987/"}, {"name": "surge-badge", "url": "https://pokeapi.co/api/v2/item/988/"}, {"name": "n-solarizer--merge", "url": "https://pokeapi.co/api/v2/item/989/"}, {"name": "n-lunarizer--merge", "url": "https://pokeapi.co/api/v2/item/990/"}, {"name": "n-solarizer--split", "url": "https://pokeapi.co/api/v2/item/991/"}, {"name": "n-lunarizer--split", "url": "https://pokeapi.co/api/v2/item/992/"}, {"name": "ilimas-normalium-z", "url": "https://pokeapi.co/api/v2/item/993/"}, {"name": "left-poke-ball", "url": "https://pokeapi.co/api/v2/item/994/"}, {"name": "roto-hatch", "url": "https://pokeapi.co/api/v2/item/995/"}, {"name": "roto-bargain", "url": "https://pokeapi.co/api/v2/item/996/"}, {"name": "roto-prize-money", "url": "https://pokeapi.co/api/v2/item/997/"}, {"name": "roto-exp-points", "url": "https://pokeapi.co/api/v2/item/998/"}, {"name": "roto-friendship", "url": "https://pokeapi.co/api/v2/item/999/"}, {"name": "roto-encounter", "url": "https://pokeapi.co/api/v2/item/1000/"}, {"name": "roto-stealth", "url": "https://pokeapi.co/api/v2/item/1001/"}, {"name": "roto-hp-restore", "url": "https://pokeapi.co/api/v2/item/1002/"}, {"name": "roto-pp-restore", "url": "https://pokeapi.co/api/v2/item/1003/"}, {"name": "roto-boost", "url": "https://pokeapi.co/api/v2/item/1004/"}, {"name": "roto-catch", "url": "https://pokeapi.co/api/v2/item/1005/"}, {"name": "autograph", "url": "https://pokeapi.co/api/v2/item/1006/"}, {"name": "pokemon-box", "url": "https://pokeapi.co/api/v2/item/1007/"}, {"name": "medicine-pocket", "url": "https://pokeapi.co/api/v2/item/1008/"}, {"name": "candy-jar", "url": "https://pokeapi.co/api/v2/item/1009/"}, {"name": "power-up-pocket", "url": "https://pokeapi.co/api/v2/item/1010/"}, {"name": "clothing-trunk", "url": "https://pokeapi.co/api/v2/item/1011/"}, {"name": "catching-pocket", "url": "https://pokeapi.co/api/v2/item/1012/"}, {"name": "battle-pocket", "url": "https://pokeapi.co/api/v2/item/1013/"}, {"name": "silver-razz-berry", "url": "https://pokeapi.co/api/v2/item/1014/"}, {"name": "golden-razz-berry", "url": "https://pokeapi.co/api/v2/item/1015/"}, {"name": "silver-nanab-berry", "url": "https://pokeapi.co/api/v2/item/1016/"}, {"name": "golden-nanab-berry", "url": "https://pokeapi.co/api/v2/item/1017/"}, {"name": "silver-pinap-berry", "url": "https://pokeapi.co/api/v2/item/1018/"}, {"name": "golden-pinap-berry", "url": "https://pokeapi.co/api/v2/item/1019/"}, {"name": "secret-key--letsgo", "url": "https://pokeapi.co/api/v2/item/1020/"}, {"name": "ss-ticket--letsgo", "url": "https://pokeapi.co/api/v2/item/1021/"}, {"name": "parcel--letsgo", "url": "https://pokeapi.co/api/v2/item/1022/"}, {"name": "card-key--letsgo", "url": "https://pokeapi.co/api/v2/item/1023/"}, {"name": "stretchy-spring", "url": "https://pokeapi.co/api/v2/item/1024/"}, {"name": "chalky-stone", "url": "https://pokeapi.co/api/v2/item/1025/"}, {"name": "marble", "url": "https://pokeapi.co/api/v2/item/1026/"}, {"name": "lone-earring", "url": "https://pokeapi.co/api/v2/item/1027/"}, {"name": "beach-glass", "url": "https://pokeapi.co/api/v2/item/1028/"}, {"name": "gold-leaf", "url": "https://pokeapi.co/api/v2/item/1029/"}, {"name": "silver-leaf", "url": "https://pokeapi.co/api/v2/item/1030/"}, {"name": "polished-mud-ball", "url": "https://pokeapi.co/api/v2/item/1031/"}, {"name": "tropical-shell", "url": "https://pokeapi.co/api/v2/item/1032/"}, {"name": "leaf-letter--pikachu", "url": "https://pokeapi.co/api/v2/item/1033/"}, {"name": "leaf-letter--eevee", "url": "https://pokeapi.co/api/v2/item/1034/"}, {"name": "small-bouquet", "url": "https://pokeapi.co/api/v2/item/1035/"}, {"name": "lure", "url": "https://pokeapi.co/api/v2/item/1036/"}, {"name": "super-lure", "url": "https://pokeapi.co/api/v2/item/1037/"}, {"name": "max-lure", "url": "https://pokeapi.co/api/v2/item/1038/"}, {"name": "pewter-crunchies", "url": "https://pokeapi.co/api/v2/item/1039/"}, {"name": "health-candy", "url": "https://pokeapi.co/api/v2/item/1040/"}, {"name": "mighty-candy", "url": "https://pokeapi.co/api/v2/item/1041/"}, {"name": "tough-candy", "url": "https://pokeapi.co/api/v2/item/1042/"}, {"name": "smart-candy", "url": "https://pokeapi.co/api/v2/item/1043/"}, {"name": "courage-candy", "url": "https://pokeapi.co/api/v2/item/1044/"}, {"name": "quick-candy", "url": "https://pokeapi.co/api/v2/item/1045/"}, {"name": "health-candy-l", "url": "https://pokeapi.co/api/v2/item/1046/"}, {"name": "mighty-candy-l", "url": "https://pokeapi.co/api/v2/item/1047/"}, {"name": "tough-candy-l", "url": "https://pokeapi.co/api/v2/item/1048/"}, {"name": "smart-candy-l", "url": "https://pokeapi.co/api/v2/item/1049/"}, {"name": "courage-candy-l", "url": "https://pokeapi.co/api/v2/item/1050/"}, {"name": "quick-candy-l", "url": "https://pokeapi.co/api/v2/item/1051/"}]}