{"count": 2176, "next": "https://pokeapi.co/api/v2/item?offset=400&limit=200", "previous": "https://pokeapi.co/api/v2/item?offset=0&limit=200", "results": [{"name": "cleanse-tag", "url": "https://pokeapi.co/api/v2/item/201/"}, {"name": "soul-dew", "url": "https://pokeapi.co/api/v2/item/202/"}, {"name": "deep-sea-tooth", "url": "https://pokeapi.co/api/v2/item/203/"}, {"name": "deep-sea-scale", "url": "https://pokeapi.co/api/v2/item/204/"}, {"name": "smoke-ball", "url": "https://pokeapi.co/api/v2/item/205/"}, {"name": "everstone", "url": "https://pokeapi.co/api/v2/item/206/"}, {"name": "focus-band", "url": "https://pokeapi.co/api/v2/item/207/"}, {"name": "lucky-egg", "url": "https://pokeapi.co/api/v2/item/208/"}, {"name": "scope-lens", "url": "https://pokeapi.co/api/v2/item/209/"}, {"name": "metal-coat", "url": "https://pokeapi.co/api/v2/item/210/"}, {"name": "leftovers", "url": "https://pokeapi.co/api/v2/item/211/"}, {"name": "dragon-scale", "url": "https://pokeapi.co/api/v2/item/212/"}, {"name": "light-ball", "url": "https://pokeapi.co/api/v2/item/213/"}, {"name": "soft-sand", "url": "https://pokeapi.co/api/v2/item/214/"}, {"name": "hard-stone", "url": "https://pokeapi.co/api/v2/item/215/"}, {"name": "miracle-seed", "url": "https://pokeapi.co/api/v2/item/216/"}, {"name": "black-glasses", "url": "https://pokeapi.co/api/v2/item/217/"}, {"name": "black-belt", "url": "https://pokeapi.co/api/v2/item/218/"}, {"name": "magnet", "url": "https://pokeapi.co/api/v2/item/219/"}, {"name": "mystic-water", "url": "https://pokeapi.co/api/v2/item/220/"}, {"name": "sharp-beak", "url": "https://pokeapi.co/api/v2/item/221/"}, {"name": "poison-barb", "url": "https://pokeapi.co/api/v2/item/222/"}, {"name": "never-melt-ice", "url": "https://pokeapi.co/api/v2/item/223/"}, {"name": "spell-tag", "url": "https://pokeapi.co/api/v2/item/224/"}, {"name": "twisted-spoon", "url": "https://pokeapi.co/api/v2/item/225/"}, {"name": "charcoal", "url": "https://pokeapi.co/api/v2/item/226/"}, {"name": "dragon-fang", "url": "https://pokeapi.co/api/v2/item/227/"}, {"name": "silk-scarf", "url": "https://pokeapi.co/api/v2/item/228/"}, {"name": "up-grade", "url": "https://pokeapi.co/api/v2/item/229/"}, {"name": "shell-bell", "url": "https://pokeapi.co/api/v2/item/230/"}, {"name": "sea-incense", "url": "https://pokeapi.co/api/v2/item/231/"}, {"name": "lax-incense", "url": "https://pokeapi.co/api/v2/item/232/"}, {"name": "lucky-punch", "url": "https://pokeapi.co/api/v2/item/233/"}, {"name": "metal-powder", "url": "https://pokeapi.co/api/v2/item/234/"}, {"name": "thick-club", "url": "https://pokeapi.co/api/v2/item/235/"}, {"name": "stick", "url": "https://pokeapi.co/api/v2/item/236/"}, {"name": "red-scarf", "url": "https://pokeapi.co/api/v2/item/237/"}, {"name": "blue-scarf", "url": "https://pokeapi.co/api/v2/item/238/"}, {"name": "pink-scarf", "url": "https://pokeapi.co/api/v2/item/239/"}, {"name": "green-scarf", "url": "https://pokeapi.co/api/v2/item/240/"}, {"name": "yellow-scarf", "url": "https://pokeapi.co/api/v2/item/241/"}, {"name": "wide-lens", "url": "https://pokeapi.co/api/v2/item/242/"}, {"name": "muscle-band", "url": "https://pokeapi.co/api/v2/item/243/"}, {"name": "wise-glasses", "url": "https://pokeapi.co/api/v2/item/244/"}, {"name": "expert-belt", "url": "https://pokeapi.co/api/v2/item/245/"}, {"name": "light-clay", "url": "https://pokeapi.co/api/v2/item/246/"}, {"name": "life-orb", "url": "https://pokeapi.co/api/v2/item/247/"}, {"name": "power-herb", "url": "https://pokeapi.co/api/v2/item/248/"}, {"name": "toxic-orb", "url": "https://pokeapi.co/api/v2/item/249/"}, {"name": "flame-orb", "url": "https://pokeapi.co/api/v2/item/250/"}, {"name": "quick-powder", "url": "https://pokeapi.co/api/v2/item/251/"}, {"name": "focus-sash", "url": "https://pokeapi.co/api/v2/item/252/"}, {"name": "zoom-lens", "url": "https://pokeapi.co/api/v2/item/253/"}, {"name": "metronome", "url": "https://pokeapi.co/api/v2/item/254/"}, {"name": "iron-ball", "url": "https://pokeapi.co/api/v2/item/255/"}, {"name": "lagging-tail", "url": "https://pokeapi.co/api/v2/item/256/"}, {"name": "destiny-knot", "url": "https://pokeapi.co/api/v2/item/257/"}, {"name": "black-sludge", "url": "https://pokeapi.co/api/v2/item/258/"}, {"name": "icy-rock", "url": "https://pokeapi.co/api/v2/item/259/"}, {"name": "smooth-rock", "url": "https://pokeapi.co/api/v2/item/260/"}, {"name": "heat-rock", "url": "https://pokeapi.co/api/v2/item/261/"}, {"name": "damp-rock", "url": "https://pokeapi.co/api/v2/item/262/"}, {"name": "grip-claw", "url": "https://pokeapi.co/api/v2/item/263/"}, {"name": "choice-scarf", "url": "https://pokeapi.co/api/v2/item/264/"}, {"name": "sticky-barb", "url": "https://pokeapi.co/api/v2/item/265/"}, {"name": "power-bracer", "url": "https://pokeapi.co/api/v2/item/266/"}, {"name": "power-belt", "url": "https://pokeapi.co/api/v2/item/267/"}, {"name": "power-lens", "url": "https://pokeapi.co/api/v2/item/268/"}, {"name": "power-band", "url": "https://pokeapi.co/api/v2/item/269/"}, {"name": "power-anklet", "url": "https://pokeapi.co/api/v2/item/270/"}, {"name": "power-weight", "url": "https://pokeapi.co/api/v2/item/271/"}, {"name": "shed-shell", "url": "https://pokeapi.co/api/v2/item/272/"}, {"name": "big-root", "url": "https://pokeapi.co/api/v2/item/273/"}, {"name": "choice-specs", "url": "https://pokeapi.co/api/v2/item/274/"}, {"name": "flame-plate", "url": "https://pokeapi.co/api/v2/item/275/"}, {"name": "splash-plate", "url": "https://pokeapi.co/api/v2/item/276/"}, {"name": "zap-plate", "url": "https://pokeapi.co/api/v2/item/277/"}, {"name": "meadow-plate", "url": "https://pokeapi.co/api/v2/item/278/"}, {"name": "icicle-plate", "url": "https://pokeapi.co/api/v2/item/279/"}, {"name": "fist-plate", "url": "https://pokeapi.co/api/v2/item/280/"}, {"name": "toxic-plate", "url": "https://pokeapi.co/api/v2/item/281/"}, {"name": "earth-plate", "url": "https://pokeapi.co/api/v2/item/282/"}, {"name": "sky-plate", "url": "https://pokeapi.co/api/v2/item/283/"}, {"name": "mind-plate", "url": "https://pokeapi.co/api/v2/item/284/"}, {"name": "insect-plate", "url": "https://pokeapi.co/api/v2/item/285/"}, {"name": "stone-plate", "url": "https://pokeapi.co/api/v2/item/286/"}, {"name": "spooky-plate", "url": "https://pokeapi.co/api/v2/item/287/"}, {"name": "draco-plate", "url": "https://pokeapi.co/api/v2/item/288/"}, {"name": "dread-plate", "url": "https://pokeapi.co/api/v2/item/289/"}, {"name": "iron-plate", "url": "https://pokeapi.co/api/v2/item/290/"}, {"name": "odd-incense", "url": "https://pokeapi.co/api/v2/item/291/"}, {"name": "rock-incense", "url": "https://pokeapi.co/api/v2/item/292/"}, {"name": "full-incense", "url": "https://pokeapi.co/api/v2/item/293/"}, {"name": "wave-incense", "url": "https://pokeapi.co/api/v2/item/294/"}, {"name": "rose-incense", "url": "https://pokeapi.co/api/v2/item/295/"}, {"name": "luck-incense", "url": "https://pokeapi.co/api/v2/item/296/"}, {"name": "pure-incense", "url": "https://pokeapi.co/api/v2/item/297/"}, {"name": "protector", "url": "https://pokeapi.co/api/v2/item/298/"}, {"name": "electirizer", "url": "https://pokeapi.co/api/v2/item/299/"}, {"name": "magmarizer", "url": "https://pokeapi.co/api/v2/item/300/"}, {"name": "dubious-disc", "url": "https://pokeapi.co/api/v2/item/301/"}, {"name": "reaper-cloth", "url": "https://pokeapi.co/api/v2/item/302/"}, {"name": "razor-claw", "url": "https://pokeapi.co/api/v2/item/303/"}, {"name": "razor-fang", "url": "https://pokeapi.co/api/v2/item/304/"}, {"name": "tm01", "url": "https://pokeapi.co/api/v2/item/305/"}, {"name": "tm02", "url": "https://pokeapi.co/api/v2/item/306/"}, {"name": "tm03", "url": "https://pokeapi.co/api/v2/item/307/"}, {"name": "tm04", "url": "https://pokeapi.co/api/v2/item/308/"}, {"name": "tm05", "url": "https://pokeapi.co/api/v2/item/309/"}, {"name": "tm06", "url": "https://pokeapi.co/api/v2/item/310/"}, {"name": "tm07", "url": "https://pokeapi.co/api/v2/item/311/"}, {"name": "tm08", "url": "https://pokeapi.co/api/v2/item/312/"}, {"name": "tm09", "url": "https://pokeapi.co/api/v2/item/313/"}, {"name": "tm10", "url": "https://pokeapi.co/api/v2/item/314/"}, {"name": "tm11", "url": "https://pokeapi.co/api/v2/item/315/"}, {"name": "tm12", "url": "https://pokeapi.co/api/v2/item/316/"}, {"name": "tm13", "url": "https://pokeapi.co/api/v2/item/317/"}, {"name": "tm14", "url": "https://pokeapi.co/api/v2/item/318/"}, {"name": "tm15", "url": "https://pokeapi.co/api/v2/item/319/"}, {"name": "tm16", "url": "https://pokeapi.co/api/v2/item/320/"}, {"name": "tm17", "url": "https://pokeapi.co/api/v2/item/321/"}, {"name": "tm18", "url": "https://pokeapi.co/api/v2/item/322/"}, {"name": "tm19", "url": "https://pokeapi.co/api/v2/item/323/"}, {"name": "tm20", "url": "https://pokeapi.co/api/v2/item/324/"}, {"name": "tm21", "url": "https://pokeapi.co/api/v2/item/325/"}, {"name": "tm22", "url": "https://pokeapi.co/api/v2/item/326/"}, {"name": "tm23", "url": "https://pokeapi.co/api/v2/item/327/"}, {"name": "tm24", "url": "https://pokeapi.co/api/v2/item/328/"}, {"name": "tm25", "url": "https://pokeapi.co/api/v2/item/329/"}, {"name": "tm26", "url": "https://pokeapi.co/api/v2/item/330/"}, {"name": "tm27", "url": "https://pokeapi.co/api/v2/item/331/"}, {"name": "tm28", "url": "https://pokeapi.co/api/v2/item/332/"}, {"name": "tm29", "url": "https://pokeapi.co/api/v2/item/333/"}, {"name": "tm30", "url": "https://pokeapi.co/api/v2/item/334/"}, {"name": "tm31", "url": "https://pokeapi.co/api/v2/item/335/"}, {"name": "tm32", "url": "https://pokeapi.co/api/v2/item/336/"}, {"name": "tm33", "url": "https://pokeapi.co/api/v2/item/337/"}, {"name": "tm34", "url": "https://pokeapi.co/api/v2/item/338/"}, {"name": "tm35", "url": "https://pokeapi.co/api/v2/item/339/"}, {"name": "tm36", "url": "https://pokeapi.co/api/v2/item/340/"}, {"name": "tm37", "url": "https://pokeapi.co/api/v2/item/341/"}, {"name": "tm38", "url": "https://pokeapi.co/api/v2/item/342/"}, {"name": "tm39", "url": "https://pokeapi.co/api/v2/item/343/"}, {"name": "tm40", "url": "https://pokeapi.co/api/v2/item/344/"}, {"name": "tm41", "url": "https://pokeapi.co/api/v2/item/345/"}, {"name": "tm42", "url": "https://pokeapi.co/api/v2/item/346/"}, {"name": "tm43", "url": "https://pokeapi.co/api/v2/item/347/"}, {"name": "tm44", "url": "https://pokeapi.co/api/v2/item/348/"}, {"name": "tm45", "url": "https://pokeapi.co/api/v2/item/349/"}, {"name": "tm46", "url": "https://pokeapi.co/api/v2/item/350/"}, {"name": "tm47", "url": "https://pokeapi.co/api/v2/item/351/"}, {"name": "tm48", "url": "https://pokeapi.co/api/v2/item/352/"}, {"name": "tm49", "url": "https://pokeapi.co/api/v2/item/353/"}, {"name": "tm50", "url": "https://pokeapi.co/api/v2/item/354/"}, {"name": "tm51", "url": "https://pokeapi.co/api/v2/item/355/"}, {"name": "tm52", "url": "https://pokeapi.co/api/v2/item/356/"}, {"name": "tm53", "url": "https://pokeapi.co/api/v2/item/357/"}, {"name": "tm54", "url": "https://pokeapi.co/api/v2/item/358/"}, {"name": "tm55", "url": "https://pokeapi.co/api/v2/item/359/"}, {"name": "tm56", "url": "https://pokeapi.co/api/v2/item/360/"}, {"name": "tm57", "url": "https://pokeapi.co/api/v2/item/361/"}, {"name": "tm58", "url": "https://pokeapi.co/api/v2/item/362/"}, {"name": "tm59", "url": "https://pokeapi.co/api/v2/item/363/"}, {"name": "tm60", "url": "https://pokeapi.co/api/v2/item/364/"}, {"name": "tm61", "url": "https://pokeapi.co/api/v2/item/365/"}, {"name": "tm62", "url": "https://pokeapi.co/api/v2/item/366/"}, {"name": "tm63", "url": "https://pokeapi.co/api/v2/item/367/"}, {"name": "tm64", "url": "https://pokeapi.co/api/v2/item/368/"}, {"name": "tm65", "url": "https://pokeapi.co/api/v2/item/369/"}, {"name": "tm66", "url": "https://pokeapi.co/api/v2/item/370/"}, {"name": "tm67", "url": "https://pokeapi.co/api/v2/item/371/"}, {"name": "tm68", "url": "https://pokeapi.co/api/v2/item/372/"}, {"name": "tm69", "url": "https://pokeapi.co/api/v2/item/373/"}, {"name": "tm70", "url": "https://pokeapi.co/api/v2/item/374/"}, {"name": "tm71", "url": "https://pokeapi.co/api/v2/item/375/"}, {"name": "tm72", "url": "https://pokeapi.co/api/v2/item/376/"}, {"name": "tm73", "url": "https://pokeapi.co/api/v2/item/377/"}, {"name": "tm74", "url": "https://pokeapi.co/api/v2/item/378/"}, {"name": "tm75", "url": "https://pokeapi.co/api/v2/item/379/"}, {"name": "tm76", "url": "https://pokeapi.co/api/v2/item/380/"}, {"name": "tm77", "url": "https://pokeapi.co/api/v2/item/381/"}, {"name": "tm78", "url": "https://pokeapi.co/api/v2/item/382/"}, {"name": "tm79", "url": "https://pokeapi.co/api/v2/item/383/"}, {"name": "tm80", "url": "https://pokeapi.co/api/v2/item/384/"}, {"name": "tm81", "url": "https://pokeapi.co/api/v2/item/385/"}, {"name": "tm82", "url": "https://pokeapi.co/api/v2/item/386/"}, {"name": "tm83", "url": "https://pokeapi.co/api/v2/item/387/"}, {"name": "tm84", "url": "https://pokeapi.co/api/v2/item/388/"}, {"name": "tm85", "url": "https://pokeapi.co/api/v2/item/389/"}, {"name": "tm86", "url": "https://pokeapi.co/api/v2/item/390/"}, {"name": "tm87", "url": "https://pokeapi.co/api/v2/item/391/"}, {"name": "tm88", "url": "https://pokeapi.co/api/v2/item/392/"}, {"name": "tm89", "url": "https://pokeapi.co/api/v2/item/393/"}, {"name": "tm90", "url": "https://pokeapi.co/api/v2/item/394/"}, {"name": "tm91", "url": "https://pokeapi.co/api/v2/item/395/"}, {"name": "tm92", "url": "https://pokeapi.co/api/v2/item/396/"}, {"name": "hm01", "url": "https://pokeapi.co/api/v2/item/397/"}, {"name": "hm02", "url": "https://pokeapi.co/api/v2/item/398/"}, {"name": "hm03", "url": "https://pokeapi.co/api/v2/item/399/"}, {"name": "hm04", "url": "https://pokeapi.co/api/v2/item/400/"}]}