{"count": 2176, "next": "https://pokeapi.co/api/v2/item?offset=1200&limit=200", "previous": "https://pokeapi.co/api/v2/item?offset=800&limit=200", "results": [{"name": "health-candy-xl", "url": "https://pokeapi.co/api/v2/item/1052/"}, {"name": "mighty-candy-xl", "url": "https://pokeapi.co/api/v2/item/1053/"}, {"name": "tough-candy-xl", "url": "https://pokeapi.co/api/v2/item/1054/"}, {"name": "smart-candy-xl", "url": "https://pokeapi.co/api/v2/item/1055/"}, {"name": "courage-candy-xl", "url": "https://pokeapi.co/api/v2/item/1056/"}, {"name": "quick-candy-xl", "url": "https://pokeapi.co/api/v2/item/1057/"}, {"name": "bulbasaur-candy", "url": "https://pokeapi.co/api/v2/item/1058/"}, {"name": "charmander-candy", "url": "https://pokeapi.co/api/v2/item/1059/"}, {"name": "squirtle-candy", "url": "https://pokeapi.co/api/v2/item/1060/"}, {"name": "caterpie-candy", "url": "https://pokeapi.co/api/v2/item/1061/"}, {"name": "weedle-candy", "url": "https://pokeapi.co/api/v2/item/1062/"}, {"name": "pidgey-candy", "url": "https://pokeapi.co/api/v2/item/1063/"}, {"name": "rattata-candy", "url": "https://pokeapi.co/api/v2/item/1064/"}, {"name": "spearow-candy", "url": "https://pokeapi.co/api/v2/item/1065/"}, {"name": "ekans-candy", "url": "https://pokeapi.co/api/v2/item/1066/"}, {"name": "pikachu-candy", "url": "https://pokeapi.co/api/v2/item/1067/"}, {"name": "sandshrew-candy", "url": "https://pokeapi.co/api/v2/item/1068/"}, {"name": "nidoran-f-candy", "url": "https://pokeapi.co/api/v2/item/1069/"}, {"name": "nidoran-m-candy", "url": "https://pokeapi.co/api/v2/item/1070/"}, {"name": "clefairy-candy", "url": "https://pokeapi.co/api/v2/item/1071/"}, {"name": "vulpix-candy", "url": "https://pokeapi.co/api/v2/item/1072/"}, {"name": "jigglypuff-candy", "url": "https://pokeapi.co/api/v2/item/1073/"}, {"name": "zubat-candy", "url": "https://pokeapi.co/api/v2/item/1074/"}, {"name": "oddish-candy", "url": "https://pokeapi.co/api/v2/item/1075/"}, {"name": "paras-candy", "url": "https://pokeapi.co/api/v2/item/1076/"}, {"name": "venonat-candy", "url": "https://pokeapi.co/api/v2/item/1077/"}, {"name": "diglett-candy", "url": "https://pokeapi.co/api/v2/item/1078/"}, {"name": "meowth-candy", "url": "https://pokeapi.co/api/v2/item/1079/"}, {"name": "psyduck-candy", "url": "https://pokeapi.co/api/v2/item/1080/"}, {"name": "mankey-candy", "url": "https://pokeapi.co/api/v2/item/1081/"}, {"name": "growlithe-candy", "url": "https://pokeapi.co/api/v2/item/1082/"}, {"name": "poliwag-candy", "url": "https://pokeapi.co/api/v2/item/1083/"}, {"name": "abra-candy", "url": "https://pokeapi.co/api/v2/item/1084/"}, {"name": "machop-candy", "url": "https://pokeapi.co/api/v2/item/1085/"}, {"name": "bellsprout-candy", "url": "https://pokeapi.co/api/v2/item/1086/"}, {"name": "tentacool-candy", "url": "https://pokeapi.co/api/v2/item/1087/"}, {"name": "geodude-candy", "url": "https://pokeapi.co/api/v2/item/1088/"}, {"name": "ponyta-candy", "url": "https://pokeapi.co/api/v2/item/1089/"}, {"name": "slowpoke-candy", "url": "https://pokeapi.co/api/v2/item/1090/"}, {"name": "magnemite-candy", "url": "https://pokeapi.co/api/v2/item/1091/"}, {"name": "farfetchd-candy", "url": "https://pokeapi.co/api/v2/item/1092/"}, {"name": "doduo-candy", "url": "https://pokeapi.co/api/v2/item/1093/"}, {"name": "seel-candy", "url": "https://pokeapi.co/api/v2/item/1094/"}, {"name": "grimer-candy", "url": "https://pokeapi.co/api/v2/item/1095/"}, {"name": "shellder-candy", "url": "https://pokeapi.co/api/v2/item/1096/"}, {"name": "gastly-candy", "url": "https://pokeapi.co/api/v2/item/1097/"}, {"name": "onix-candy", "url": "https://pokeapi.co/api/v2/item/1098/"}, {"name": "drowzee-candy", "url": "https://pokeapi.co/api/v2/item/1099/"}, {"name": "krabby-candy", "url": "https://pokeapi.co/api/v2/item/1100/"}, {"name": "voltorb-candy", "url": "https://pokeapi.co/api/v2/item/1101/"}, {"name": "exeggcute-candy", "url": "https://pokeapi.co/api/v2/item/1102/"}, {"name": "cubone-candy", "url": "https://pokeapi.co/api/v2/item/1103/"}, {"name": "hitmonlee-candy", "url": "https://pokeapi.co/api/v2/item/1104/"}, {"name": "hitmonchan-candy", "url": "https://pokeapi.co/api/v2/item/1105/"}, {"name": "lickitung-candy", "url": "https://pokeapi.co/api/v2/item/1106/"}, {"name": "koffing-candy", "url": "https://pokeapi.co/api/v2/item/1107/"}, {"name": "rhyhorn-candy", "url": "https://pokeapi.co/api/v2/item/1108/"}, {"name": "chansey-candy", "url": "https://pokeapi.co/api/v2/item/1109/"}, {"name": "tangela-candy", "url": "https://pokeapi.co/api/v2/item/1110/"}, {"name": "kangaskhan-candy", "url": "https://pokeapi.co/api/v2/item/1111/"}, {"name": "horsea-candy", "url": "https://pokeapi.co/api/v2/item/1112/"}, {"name": "goldeen-candy", "url": "https://pokeapi.co/api/v2/item/1113/"}, {"name": "staryu-candy", "url": "https://pokeapi.co/api/v2/item/1114/"}, {"name": "mr-mime-candy", "url": "https://pokeapi.co/api/v2/item/1115/"}, {"name": "scyther-candy", "url": "https://pokeapi.co/api/v2/item/1116/"}, {"name": "jynx-candy", "url": "https://pokeapi.co/api/v2/item/1117/"}, {"name": "electabuzz-candy", "url": "https://pokeapi.co/api/v2/item/1118/"}, {"name": "pinsir-candy", "url": "https://pokeapi.co/api/v2/item/1119/"}, {"name": "tauros-candy", "url": "https://pokeapi.co/api/v2/item/1120/"}, {"name": "magikarp-candy", "url": "https://pokeapi.co/api/v2/item/1121/"}, {"name": "lapras-candy", "url": "https://pokeapi.co/api/v2/item/1122/"}, {"name": "ditto-candy", "url": "https://pokeapi.co/api/v2/item/1123/"}, {"name": "eevee-candy", "url": "https://pokeapi.co/api/v2/item/1124/"}, {"name": "porygon-candy", "url": "https://pokeapi.co/api/v2/item/1125/"}, {"name": "omanyte-candy", "url": "https://pokeapi.co/api/v2/item/1126/"}, {"name": "kabuto-candy", "url": "https://pokeapi.co/api/v2/item/1127/"}, {"name": "aerodactyl-candy", "url": "https://pokeapi.co/api/v2/item/1128/"}, {"name": "snorlax-candy", "url": "https://pokeapi.co/api/v2/item/1129/"}, {"name": "articuno-candy", "url": "https://pokeapi.co/api/v2/item/1130/"}, {"name": "zapdos-candy", "url": "https://pokeapi.co/api/v2/item/1131/"}, {"name": "moltres-candy", "url": "https://pokeapi.co/api/v2/item/1132/"}, {"name": "dratini-candy", "url": "https://pokeapi.co/api/v2/item/1133/"}, {"name": "mewtwo-candy", "url": "https://pokeapi.co/api/v2/item/1134/"}, {"name": "mew-candy", "url": "https://pokeapi.co/api/v2/item/1135/"}, {"name": "meltan-candy", "url": "https://pokeapi.co/api/v2/item/1136/"}, {"name": "magmar-candy", "url": "https://pokeapi.co/api/v2/item/1137/"}, {"name": "endorsement", "url": "https://pokeapi.co/api/v2/item/1138/"}, {"name": "pokemon-box-link", "url": "https://pokeapi.co/api/v2/item/1139/"}, {"name": "wishing-star", "url": "https://pokeapi.co/api/v2/item/1140/"}, {"name": "dynamax-band", "url": "https://pokeapi.co/api/v2/item/1141/"}, {"name": "fishing-rod--galar", "url": "https://pokeapi.co/api/v2/item/1142/"}, {"name": "rotom-bike", "url": "https://pokeapi.co/api/v2/item/1143/"}, {"name": "sausages", "url": "https://pokeapi.co/api/v2/item/1144/"}, {"name": "bobs-food-tin", "url": "https://pokeapi.co/api/v2/item/1145/"}, {"name": "bachs-food-tin", "url": "https://pokeapi.co/api/v2/item/1146/"}, {"name": "tin-of-beans", "url": "https://pokeapi.co/api/v2/item/1147/"}, {"name": "bread", "url": "https://pokeapi.co/api/v2/item/1148/"}, {"name": "pasta", "url": "https://pokeapi.co/api/v2/item/1149/"}, {"name": "mixed-mushrooms", "url": "https://pokeapi.co/api/v2/item/1150/"}, {"name": "smoke-poke-tail", "url": "https://pokeapi.co/api/v2/item/1151/"}, {"name": "large-leek", "url": "https://pokeapi.co/api/v2/item/1152/"}, {"name": "fancy-apple", "url": "https://pokeapi.co/api/v2/item/1153/"}, {"name": "brittle-bones", "url": "https://pokeapi.co/api/v2/item/1154/"}, {"name": "pack-of-potatoes", "url": "https://pokeapi.co/api/v2/item/1155/"}, {"name": "pungent-root", "url": "https://pokeapi.co/api/v2/item/1156/"}, {"name": "salad-mix", "url": "https://pokeapi.co/api/v2/item/1157/"}, {"name": "fried-food", "url": "https://pokeapi.co/api/v2/item/1158/"}, {"name": "boiled-egg", "url": "https://pokeapi.co/api/v2/item/1159/"}, {"name": "camping-gear", "url": "https://pokeapi.co/api/v2/item/1160/"}, {"name": "rusted-sword", "url": "https://pokeapi.co/api/v2/item/1161/"}, {"name": "rusted-shield", "url": "https://pokeapi.co/api/v2/item/1162/"}, {"name": "fossilized-bird", "url": "https://pokeapi.co/api/v2/item/1163/"}, {"name": "fossilized-fish", "url": "https://pokeapi.co/api/v2/item/1164/"}, {"name": "fossilized-drake", "url": "https://pokeapi.co/api/v2/item/1165/"}, {"name": "fossilized-dino", "url": "https://pokeapi.co/api/v2/item/1166/"}, {"name": "strawberry-sweet", "url": "https://pokeapi.co/api/v2/item/1167/"}, {"name": "love-sweet", "url": "https://pokeapi.co/api/v2/item/1168/"}, {"name": "berry-sweet", "url": "https://pokeapi.co/api/v2/item/1169/"}, {"name": "clover-sweet", "url": "https://pokeapi.co/api/v2/item/1170/"}, {"name": "flower-sweet", "url": "https://pokeapi.co/api/v2/item/1171/"}, {"name": "star-sweet", "url": "https://pokeapi.co/api/v2/item/1172/"}, {"name": "ribbon-sweet", "url": "https://pokeapi.co/api/v2/item/1173/"}, {"name": "sweet-apple", "url": "https://pokeapi.co/api/v2/item/1174/"}, {"name": "tart-apple", "url": "https://pokeapi.co/api/v2/item/1175/"}, {"name": "throat-spray", "url": "https://pokeapi.co/api/v2/item/1176/"}, {"name": "eject-pack", "url": "https://pokeapi.co/api/v2/item/1177/"}, {"name": "heavy-duty-boots", "url": "https://pokeapi.co/api/v2/item/1178/"}, {"name": "blunder-policy", "url": "https://pokeapi.co/api/v2/item/1179/"}, {"name": "room-service", "url": "https://pokeapi.co/api/v2/item/1180/"}, {"name": "utility-umbrella", "url": "https://pokeapi.co/api/v2/item/1181/"}, {"name": "exp-candy-xs", "url": "https://pokeapi.co/api/v2/item/1182/"}, {"name": "exp-candy-s", "url": "https://pokeapi.co/api/v2/item/1183/"}, {"name": "exp-candy-m", "url": "https://pokeapi.co/api/v2/item/1184/"}, {"name": "exp-candy-l", "url": "https://pokeapi.co/api/v2/item/1185/"}, {"name": "exp-candy-xl", "url": "https://pokeapi.co/api/v2/item/1186/"}, {"name": "dynamax-candy", "url": "https://pokeapi.co/api/v2/item/1187/"}, {"name": "tr00", "url": "https://pokeapi.co/api/v2/item/1188/"}, {"name": "tr01", "url": "https://pokeapi.co/api/v2/item/1189/"}, {"name": "tr02", "url": "https://pokeapi.co/api/v2/item/1190/"}, {"name": "tr03", "url": "https://pokeapi.co/api/v2/item/1191/"}, {"name": "tr04", "url": "https://pokeapi.co/api/v2/item/1192/"}, {"name": "tr05", "url": "https://pokeapi.co/api/v2/item/1193/"}, {"name": "tr06", "url": "https://pokeapi.co/api/v2/item/1194/"}, {"name": "tr07", "url": "https://pokeapi.co/api/v2/item/1195/"}, {"name": "tr08", "url": "https://pokeapi.co/api/v2/item/1196/"}, {"name": "tr09", "url": "https://pokeapi.co/api/v2/item/1197/"}, {"name": "tr10", "url": "https://pokeapi.co/api/v2/item/1198/"}, {"name": "tr11", "url": "https://pokeapi.co/api/v2/item/1199/"}, {"name": "tr12", "url": "https://pokeapi.co/api/v2/item/1200/"}, {"name": "tr13", "url": "https://pokeapi.co/api/v2/item/1201/"}, {"name": "tr14", "url": "https://pokeapi.co/api/v2/item/1202/"}, {"name": "tr15", "url": "https://pokeapi.co/api/v2/item/1203/"}, {"name": "tr16", "url": "https://pokeapi.co/api/v2/item/1204/"}, {"name": "tr17", "url": "https://pokeapi.co/api/v2/item/1205/"}, {"name": "tr18", "url": "https://pokeapi.co/api/v2/item/1206/"}, {"name": "tr19", "url": "https://pokeapi.co/api/v2/item/1207/"}, {"name": "tr20", "url": "https://pokeapi.co/api/v2/item/1208/"}, {"name": "tr21", "url": "https://pokeapi.co/api/v2/item/1209/"}, {"name": "tr22", "url": "https://pokeapi.co/api/v2/item/1210/"}, {"name": "tr23", "url": "https://pokeapi.co/api/v2/item/1211/"}, {"name": "tr24", "url": "https://pokeapi.co/api/v2/item/1212/"}, {"name": "tr25", "url": "https://pokeapi.co/api/v2/item/1213/"}, {"name": "tr26", "url": "https://pokeapi.co/api/v2/item/1214/"}, {"name": "tr27", "url": "https://pokeapi.co/api/v2/item/1215/"}, {"name": "tr28", "url": "https://pokeapi.co/api/v2/item/1216/"}, {"name": "tr29", "url": "https://pokeapi.co/api/v2/item/1217/"}, {"name": "tr30", "url": "https://pokeapi.co/api/v2/item/1218/"}, {"name": "tr31", "url": "https://pokeapi.co/api/v2/item/1219/"}, {"name": "tr32", "url": "https://pokeapi.co/api/v2/item/1220/"}, {"name": "tr33", "url": "https://pokeapi.co/api/v2/item/1221/"}, {"name": "tr34", "url": "https://pokeapi.co/api/v2/item/1222/"}, {"name": "tr35", "url": "https://pokeapi.co/api/v2/item/1223/"}, {"name": "tr36", "url": "https://pokeapi.co/api/v2/item/1224/"}, {"name": "tr37", "url": "https://pokeapi.co/api/v2/item/1225/"}, {"name": "tr38", "url": "https://pokeapi.co/api/v2/item/1226/"}, {"name": "tr39", "url": "https://pokeapi.co/api/v2/item/1227/"}, {"name": "tr40", "url": "https://pokeapi.co/api/v2/item/1228/"}, {"name": "tr41", "url": "https://pokeapi.co/api/v2/item/1229/"}, {"name": "tr42", "url": "https://pokeapi.co/api/v2/item/1230/"}, {"name": "tr43", "url": "https://pokeapi.co/api/v2/item/1231/"}, {"name": "tr44", "url": "https://pokeapi.co/api/v2/item/1232/"}, {"name": "tr45", "url": "https://pokeapi.co/api/v2/item/1233/"}, {"name": "tr46", "url": "https://pokeapi.co/api/v2/item/1234/"}, {"name": "tr47", "url": "https://pokeapi.co/api/v2/item/1235/"}, {"name": "tr48", "url": "https://pokeapi.co/api/v2/item/1236/"}, {"name": "tr49", "url": "https://pokeapi.co/api/v2/item/1237/"}, {"name": "tr50", "url": "https://pokeapi.co/api/v2/item/1238/"}, {"name": "tr51", "url": "https://pokeapi.co/api/v2/item/1239/"}, {"name": "tr52", "url": "https://pokeapi.co/api/v2/item/1240/"}, {"name": "tr53", "url": "https://pokeapi.co/api/v2/item/1241/"}, {"name": "tr54", "url": "https://pokeapi.co/api/v2/item/1242/"}, {"name": "tr55", "url": "https://pokeapi.co/api/v2/item/1243/"}, {"name": "tr56", "url": "https://pokeapi.co/api/v2/item/1244/"}, {"name": "tr57", "url": "https://pokeapi.co/api/v2/item/1245/"}, {"name": "tr58", "url": "https://pokeapi.co/api/v2/item/1246/"}, {"name": "tr59", "url": "https://pokeapi.co/api/v2/item/1247/"}, {"name": "tr60", "url": "https://pokeapi.co/api/v2/item/1248/"}, {"name": "tr61", "url": "https://pokeapi.co/api/v2/item/1249/"}, {"name": "tr62", "url": "https://pokeapi.co/api/v2/item/1250/"}, {"name": "tr63", "url": "https://pokeapi.co/api/v2/item/1251/"}]}