{"count": 2176, "next": "https://pokeapi.co/api/v2/item?offset=200&limit=200", "previous": null, "results": [{"name": "master-ball", "url": "https://pokeapi.co/api/v2/item/1/"}, {"name": "ultra-ball", "url": "https://pokeapi.co/api/v2/item/2/"}, {"name": "great-ball", "url": "https://pokeapi.co/api/v2/item/3/"}, {"name": "poke-ball", "url": "https://pokeapi.co/api/v2/item/4/"}, {"name": "safari-ball", "url": "https://pokeapi.co/api/v2/item/5/"}, {"name": "net-ball", "url": "https://pokeapi.co/api/v2/item/6/"}, {"name": "dive-ball", "url": "https://pokeapi.co/api/v2/item/7/"}, {"name": "nest-ball", "url": "https://pokeapi.co/api/v2/item/8/"}, {"name": "repeat-ball", "url": "https://pokeapi.co/api/v2/item/9/"}, {"name": "timer-ball", "url": "https://pokeapi.co/api/v2/item/10/"}, {"name": "luxury-ball", "url": "https://pokeapi.co/api/v2/item/11/"}, {"name": "premier-ball", "url": "https://pokeapi.co/api/v2/item/12/"}, {"name": "dusk-ball", "url": "https://pokeapi.co/api/v2/item/13/"}, {"name": "heal-ball", "url": "https://pokeapi.co/api/v2/item/14/"}, {"name": "quick-ball", "url": "https://pokeapi.co/api/v2/item/15/"}, {"name": "cherish-ball", "url": "https://pokeapi.co/api/v2/item/16/"}, {"name": "potion", "url": "https://pokeapi.co/api/v2/item/17/"}, {"name": "antidote", "url": "https://pokeapi.co/api/v2/item/18/"}, {"name": "burn-heal", "url": "https://pokeapi.co/api/v2/item/19/"}, {"name": "ice-heal", "url": "https://pokeapi.co/api/v2/item/20/"}, {"name": "awakening", "url": "https://pokeapi.co/api/v2/item/21/"}, {"name": "paralyze-heal", "url": "https://pokeapi.co/api/v2/item/22/"}, {"name": "full-restore", "url": "https://pokeapi.co/api/v2/item/23/"}, {"name": "max-potion", "url": "https://pokeapi.co/api/v2/item/24/"}, {"name": "hyper-potion", "url": "https://pokeapi.co/api/v2/item/25/"}, {"name": "super-potion", "url": "https://pokeapi.co/api/v2/item/26/"}, {"name": "full-heal", "url": "https://pokeapi.co/api/v2/item/27/"}, {"name": "revive", "url": "https://pokeapi.co/api/v2/item/28/"}, {"name": "max-revive", "url": "https://pokeapi.co/api/v2/item/29/"}, {"name": "fresh-water", "url": "https://pokeapi.co/api/v2/item/30/"}, {"name": "soda-pop", "url": "https://pokeapi.co/api/v2/item/31/"}, {"name": "lemonade", "url": "https://pokeapi.co/api/v2/item/32/"}, {"name": "moomoo-milk", "url": "https://pokeapi.co/api/v2/item/33/"}, {"name": "energy-powder", "url": "https://pokeapi.co/api/v2/item/34/"}, {"name": "energy-root", "url": "https://pokeapi.co/api/v2/item/35/"}, {"name": "heal-powder", "url": "https://pokeapi.co/api/v2/item/36/"}, {"name": "revival-herb", "url": "https://pokeapi.co/api/v2/item/37/"}, {"name": "ether", "url": "https://pokeapi.co/api/v2/item/38/"}, {"name": "max-ether", "url": "https://pokeapi.co/api/v2/item/39/"}, {"name": "elixir", "url": "https://pokeapi.co/api/v2/item/40/"}, {"name": "max-elixir", "url": "https://pokeapi.co/api/v2/item/41/"}, {"name": "lava-cookie", "url": "https://pokeapi.co/api/v2/item/42/"}, {"name": "berry-juice", "url": "https://pokeapi.co/api/v2/item/43/"}, {"name": "sacred-ash", "url": "https://pokeapi.co/api/v2/item/44/"}, {"name": "hp-up", "url": "https://pokeapi.co/api/v2/item/45/"}, {"name": "protein", "url": "https://pokeapi.co/api/v2/item/46/"}, {"name": "iron", "url": "https://pokeapi.co/api/v2/item/47/"}, {"name": "carbos", "url": "https://pokeapi.co/api/v2/item/48/"}, {"name": "calcium", "url": "https://pokeapi.co/api/v2/item/49/"}, {"name": "rare-candy", "url": "https://pokeapi.co/api/v2/item/50/"}, {"name": "pp-up", "url": "https://pokeapi.co/api/v2/item/51/"}, {"name": "zinc", "url": "https://pokeapi.co/api/v2/item/52/"}, {"name": "pp-max", "url": "https://pokeapi.co/api/v2/item/53/"}, {"name": "old-gateau", "url": "https://pokeapi.co/api/v2/item/54/"}, {"name": "guard-spec", "url": "https://pokeapi.co/api/v2/item/55/"}, {"name": "dire-hit", "url": "https://pokeapi.co/api/v2/item/56/"}, {"name": "x-attack", "url": "https://pokeapi.co/api/v2/item/57/"}, {"name": "x-defense", "url": "https://pokeapi.co/api/v2/item/58/"}, {"name": "x-speed", "url": "https://pokeapi.co/api/v2/item/59/"}, {"name": "x-accuracy", "url": "https://pokeapi.co/api/v2/item/60/"}, {"name": "x-sp-atk", "url": "https://pokeapi.co/api/v2/item/61/"}, {"name": "x-sp-def", "url": "https://pokeapi.co/api/v2/item/62/"}, {"name": "poke-doll", "url": "https://pokeapi.co/api/v2/item/63/"}, {"name": "fluffy-tail", "url": "https://pokeapi.co/api/v2/item/64/"}, {"name": "blue-flute", "url": "https://pokeapi.co/api/v2/item/65/"}, {"name": "yellow-flute", "url": "https://pokeapi.co/api/v2/item/66/"}, {"name": "red-flute", "url": "https://pokeapi.co/api/v2/item/67/"}, {"name": "black-flute", "url": "https://pokeapi.co/api/v2/item/68/"}, {"name": "white-flute", "url": "https://pokeapi.co/api/v2/item/69/"}, {"name": "shoal-salt", "url": "https://pokeapi.co/api/v2/item/70/"}, {"name": "shoal-shell", "url": "https://pokeapi.co/api/v2/item/71/"}, {"name": "red-shard", "url": "https://pokeapi.co/api/v2/item/72/"}, {"name": "blue-shard", "url": "https://pokeapi.co/api/v2/item/73/"}, {"name": "yellow-shard", "url": "https://pokeapi.co/api/v2/item/74/"}, {"name": "green-shard", "url": "https://pokeapi.co/api/v2/item/75/"}, {"name": "super-repel", "url": "https://pokeapi.co/api/v2/item/76/"}, {"name": "max-repel", "url": "https://pokeapi.co/api/v2/item/77/"}, {"name": "escape-rope", "url": "https://pokeapi.co/api/v2/item/78/"}, {"name": "repel", "url": "https://pokeapi.co/api/v2/item/79/"}, {"name": "sun-stone", "url": "https://pokeapi.co/api/v2/item/80/"}, {"name": "moon-stone", "url": "https://pokeapi.co/api/v2/item/81/"}, {"name": "fire-stone", "url": "https://pokeapi.co/api/v2/item/82/"}, {"name": "thunder-stone", "url": "https://pokeapi.co/api/v2/item/83/"}, {"name": "water-stone", "url": "https://pokeapi.co/api/v2/item/84/"}, {"name": "leaf-stone", "url": "https://pokeapi.co/api/v2/item/85/"}, {"name": "tiny-mushroom", "url": "https://pokeapi.co/api/v2/item/86/"}, {"name": "big-mushroom", "url": "https://pokeapi.co/api/v2/item/87/"}, {"name": "pearl", "url": "https://pokeapi.co/api/v2/item/88/"}, {"name": "big-pearl", "url": "https://pokeapi.co/api/v2/item/89/"}, {"name": "stardust", "url": "https://pokeapi.co/api/v2/item/90/"}, {"name": "star-piece", "url": "https://pokeapi.co/api/v2/item/91/"}, {"name": "nugget", "url": "https://pokeapi.co/api/v2/item/92/"}, {"name": "heart-scale", "url": "https://pokeapi.co/api/v2/item/93/"}, {"name": "honey", "url": "https://pokeapi.co/api/v2/item/94/"}, {"name": "growth-mulch", "url": "https://pokeapi.co/api/v2/item/95/"}, {"name": "damp-mulch", "url": "https://pokeapi.co/api/v2/item/96/"}, {"name": "stable-mulch", "url": "https://pokeapi.co/api/v2/item/97/"}, {"name": "gooey-mulch", "url": "https://pokeapi.co/api/v2/item/98/"}, {"name": "root-fossil", "url": "https://pokeapi.co/api/v2/item/99/"}, {"name": "claw-fossil", "url": "https://pokeapi.co/api/v2/item/100/"}, {"name": "helix-fossil", "url": "https://pokeapi.co/api/v2/item/101/"}, {"name": "dome-fossil", "url": "https://pokeapi.co/api/v2/item/102/"}, {"name": "old-amber", "url": "https://pokeapi.co/api/v2/item/103/"}, {"name": "armor-fossil", "url": "https://pokeapi.co/api/v2/item/104/"}, {"name": "skull-fossil", "url": "https://pokeapi.co/api/v2/item/105/"}, {"name": "rare-bone", "url": "https://pokeapi.co/api/v2/item/106/"}, {"name": "shiny-stone", "url": "https://pokeapi.co/api/v2/item/107/"}, {"name": "dusk-stone", "url": "https://pokeapi.co/api/v2/item/108/"}, {"name": "dawn-stone", "url": "https://pokeapi.co/api/v2/item/109/"}, {"name": "oval-stone", "url": "https://pokeapi.co/api/v2/item/110/"}, {"name": "odd-keystone", "url": "https://pokeapi.co/api/v2/item/111/"}, {"name": "adamant-orb", "url": "https://pokeapi.co/api/v2/item/112/"}, {"name": "lustrous-orb", "url": "https://pokeapi.co/api/v2/item/113/"}, {"name": "grass-mail", "url": "https://pokeapi.co/api/v2/item/114/"}, {"name": "flame-mail", "url": "https://pokeapi.co/api/v2/item/115/"}, {"name": "bubble-mail", "url": "https://pokeapi.co/api/v2/item/116/"}, {"name": "bloom-mail", "url": "https://pokeapi.co/api/v2/item/117/"}, {"name": "tunnel-mail", "url": "https://pokeapi.co/api/v2/item/118/"}, {"name": "steel-mail", "url": "https://pokeapi.co/api/v2/item/119/"}, {"name": "heart-mail", "url": "https://pokeapi.co/api/v2/item/120/"}, {"name": "snow-mail", "url": "https://pokeapi.co/api/v2/item/121/"}, {"name": "space-mail", "url": "https://pokeapi.co/api/v2/item/122/"}, {"name": "air-mail", "url": "https://pokeapi.co/api/v2/item/123/"}, {"name": "mosaic-mail", "url": "https://pokeapi.co/api/v2/item/124/"}, {"name": "brick-mail", "url": "https://pokeapi.co/api/v2/item/125/"}, {"name": "cheri-berry", "url": "https://pokeapi.co/api/v2/item/126/"}, {"name": "chesto-berry", "url": "https://pokeapi.co/api/v2/item/127/"}, {"name": "pecha-berry", "url": "https://pokeapi.co/api/v2/item/128/"}, {"name": "rawst-berry", "url": "https://pokeapi.co/api/v2/item/129/"}, {"name": "aspear-berry", "url": "https://pokeapi.co/api/v2/item/130/"}, {"name": "leppa-berry", "url": "https://pokeapi.co/api/v2/item/131/"}, {"name": "oran-berry", "url": "https://pokeapi.co/api/v2/item/132/"}, {"name": "persim-berry", "url": "https://pokeapi.co/api/v2/item/133/"}, {"name": "lum-berry", "url": "https://pokeapi.co/api/v2/item/134/"}, {"name": "sitrus-berry", "url": "https://pokeapi.co/api/v2/item/135/"}, {"name": "figy-berry", "url": "https://pokeapi.co/api/v2/item/136/"}, {"name": "wiki-berry", "url": "https://pokeapi.co/api/v2/item/137/"}, {"name": "mago-berry", "url": "https://pokeapi.co/api/v2/item/138/"}, {"name": "aguav-berry", "url": "https://pokeapi.co/api/v2/item/139/"}, {"name": "iapapa-berry", "url": "https://pokeapi.co/api/v2/item/140/"}, {"name": "razz-berry", "url": "https://pokeapi.co/api/v2/item/141/"}, {"name": "bluk-berry", "url": "https://pokeapi.co/api/v2/item/142/"}, {"name": "nanab-berry", "url": "https://pokeapi.co/api/v2/item/143/"}, {"name": "wepear-berry", "url": "https://pokeapi.co/api/v2/item/144/"}, {"name": "pinap-berry", "url": "https://pokeapi.co/api/v2/item/145/"}, {"name": "pomeg-berry", "url": "https://pokeapi.co/api/v2/item/146/"}, {"name": "kelpsy-berry", "url": "https://pokeapi.co/api/v2/item/147/"}, {"name": "qualot-berry", "url": "https://pokeapi.co/api/v2/item/148/"}, {"name": "hondew-berry", "url": "https://pokeapi.co/api/v2/item/149/"}, {"name": "grepa-berry", "url": "https://pokeapi.co/api/v2/item/150/"}, {"name": "tamato-berry", "url": "https://pokeapi.co/api/v2/item/151/"}, {"name": "cornn-berry", "url": "https://pokeapi.co/api/v2/item/152/"}, {"name": "magost-berry", "url": "https://pokeapi.co/api/v2/item/153/"}, {"name": "rabuta-berry", "url": "https://pokeapi.co/api/v2/item/154/"}, {"name": "nomel-berry", "url": "https://pokeapi.co/api/v2/item/155/"}, {"name": "spelon-berry", "url": "https://pokeapi.co/api/v2/item/156/"}, {"name": "pamtre-berry", "url": "https://pokeapi.co/api/v2/item/157/"}, {"name": "watmel-berry", "url": "https://pokeapi.co/api/v2/item/158/"}, {"name": "durin-berry", "url": "https://pokeapi.co/api/v2/item/159/"}, {"name": "belue-berry", "url": "https://pokeapi.co/api/v2/item/160/"}, {"name": "occa-berry", "url": "https://pokeapi.co/api/v2/item/161/"}, {"name": "passho-berry", "url": "https://pokeapi.co/api/v2/item/162/"}, {"name": "wacan-berry", "url": "https://pokeapi.co/api/v2/item/163/"}, {"name": "rindo-berry", "url": "https://pokeapi.co/api/v2/item/164/"}, {"name": "yache-berry", "url": "https://pokeapi.co/api/v2/item/165/"}, {"name": "chople-berry", "url": "https://pokeapi.co/api/v2/item/166/"}, {"name": "kebia-berry", "url": "https://pokeapi.co/api/v2/item/167/"}, {"name": "shuca-berry", "url": "https://pokeapi.co/api/v2/item/168/"}, {"name": "coba-berry", "url": "https://pokeapi.co/api/v2/item/169/"}, {"name": "payapa-berry", "url": "https://pokeapi.co/api/v2/item/170/"}, {"name": "tanga-berry", "url": "https://pokeapi.co/api/v2/item/171/"}, {"name": "charti-berry", "url": "https://pokeapi.co/api/v2/item/172/"}, {"name": "kasib-berry", "url": "https://pokeapi.co/api/v2/item/173/"}, {"name": "haban-berry", "url": "https://pokeapi.co/api/v2/item/174/"}, {"name": "colbur-berry", "url": "https://pokeapi.co/api/v2/item/175/"}, {"name": "babiri-berry", "url": "https://pokeapi.co/api/v2/item/176/"}, {"name": "chilan-berry", "url": "https://pokeapi.co/api/v2/item/177/"}, {"name": "liechi-berry", "url": "https://pokeapi.co/api/v2/item/178/"}, {"name": "ganlon-berry", "url": "https://pokeapi.co/api/v2/item/179/"}, {"name": "salac-berry", "url": "https://pokeapi.co/api/v2/item/180/"}, {"name": "petaya-berry", "url": "https://pokeapi.co/api/v2/item/181/"}, {"name": "apicot-berry", "url": "https://pokeapi.co/api/v2/item/182/"}, {"name": "lansat-berry", "url": "https://pokeapi.co/api/v2/item/183/"}, {"name": "starf-berry", "url": "https://pokeapi.co/api/v2/item/184/"}, {"name": "enigma-berry", "url": "https://pokeapi.co/api/v2/item/185/"}, {"name": "micle-berry", "url": "https://pokeapi.co/api/v2/item/186/"}, {"name": "custap-berry", "url": "https://pokeapi.co/api/v2/item/187/"}, {"name": "jaboca-berry", "url": "https://pokeapi.co/api/v2/item/188/"}, {"name": "rowap-berry", "url": "https://pokeapi.co/api/v2/item/189/"}, {"name": "bright-powder", "url": "https://pokeapi.co/api/v2/item/190/"}, {"name": "white-herb", "url": "https://pokeapi.co/api/v2/item/191/"}, {"name": "macho-brace", "url": "https://pokeapi.co/api/v2/item/192/"}, {"name": "exp-share", "url": "https://pokeapi.co/api/v2/item/193/"}, {"name": "quick-claw", "url": "https://pokeapi.co/api/v2/item/194/"}, {"name": "soothe-bell", "url": "https://pokeapi.co/api/v2/item/195/"}, {"name": "mental-herb", "url": "https://pokeapi.co/api/v2/item/196/"}, {"name": "choice-band", "url": "https://pokeapi.co/api/v2/item/197/"}, {"name": "kings-rock", "url": "https://pokeapi.co/api/v2/item/198/"}, {"name": "silver-powder", "url": "https://pokeapi.co/api/v2/item/199/"}, {"name": "amulet-coin", "url": "https://pokeapi.co/api/v2/item/200/"}]}