{"count": 2176, "next": "https://pokeapi.co/api/v2/item?offset=1800&limit=200", "previous": "https://pokeapi.co/api/v2/item?offset=1400&limit=200", "results": [{"name": "black-mane-hair", "url": "https://pokeapi.co/api/v2/item/1652/"}, {"name": "iceroot-carrot", "url": "https://pokeapi.co/api/v2/item/1653/"}, {"name": "shaderoot-carrot", "url": "https://pokeapi.co/api/v2/item/1654/"}, {"name": "dynite-ore", "url": "https://pokeapi.co/api/v2/item/1655/"}, {"name": "carrot-seeds", "url": "https://pokeapi.co/api/v2/item/1656/"}, {"name": "ability-patch", "url": "https://pokeapi.co/api/v2/item/1657/"}, {"name": "reins-of-unity", "url": "https://pokeapi.co/api/v2/item/1658/"}, {"name": "adamant-crystal", "url": "https://pokeapi.co/api/v2/item/1659/"}, {"name": "lustrous-globe", "url": "https://pokeapi.co/api/v2/item/1660/"}, {"name": "griseous-core", "url": "https://pokeapi.co/api/v2/item/1661/"}, {"name": "blank-plate", "url": "https://pokeapi.co/api/v2/item/1662/"}, {"name": "strange-ball", "url": "https://pokeapi.co/api/v2/item/1663/"}, {"name": "legend-plate", "url": "https://pokeapi.co/api/v2/item/1664/"}, {"name": "rotom-phone", "url": "https://pokeapi.co/api/v2/item/1665/"}, {"name": "sandwich", "url": "https://pokeapi.co/api/v2/item/1666/"}, {"name": "koraidons-poke-ball", "url": "https://pokeapi.co/api/v2/item/1667/"}, {"name": "miraidons-poke-ball", "url": "https://pokeapi.co/api/v2/item/1668/"}, {"name": "tera-orb", "url": "https://pokeapi.co/api/v2/item/1669/"}, {"name": "scarlet-book", "url": "https://pokeapi.co/api/v2/item/1670/"}, {"name": "violet-book", "url": "https://pokeapi.co/api/v2/item/1671/"}, {"name": "kofu\u2019s-wallet", "url": "https://pokeapi.co/api/v2/item/1672/"}, {"name": "tiny-bamboo-shoot", "url": "https://pokeapi.co/api/v2/item/1673/"}, {"name": "big-bamboo-shoot", "url": "https://pokeapi.co/api/v2/item/1674/"}, {"name": "scroll-of-darkness", "url": "https://pokeapi.co/api/v2/item/1675/"}, {"name": "scroll-of-waters", "url": "https://pokeapi.co/api/v2/item/1676/"}, {"name": "malicious-armor", "url": "https://pokeapi.co/api/v2/item/1677/"}, {"name": "normal-tera-shard", "url": "https://pokeapi.co/api/v2/item/1678/"}, {"name": "fire-tera-shard", "url": "https://pokeapi.co/api/v2/item/1679/"}, {"name": "water-tera-shard", "url": "https://pokeapi.co/api/v2/item/1680/"}, {"name": "electric-tera-shard", "url": "https://pokeapi.co/api/v2/item/1681/"}, {"name": "grass-tera-shard", "url": "https://pokeapi.co/api/v2/item/1682/"}, {"name": "ice-tera-shard", "url": "https://pokeapi.co/api/v2/item/1683/"}, {"name": "fighting-tera-shard", "url": "https://pokeapi.co/api/v2/item/1684/"}, {"name": "poison-tera-shard", "url": "https://pokeapi.co/api/v2/item/1685/"}, {"name": "ground-tera-shard", "url": "https://pokeapi.co/api/v2/item/1686/"}, {"name": "flying-tera-shard", "url": "https://pokeapi.co/api/v2/item/1687/"}, {"name": "psychic-tera-shard", "url": "https://pokeapi.co/api/v2/item/1688/"}, {"name": "bug-tera-shard", "url": "https://pokeapi.co/api/v2/item/1689/"}, {"name": "rock-tera-shard", "url": "https://pokeapi.co/api/v2/item/1690/"}, {"name": "ghost-tera-shard", "url": "https://pokeapi.co/api/v2/item/1691/"}, {"name": "dragon-tera-shard", "url": "https://pokeapi.co/api/v2/item/1692/"}, {"name": "dark-tera-shard", "url": "https://pokeapi.co/api/v2/item/1693/"}, {"name": "steel-tera-shard", "url": "https://pokeapi.co/api/v2/item/1694/"}, {"name": "fairy-tera-shard", "url": "https://pokeapi.co/api/v2/item/1695/"}, {"name": "booster-energy", "url": "https://pokeapi.co/api/v2/item/1696/"}, {"name": "ability-shield", "url": "https://pokeapi.co/api/v2/item/1697/"}, {"name": "clear-amulet", "url": "https://pokeapi.co/api/v2/item/1698/"}, {"name": "mirror-herb", "url": "https://pokeapi.co/api/v2/item/1699/"}, {"name": "punching-glove", "url": "https://pokeapi.co/api/v2/item/1700/"}, {"name": "covert-cloak", "url": "https://pokeapi.co/api/v2/item/1701/"}, {"name": "loaded-dice", "url": "https://pokeapi.co/api/v2/item/1702/"}, {"name": "baguette", "url": "https://pokeapi.co/api/v2/item/1703/"}, {"name": "mayonnaise", "url": "https://pokeapi.co/api/v2/item/1704/"}, {"name": "ketchup", "url": "https://pokeapi.co/api/v2/item/1705/"}, {"name": "mustard", "url": "https://pokeapi.co/api/v2/item/1706/"}, {"name": "butter", "url": "https://pokeapi.co/api/v2/item/1707/"}, {"name": "peanut-butter", "url": "https://pokeapi.co/api/v2/item/1708/"}, {"name": "chili-sauce", "url": "https://pokeapi.co/api/v2/item/1709/"}, {"name": "salt", "url": "https://pokeapi.co/api/v2/item/1710/"}, {"name": "pepper", "url": "https://pokeapi.co/api/v2/item/1711/"}, {"name": "yogurt", "url": "https://pokeapi.co/api/v2/item/1712/"}, {"name": "whipped-cream", "url": "https://pokeapi.co/api/v2/item/1713/"}, {"name": "cream-cheese", "url": "https://pokeapi.co/api/v2/item/1714/"}, {"name": "jam", "url": "https://pokeapi.co/api/v2/item/1715/"}, {"name": "marmalade", "url": "https://pokeapi.co/api/v2/item/1716/"}, {"name": "olive-oil", "url": "https://pokeapi.co/api/v2/item/1717/"}, {"name": "vinegar", "url": "https://pokeapi.co/api/v2/item/1718/"}, {"name": "sweet-herba-mystica", "url": "https://pokeapi.co/api/v2/item/1719/"}, {"name": "salty-herba-mystica", "url": "https://pokeapi.co/api/v2/item/1720/"}, {"name": "sour-herba-mystica", "url": "https://pokeapi.co/api/v2/item/1721/"}, {"name": "bitter-herba-mystica", "url": "https://pokeapi.co/api/v2/item/1722/"}, {"name": "spicy-herba-mystica", "url": "https://pokeapi.co/api/v2/item/1723/"}, {"name": "lettuce", "url": "https://pokeapi.co/api/v2/item/1724/"}, {"name": "tomato", "url": "https://pokeapi.co/api/v2/item/1725/"}, {"name": "cherry-tomatoes", "url": "https://pokeapi.co/api/v2/item/1726/"}, {"name": "cucumber", "url": "https://pokeapi.co/api/v2/item/1727/"}, {"name": "pickle", "url": "https://pokeapi.co/api/v2/item/1728/"}, {"name": "onion", "url": "https://pokeapi.co/api/v2/item/1729/"}, {"name": "red-onion", "url": "https://pokeapi.co/api/v2/item/1730/"}, {"name": "green-bell-pepper", "url": "https://pokeapi.co/api/v2/item/1731/"}, {"name": "red-bell-pepper", "url": "https://pokeapi.co/api/v2/item/1732/"}, {"name": "yellow-bell-pepper", "url": "https://pokeapi.co/api/v2/item/1733/"}, {"name": "avocado", "url": "https://pokeapi.co/api/v2/item/1734/"}, {"name": "bacon", "url": "https://pokeapi.co/api/v2/item/1735/"}, {"name": "ham", "url": "https://pokeapi.co/api/v2/item/1736/"}, {"name": "prosciutto", "url": "https://pokeapi.co/api/v2/item/1737/"}, {"name": "chorizo", "url": "https://pokeapi.co/api/v2/item/1738/"}, {"name": "herbed-sausage", "url": "https://pokeapi.co/api/v2/item/1739/"}, {"name": "hamburger", "url": "https://pokeapi.co/api/v2/item/1740/"}, {"name": "klawf-stick", "url": "https://pokeapi.co/api/v2/item/1741/"}, {"name": "smoked-fillet", "url": "https://pokeapi.co/api/v2/item/1742/"}, {"name": "fried-fillet", "url": "https://pokeapi.co/api/v2/item/1743/"}, {"name": "egg", "url": "https://pokeapi.co/api/v2/item/1744/"}, {"name": "potato-tortilla", "url": "https://pokeapi.co/api/v2/item/1745/"}, {"name": "tofu", "url": "https://pokeapi.co/api/v2/item/1746/"}, {"name": "rice", "url": "https://pokeapi.co/api/v2/item/1747/"}, {"name": "noodles", "url": "https://pokeapi.co/api/v2/item/1748/"}, {"name": "potato-salad", "url": "https://pokeapi.co/api/v2/item/1749/"}, {"name": "cheese", "url": "https://pokeapi.co/api/v2/item/1750/"}, {"name": "banana", "url": "https://pokeapi.co/api/v2/item/1751/"}, {"name": "strawberry", "url": "https://pokeapi.co/api/v2/item/1752/"}, {"name": "apple", "url": "https://pokeapi.co/api/v2/item/1753/"}, {"name": "kiwi", "url": "https://pokeapi.co/api/v2/item/1754/"}, {"name": "pineapple", "url": "https://pokeapi.co/api/v2/item/1755/"}, {"name": "jalape\u00f1o", "url": "https://pokeapi.co/api/v2/item/1756/"}, {"name": "horseradish", "url": "https://pokeapi.co/api/v2/item/1757/"}, {"name": "curry-powder", "url": "https://pokeapi.co/api/v2/item/1758/"}, {"name": "wasabi", "url": "https://pokeapi.co/api/v2/item/1759/"}, {"name": "watercress", "url": "https://pokeapi.co/api/v2/item/1760/"}, {"name": "basil", "url": "https://pokeapi.co/api/v2/item/1761/"}, {"name": "venonat-fang", "url": "https://pokeapi.co/api/v2/item/1762/"}, {"name": "diglett-dirt", "url": "https://pokeapi.co/api/v2/item/1763/"}, {"name": "meowth-fur", "url": "https://pokeapi.co/api/v2/item/1764/"}, {"name": "psyduck-down", "url": "https://pokeapi.co/api/v2/item/1765/"}, {"name": "mankey-fur", "url": "https://pokeapi.co/api/v2/item/1766/"}, {"name": "growlithe-fur", "url": "https://pokeapi.co/api/v2/item/1767/"}, {"name": "slowpoke-claw", "url": "https://pokeapi.co/api/v2/item/1768/"}, {"name": "magnemite-screw", "url": "https://pokeapi.co/api/v2/item/1769/"}, {"name": "grimer-toxin", "url": "https://pokeapi.co/api/v2/item/1770/"}, {"name": "shellder-pearl", "url": "https://pokeapi.co/api/v2/item/1771/"}, {"name": "gastly-gas", "url": "https://pokeapi.co/api/v2/item/1772/"}, {"name": "drowzee-fur", "url": "https://pokeapi.co/api/v2/item/1773/"}, {"name": "voltorb-sparks", "url": "https://pokeapi.co/api/v2/item/1774/"}, {"name": "scyther-claw", "url": "https://pokeapi.co/api/v2/item/1775/"}, {"name": "tauros-hair", "url": "https://pokeapi.co/api/v2/item/1776/"}, {"name": "magikarp-scales", "url": "https://pokeapi.co/api/v2/item/1777/"}, {"name": "ditto-goo", "url": "https://pokeapi.co/api/v2/item/1778/"}, {"name": "eevee-fur", "url": "https://pokeapi.co/api/v2/item/1779/"}, {"name": "dratini-scales", "url": "https://pokeapi.co/api/v2/item/1780/"}, {"name": "pichu-fur", "url": "https://pokeapi.co/api/v2/item/1781/"}, {"name": "igglybuff-fluff", "url": "https://pokeapi.co/api/v2/item/1782/"}, {"name": "mareep-wool", "url": "https://pokeapi.co/api/v2/item/1783/"}, {"name": "hoppip-leaf", "url": "https://pokeapi.co/api/v2/item/1784/"}, {"name": "sunkern-leaf", "url": "https://pokeapi.co/api/v2/item/1785/"}, {"name": "murkrow-bauble", "url": "https://pokeapi.co/api/v2/item/1786/"}, {"name": "misdreavus-tears", "url": "https://pokeapi.co/api/v2/item/1787/"}, {"name": "girafarig-fur", "url": "https://pokeapi.co/api/v2/item/1788/"}, {"name": "pineco-husk", "url": "https://pokeapi.co/api/v2/item/1789/"}, {"name": "dunsparce-scales", "url": "https://pokeapi.co/api/v2/item/1790/"}, {"name": "qwilfish-spines", "url": "https://pokeapi.co/api/v2/item/1791/"}, {"name": "heracross-claw", "url": "https://pokeapi.co/api/v2/item/1792/"}, {"name": "sneasel-claw", "url": "https://pokeapi.co/api/v2/item/1793/"}, {"name": "teddiursa-claw", "url": "https://pokeapi.co/api/v2/item/1794/"}, {"name": "delibird-parcel", "url": "https://pokeapi.co/api/v2/item/1795/"}, {"name": "houndour-fang", "url": "https://pokeapi.co/api/v2/item/1796/"}, {"name": "phanpy-nail", "url": "https://pokeapi.co/api/v2/item/1797/"}, {"name": "stantler-hair", "url": "https://pokeapi.co/api/v2/item/1798/"}, {"name": "larvitar-claw", "url": "https://pokeapi.co/api/v2/item/1799/"}, {"name": "wingull-feather", "url": "https://pokeapi.co/api/v2/item/1800/"}, {"name": "ralts-dust", "url": "https://pokeapi.co/api/v2/item/1801/"}, {"name": "surskit-syrup", "url": "https://pokeapi.co/api/v2/item/1802/"}, {"name": "shroomish-spores", "url": "https://pokeapi.co/api/v2/item/1803/"}, {"name": "slakoth-fur", "url": "https://pokeapi.co/api/v2/item/1804/"}, {"name": "makuhita-sweat", "url": "https://pokeapi.co/api/v2/item/1805/"}, {"name": "azurill-fur", "url": "https://pokeapi.co/api/v2/item/1806/"}, {"name": "sableye-gem", "url": "https://pokeapi.co/api/v2/item/1807/"}, {"name": "meditite-sweat", "url": "https://pokeapi.co/api/v2/item/1808/"}, {"name": "gulpin-mucus", "url": "https://pokeapi.co/api/v2/item/1809/"}, {"name": "numel-lava", "url": "https://pokeapi.co/api/v2/item/1810/"}, {"name": "torkoal-coal", "url": "https://pokeapi.co/api/v2/item/1811/"}, {"name": "spoink-pearl", "url": "https://pokeapi.co/api/v2/item/1812/"}, {"name": "cacnea-needle", "url": "https://pokeapi.co/api/v2/item/1813/"}, {"name": "swablu-fluff", "url": "https://pokeapi.co/api/v2/item/1814/"}, {"name": "zangoose-claw", "url": "https://pokeapi.co/api/v2/item/1815/"}, {"name": "seviper-fang", "url": "https://pokeapi.co/api/v2/item/1816/"}, {"name": "barboach-slime", "url": "https://pokeapi.co/api/v2/item/1817/"}, {"name": "shuppet-scrap", "url": "https://pokeapi.co/api/v2/item/1818/"}, {"name": "tropius-leaf", "url": "https://pokeapi.co/api/v2/item/1819/"}, {"name": "snorunt-fur", "url": "https://pokeapi.co/api/v2/item/1820/"}, {"name": "luvdisc-scales", "url": "https://pokeapi.co/api/v2/item/1821/"}, {"name": "bagon-scales", "url": "https://pokeapi.co/api/v2/item/1822/"}, {"name": "starly-feather", "url": "https://pokeapi.co/api/v2/item/1823/"}, {"name": "kricketot-shell", "url": "https://pokeapi.co/api/v2/item/1824/"}, {"name": "shinx-fang", "url": "https://pokeapi.co/api/v2/item/1825/"}, {"name": "combee-honey", "url": "https://pokeapi.co/api/v2/item/1826/"}, {"name": "pachirisu-fur", "url": "https://pokeapi.co/api/v2/item/1827/"}, {"name": "buizel-fur", "url": "https://pokeapi.co/api/v2/item/1828/"}, {"name": "shellos-mucus", "url": "https://pokeapi.co/api/v2/item/1829/"}, {"name": "drifloon-gas", "url": "https://pokeapi.co/api/v2/item/1830/"}, {"name": "stunky-fur", "url": "https://pokeapi.co/api/v2/item/1831/"}, {"name": "bronzor-fragment", "url": "https://pokeapi.co/api/v2/item/1832/"}, {"name": "bonsly-tears", "url": "https://pokeapi.co/api/v2/item/1833/"}, {"name": "happiny-dust", "url": "https://pokeapi.co/api/v2/item/1834/"}, {"name": "spiritomb-fragment", "url": "https://pokeapi.co/api/v2/item/1835/"}, {"name": "gible-scales", "url": "https://pokeapi.co/api/v2/item/1836/"}, {"name": "riolu-fur", "url": "https://pokeapi.co/api/v2/item/1837/"}, {"name": "hippopotas-sand", "url": "https://pokeapi.co/api/v2/item/1838/"}, {"name": "croagunk-poison", "url": "https://pokeapi.co/api/v2/item/1839/"}, {"name": "finneon-scales", "url": "https://pokeapi.co/api/v2/item/1840/"}, {"name": "snover-berries", "url": "https://pokeapi.co/api/v2/item/1841/"}, {"name": "rotom-sparks", "url": "https://pokeapi.co/api/v2/item/1842/"}, {"name": "petilil-leaf", "url": "https://pokeapi.co/api/v2/item/1843/"}, {"name": "basculin-fang", "url": "https://pokeapi.co/api/v2/item/1844/"}, {"name": "sandile-claw", "url": "https://pokeapi.co/api/v2/item/1845/"}, {"name": "zorua-fur", "url": "https://pokeapi.co/api/v2/item/1846/"}, {"name": "gothita-eyelash", "url": "https://pokeapi.co/api/v2/item/1847/"}, {"name": "deerling-hair", "url": "https://pokeapi.co/api/v2/item/1848/"}, {"name": "foongus-spores", "url": "https://pokeapi.co/api/v2/item/1849/"}, {"name": "alomomola-mucus", "url": "https://pokeapi.co/api/v2/item/1850/"}, {"name": "tynamo-slime", "url": "https://pokeapi.co/api/v2/item/1851/"}]}