{"count": 2176, "next": "https://pokeapi.co/api/v2/item?offset=1400&limit=200", "previous": "https://pokeapi.co/api/v2/item?offset=1000&limit=200", "results": [{"name": "tr64", "url": "https://pokeapi.co/api/v2/item/1252/"}, {"name": "tr65", "url": "https://pokeapi.co/api/v2/item/1253/"}, {"name": "tr66", "url": "https://pokeapi.co/api/v2/item/1254/"}, {"name": "tr67", "url": "https://pokeapi.co/api/v2/item/1255/"}, {"name": "tr68", "url": "https://pokeapi.co/api/v2/item/1256/"}, {"name": "tr69", "url": "https://pokeapi.co/api/v2/item/1257/"}, {"name": "tr70", "url": "https://pokeapi.co/api/v2/item/1258/"}, {"name": "tr71", "url": "https://pokeapi.co/api/v2/item/1259/"}, {"name": "tr72", "url": "https://pokeapi.co/api/v2/item/1260/"}, {"name": "tr73", "url": "https://pokeapi.co/api/v2/item/1261/"}, {"name": "tr74", "url": "https://pokeapi.co/api/v2/item/1262/"}, {"name": "tr75", "url": "https://pokeapi.co/api/v2/item/1263/"}, {"name": "tr76", "url": "https://pokeapi.co/api/v2/item/1264/"}, {"name": "tr77", "url": "https://pokeapi.co/api/v2/item/1265/"}, {"name": "tr78", "url": "https://pokeapi.co/api/v2/item/1266/"}, {"name": "tr79", "url": "https://pokeapi.co/api/v2/item/1267/"}, {"name": "tr80", "url": "https://pokeapi.co/api/v2/item/1268/"}, {"name": "tr81", "url": "https://pokeapi.co/api/v2/item/1269/"}, {"name": "tr82", "url": "https://pokeapi.co/api/v2/item/1270/"}, {"name": "tr83", "url": "https://pokeapi.co/api/v2/item/1271/"}, {"name": "tr84", "url": "https://pokeapi.co/api/v2/item/1272/"}, {"name": "tr85", "url": "https://pokeapi.co/api/v2/item/1273/"}, {"name": "tr86", "url": "https://pokeapi.co/api/v2/item/1274/"}, {"name": "tr87", "url": "https://pokeapi.co/api/v2/item/1275/"}, {"name": "tr88", "url": "https://pokeapi.co/api/v2/item/1276/"}, {"name": "tr89", "url": "https://pokeapi.co/api/v2/item/1277/"}, {"name": "tr90", "url": "https://pokeapi.co/api/v2/item/1278/"}, {"name": "tr91", "url": "https://pokeapi.co/api/v2/item/1279/"}, {"name": "tr92", "url": "https://pokeapi.co/api/v2/item/1280/"}, {"name": "tr93", "url": "https://pokeapi.co/api/v2/item/1281/"}, {"name": "tr94", "url": "https://pokeapi.co/api/v2/item/1282/"}, {"name": "tr95", "url": "https://pokeapi.co/api/v2/item/1283/"}, {"name": "tr96", "url": "https://pokeapi.co/api/v2/item/1284/"}, {"name": "tr97", "url": "https://pokeapi.co/api/v2/item/1285/"}, {"name": "tr98", "url": "https://pokeapi.co/api/v2/item/1286/"}, {"name": "tr99", "url": "https://pokeapi.co/api/v2/item/1287/"}, {"name": "tm00", "url": "https://pokeapi.co/api/v2/item/1288/"}, {"name": "lonely-mint", "url": "https://pokeapi.co/api/v2/item/1289/"}, {"name": "adamant-mint", "url": "https://pokeapi.co/api/v2/item/1290/"}, {"name": "naughty-mint", "url": "https://pokeapi.co/api/v2/item/1291/"}, {"name": "brave-mint", "url": "https://pokeapi.co/api/v2/item/1292/"}, {"name": "bold-mint", "url": "https://pokeapi.co/api/v2/item/1293/"}, {"name": "impish-mint", "url": "https://pokeapi.co/api/v2/item/1294/"}, {"name": "lax-mint", "url": "https://pokeapi.co/api/v2/item/1295/"}, {"name": "relaxed-mint", "url": "https://pokeapi.co/api/v2/item/1296/"}, {"name": "modest-mint", "url": "https://pokeapi.co/api/v2/item/1297/"}, {"name": "mild-mint", "url": "https://pokeapi.co/api/v2/item/1298/"}, {"name": "rash-mint", "url": "https://pokeapi.co/api/v2/item/1299/"}, {"name": "quiet-mint", "url": "https://pokeapi.co/api/v2/item/1300/"}, {"name": "calm-mint", "url": "https://pokeapi.co/api/v2/item/1301/"}, {"name": "gentle-mint", "url": "https://pokeapi.co/api/v2/item/1302/"}, {"name": "careful-mint", "url": "https://pokeapi.co/api/v2/item/1303/"}, {"name": "sassy-mint", "url": "https://pokeapi.co/api/v2/item/1304/"}, {"name": "timid-mint", "url": "https://pokeapi.co/api/v2/item/1305/"}, {"name": "hasty-mint", "url": "https://pokeapi.co/api/v2/item/1306/"}, {"name": "jolly-mint", "url": "https://pokeapi.co/api/v2/item/1307/"}, {"name": "naive-mint", "url": "https://pokeapi.co/api/v2/item/1308/"}, {"name": "serious-mint", "url": "https://pokeapi.co/api/v2/item/1309/"}, {"name": "wishing-piece", "url": "https://pokeapi.co/api/v2/item/1310/"}, {"name": "cracked-pot", "url": "https://pokeapi.co/api/v2/item/1311/"}, {"name": "chipped-pot", "url": "https://pokeapi.co/api/v2/item/1312/"}, {"name": "hi-tech-earbuds", "url": "https://pokeapi.co/api/v2/item/1313/"}, {"name": "fruit-bunch", "url": "https://pokeapi.co/api/v2/item/1314/"}, {"name": "moomoo-cheese", "url": "https://pokeapi.co/api/v2/item/1315/"}, {"name": "spice-mix", "url": "https://pokeapi.co/api/v2/item/1316/"}, {"name": "fresh-cream", "url": "https://pokeapi.co/api/v2/item/1317/"}, {"name": "packaged-curry", "url": "https://pokeapi.co/api/v2/item/1318/"}, {"name": "coconut-milk", "url": "https://pokeapi.co/api/v2/item/1319/"}, {"name": "instant-noodles", "url": "https://pokeapi.co/api/v2/item/1320/"}, {"name": "precooked-burger", "url": "https://pokeapi.co/api/v2/item/1321/"}, {"name": "gigantamix", "url": "https://pokeapi.co/api/v2/item/1322/"}, {"name": "wishing-chip", "url": "https://pokeapi.co/api/v2/item/1323/"}, {"name": "rotom-bike--water-mode", "url": "https://pokeapi.co/api/v2/item/1324/"}, {"name": "catching-charm", "url": "https://pokeapi.co/api/v2/item/1325/"}, {"name": "old-letter", "url": "https://pokeapi.co/api/v2/item/1326/"}, {"name": "band-autograph", "url": "https://pokeapi.co/api/v2/item/1327/"}, {"name": "sonias-book", "url": "https://pokeapi.co/api/v2/item/1328/"}, {"name": "rotom-catalog", "url": "https://pokeapi.co/api/v2/item/1329/"}, {"name": "dynamax-crystal-and458", "url": "https://pokeapi.co/api/v2/item/1330/"}, {"name": "dynamax-crystal-and15", "url": "https://pokeapi.co/api/v2/item/1331/"}, {"name": "dynamax-crystal-and337", "url": "https://pokeapi.co/api/v2/item/1332/"}, {"name": "dynamax-crystal-and603", "url": "https://pokeapi.co/api/v2/item/1333/"}, {"name": "dynamax-crystal-and390", "url": "https://pokeapi.co/api/v2/item/1334/"}, {"name": "dynamax-crystal-sgr6879", "url": "https://pokeapi.co/api/v2/item/1335/"}, {"name": "dynamax-crystal-sgr6859", "url": "https://pokeapi.co/api/v2/item/1336/"}, {"name": "dynamax-crystal-sgr6913", "url": "https://pokeapi.co/api/v2/item/1337/"}, {"name": "dynamax-crystal-sgr7348", "url": "https://pokeapi.co/api/v2/item/1338/"}, {"name": "dynamax-crystal-sgr7121", "url": "https://pokeapi.co/api/v2/item/1339/"}, {"name": "dynamax-crystal-sgr6746", "url": "https://pokeapi.co/api/v2/item/1340/"}, {"name": "dynamax-crystal-sgr7194", "url": "https://pokeapi.co/api/v2/item/1341/"}, {"name": "dynamax-crystal-sgr7337", "url": "https://pokeapi.co/api/v2/item/1342/"}, {"name": "dynamax-crystal-sgr7343", "url": "https://pokeapi.co/api/v2/item/1343/"}, {"name": "dynamax-crystal-sgr6812", "url": "https://pokeapi.co/api/v2/item/1344/"}, {"name": "dynamax-crystal-sgr7116", "url": "https://pokeapi.co/api/v2/item/1345/"}, {"name": "dynamax-crystal-sgr7264", "url": "https://pokeapi.co/api/v2/item/1346/"}, {"name": "dynamax-crystal-sgr7597", "url": "https://pokeapi.co/api/v2/item/1347/"}, {"name": "dynamax-crystal-del7882", "url": "https://pokeapi.co/api/v2/item/1348/"}, {"name": "dynamax-crystal-del7906", "url": "https://pokeapi.co/api/v2/item/1349/"}, {"name": "dynamax-crystal-del7852", "url": "https://pokeapi.co/api/v2/item/1350/"}, {"name": "dynamax-crystal-psc596", "url": "https://pokeapi.co/api/v2/item/1351/"}, {"name": "dynamax-crystal-psc361", "url": "https://pokeapi.co/api/v2/item/1352/"}, {"name": "dynamax-crystal-psc510", "url": "https://pokeapi.co/api/v2/item/1353/"}, {"name": "dynamax-crystal-psc437", "url": "https://pokeapi.co/api/v2/item/1354/"}, {"name": "dynamax-crystal-psc8773", "url": "https://pokeapi.co/api/v2/item/1355/"}, {"name": "dynamax-crystal-lep1865", "url": "https://pokeapi.co/api/v2/item/1356/"}, {"name": "dynamax-crystal-lep1829", "url": "https://pokeapi.co/api/v2/item/1357/"}, {"name": "dynamax-crystal-boo5340", "url": "https://pokeapi.co/api/v2/item/1358/"}, {"name": "dynamax-crystal-boo5506", "url": "https://pokeapi.co/api/v2/item/1359/"}, {"name": "dynamax-crystal-boo5435", "url": "https://pokeapi.co/api/v2/item/1360/"}, {"name": "dynamax-crystal-boo5602", "url": "https://pokeapi.co/api/v2/item/1361/"}, {"name": "dynamax-crystal-boo5733", "url": "https://pokeapi.co/api/v2/item/1362/"}, {"name": "dynamax-crystal-boo5235", "url": "https://pokeapi.co/api/v2/item/1363/"}, {"name": "dynamax-crystal-boo5351", "url": "https://pokeapi.co/api/v2/item/1364/"}, {"name": "dynamax-crystal-hya3748", "url": "https://pokeapi.co/api/v2/item/1365/"}, {"name": "dynamax-crystal-hya3903", "url": "https://pokeapi.co/api/v2/item/1366/"}, {"name": "dynamax-crystal-hya3418", "url": "https://pokeapi.co/api/v2/item/1367/"}, {"name": "dynamax-crystal-hya3482", "url": "https://pokeapi.co/api/v2/item/1368/"}, {"name": "dynamax-crystal-hya3845", "url": "https://pokeapi.co/api/v2/item/1369/"}, {"name": "dynamax-crystal-eri1084", "url": "https://pokeapi.co/api/v2/item/1370/"}, {"name": "dynamax-crystal-eri472", "url": "https://pokeapi.co/api/v2/item/1371/"}, {"name": "dynamax-crystal-eri1666", "url": "https://pokeapi.co/api/v2/item/1372/"}, {"name": "dynamax-crystal-eri897", "url": "https://pokeapi.co/api/v2/item/1373/"}, {"name": "dynamax-crystal-eri1231", "url": "https://pokeapi.co/api/v2/item/1374/"}, {"name": "dynamax-crystal-eri874", "url": "https://pokeapi.co/api/v2/item/1375/"}, {"name": "dynamax-crystal-eri1298", "url": "https://pokeapi.co/api/v2/item/1376/"}, {"name": "dynamax-crystal-eri1325", "url": "https://pokeapi.co/api/v2/item/1377/"}, {"name": "dynamax-crystal-eri984", "url": "https://pokeapi.co/api/v2/item/1378/"}, {"name": "dynamax-crystal-eri1464", "url": "https://pokeapi.co/api/v2/item/1379/"}, {"name": "dynamax-crystal-eri1393", "url": "https://pokeapi.co/api/v2/item/1380/"}, {"name": "dynamax-crystal-eri850", "url": "https://pokeapi.co/api/v2/item/1381/"}, {"name": "dynamax-crystal-tau1409", "url": "https://pokeapi.co/api/v2/item/1382/"}, {"name": "dynamax-crystal-tau1457", "url": "https://pokeapi.co/api/v2/item/1383/"}, {"name": "dynamax-crystal-tau1165", "url": "https://pokeapi.co/api/v2/item/1384/"}, {"name": "dynamax-crystal-tau1791", "url": "https://pokeapi.co/api/v2/item/1385/"}, {"name": "dynamax-crystal-tau1910", "url": "https://pokeapi.co/api/v2/item/1386/"}, {"name": "dynamax-crystal-tau1346", "url": "https://pokeapi.co/api/v2/item/1387/"}, {"name": "dynamax-crystal-tau1373", "url": "https://pokeapi.co/api/v2/item/1388/"}, {"name": "dynamax-crystal-tau1412", "url": "https://pokeapi.co/api/v2/item/1389/"}, {"name": "dynamax-crystal-cma2491", "url": "https://pokeapi.co/api/v2/item/1390/"}, {"name": "dynamax-crystal-cma2693", "url": "https://pokeapi.co/api/v2/item/1391/"}, {"name": "dynamax-crystal-cma2294", "url": "https://pokeapi.co/api/v2/item/1392/"}, {"name": "dynamax-crystal-cma2827", "url": "https://pokeapi.co/api/v2/item/1393/"}, {"name": "dynamax-crystal-cma2282", "url": "https://pokeapi.co/api/v2/item/1394/"}, {"name": "dynamax-crystal-cma2618", "url": "https://pokeapi.co/api/v2/item/1395/"}, {"name": "dynamax-crystal-cma2657", "url": "https://pokeapi.co/api/v2/item/1396/"}, {"name": "dynamax-crystal-cma2646", "url": "https://pokeapi.co/api/v2/item/1397/"}, {"name": "dynamax-crystal-uma4905", "url": "https://pokeapi.co/api/v2/item/1398/"}, {"name": "dynamax-crystal-uma4301", "url": "https://pokeapi.co/api/v2/item/1399/"}, {"name": "dynamax-crystal-uma5191", "url": "https://pokeapi.co/api/v2/item/1400/"}, {"name": "dynamax-crystal-uma5054", "url": "https://pokeapi.co/api/v2/item/1401/"}, {"name": "dynamax-crystal-uma4295", "url": "https://pokeapi.co/api/v2/item/1402/"}, {"name": "dynamax-crystal-uma4660", "url": "https://pokeapi.co/api/v2/item/1403/"}, {"name": "dynamax-crystal-uma4554", "url": "https://pokeapi.co/api/v2/item/1404/"}, {"name": "dynamax-crystal-uma4069", "url": "https://pokeapi.co/api/v2/item/1405/"}, {"name": "dynamax-crystal-uma3569", "url": "https://pokeapi.co/api/v2/item/1406/"}, {"name": "dynamax-crystal-uma3323", "url": "https://pokeapi.co/api/v2/item/1407/"}, {"name": "dynamax-crystal-uma4033", "url": "https://pokeapi.co/api/v2/item/1408/"}, {"name": "dynamax-crystal-uma4377", "url": "https://pokeapi.co/api/v2/item/1409/"}, {"name": "dynamax-crystal-uma4375", "url": "https://pokeapi.co/api/v2/item/1410/"}, {"name": "dynamax-crystal-uma4518", "url": "https://pokeapi.co/api/v2/item/1411/"}, {"name": "dynamax-crystal-uma3594", "url": "https://pokeapi.co/api/v2/item/1412/"}, {"name": "dynamax-crystal-vir5056", "url": "https://pokeapi.co/api/v2/item/1413/"}, {"name": "dynamax-crystal-vir4825", "url": "https://pokeapi.co/api/v2/item/1414/"}, {"name": "dynamax-crystal-vir4932", "url": "https://pokeapi.co/api/v2/item/1415/"}, {"name": "dynamax-crystal-vir4540", "url": "https://pokeapi.co/api/v2/item/1416/"}, {"name": "dynamax-crystal-vir4689", "url": "https://pokeapi.co/api/v2/item/1417/"}, {"name": "dynamax-crystal-vir5338", "url": "https://pokeapi.co/api/v2/item/1418/"}, {"name": "dynamax-crystal-vir4910", "url": "https://pokeapi.co/api/v2/item/1419/"}, {"name": "dynamax-crystal-vir5315", "url": "https://pokeapi.co/api/v2/item/1420/"}, {"name": "dynamax-crystal-vir5359", "url": "https://pokeapi.co/api/v2/item/1421/"}, {"name": "dynamax-crystal-vir5409", "url": "https://pokeapi.co/api/v2/item/1422/"}, {"name": "dynamax-crystal-vir5107", "url": "https://pokeapi.co/api/v2/item/1423/"}, {"name": "dynamax-crystal-ari617", "url": "https://pokeapi.co/api/v2/item/1424/"}, {"name": "dynamax-crystal-ari553", "url": "https://pokeapi.co/api/v2/item/1425/"}, {"name": "dynamax-crystal-ari546", "url": "https://pokeapi.co/api/v2/item/1426/"}, {"name": "dynamax-crystal-ari951", "url": "https://pokeapi.co/api/v2/item/1427/"}, {"name": "dynamax-crystal-ori1713", "url": "https://pokeapi.co/api/v2/item/1428/"}, {"name": "dynamax-crystal-ori2061", "url": "https://pokeapi.co/api/v2/item/1429/"}, {"name": "dynamax-crystal-ori1790", "url": "https://pokeapi.co/api/v2/item/1430/"}, {"name": "dynamax-crystal-ori1903", "url": "https://pokeapi.co/api/v2/item/1431/"}, {"name": "dynamax-crystal-ori1948", "url": "https://pokeapi.co/api/v2/item/1432/"}, {"name": "dynamax-crystal-ori2004", "url": "https://pokeapi.co/api/v2/item/1433/"}, {"name": "dynamax-crystal-ori1852", "url": "https://pokeapi.co/api/v2/item/1434/"}, {"name": "dynamax-crystal-ori1879", "url": "https://pokeapi.co/api/v2/item/1435/"}, {"name": "dynamax-crystal-ori1899", "url": "https://pokeapi.co/api/v2/item/1436/"}, {"name": "dynamax-crystal-ori1543", "url": "https://pokeapi.co/api/v2/item/1437/"}, {"name": "dynamax-crystal-cas21", "url": "https://pokeapi.co/api/v2/item/1438/"}, {"name": "dynamax-crystal-cas168", "url": "https://pokeapi.co/api/v2/item/1439/"}, {"name": "dynamax-crystal-cas403", "url": "https://pokeapi.co/api/v2/item/1440/"}, {"name": "dynamax-crystal-cas153", "url": "https://pokeapi.co/api/v2/item/1441/"}, {"name": "dynamax-crystal-cas542", "url": "https://pokeapi.co/api/v2/item/1442/"}, {"name": "dynamax-crystal-cas219", "url": "https://pokeapi.co/api/v2/item/1443/"}, {"name": "dynamax-crystal-cas265", "url": "https://pokeapi.co/api/v2/item/1444/"}, {"name": "dynamax-crystal-cnc3572", "url": "https://pokeapi.co/api/v2/item/1445/"}, {"name": "dynamax-crystal-cnc3208", "url": "https://pokeapi.co/api/v2/item/1446/"}, {"name": "dynamax-crystal-cnc3461", "url": "https://pokeapi.co/api/v2/item/1447/"}, {"name": "dynamax-crystal-cnc3449", "url": "https://pokeapi.co/api/v2/item/1448/"}, {"name": "dynamax-crystal-cnc3429", "url": "https://pokeapi.co/api/v2/item/1449/"}, {"name": "dynamax-crystal-cnc3627", "url": "https://pokeapi.co/api/v2/item/1450/"}, {"name": "dynamax-crystal-cnc3268", "url": "https://pokeapi.co/api/v2/item/1451/"}]}