{"count": 2176, "next": "https://pokeapi.co/api/v2/item?offset=1600&limit=200", "previous": "https://pokeapi.co/api/v2/item?offset=1200&limit=200", "results": [{"name": "dynamax-crystal-cnc3249", "url": "https://pokeapi.co/api/v2/item/1452/"}, {"name": "dynamax-crystal-com4968", "url": "https://pokeapi.co/api/v2/item/1453/"}, {"name": "dynamax-crystal-crv4757", "url": "https://pokeapi.co/api/v2/item/1454/"}, {"name": "dynamax-crystal-crv4623", "url": "https://pokeapi.co/api/v2/item/1455/"}, {"name": "dynamax-crystal-crv4662", "url": "https://pokeapi.co/api/v2/item/1456/"}, {"name": "dynamax-crystal-crv4786", "url": "https://pokeapi.co/api/v2/item/1457/"}, {"name": "dynamax-crystal-aur1708", "url": "https://pokeapi.co/api/v2/item/1458/"}, {"name": "dynamax-crystal-aur2088", "url": "https://pokeapi.co/api/v2/item/1459/"}, {"name": "dynamax-crystal-aur1605", "url": "https://pokeapi.co/api/v2/item/1460/"}, {"name": "dynamax-crystal-aur2095", "url": "https://pokeapi.co/api/v2/item/1461/"}, {"name": "dynamax-crystal-aur1577", "url": "https://pokeapi.co/api/v2/item/1462/"}, {"name": "dynamax-crystal-aur1641", "url": "https://pokeapi.co/api/v2/item/1463/"}, {"name": "dynamax-crystal-aur1612", "url": "https://pokeapi.co/api/v2/item/1464/"}, {"name": "dynamax-crystal-pav7790", "url": "https://pokeapi.co/api/v2/item/1465/"}, {"name": "dynamax-crystal-cet911", "url": "https://pokeapi.co/api/v2/item/1466/"}, {"name": "dynamax-crystal-cet681", "url": "https://pokeapi.co/api/v2/item/1467/"}, {"name": "dynamax-crystal-cet188", "url": "https://pokeapi.co/api/v2/item/1468/"}, {"name": "dynamax-crystal-cet539", "url": "https://pokeapi.co/api/v2/item/1469/"}, {"name": "dynamax-crystal-cet804", "url": "https://pokeapi.co/api/v2/item/1470/"}, {"name": "dynamax-crystal-cep8974", "url": "https://pokeapi.co/api/v2/item/1471/"}, {"name": "dynamax-crystal-cep8162", "url": "https://pokeapi.co/api/v2/item/1472/"}, {"name": "dynamax-crystal-cep8238", "url": "https://pokeapi.co/api/v2/item/1473/"}, {"name": "dynamax-crystal-cep8417", "url": "https://pokeapi.co/api/v2/item/1474/"}, {"name": "dynamax-crystal-cen5267", "url": "https://pokeapi.co/api/v2/item/1475/"}, {"name": "dynamax-crystal-cen5288", "url": "https://pokeapi.co/api/v2/item/1476/"}, {"name": "dynamax-crystal-cen551", "url": "https://pokeapi.co/api/v2/item/1477/"}, {"name": "dynamax-crystal-cen5459", "url": "https://pokeapi.co/api/v2/item/1478/"}, {"name": "dynamax-crystal-cen5460", "url": "https://pokeapi.co/api/v2/item/1479/"}, {"name": "dynamax-crystal-cmi2943", "url": "https://pokeapi.co/api/v2/item/1480/"}, {"name": "dynamax-crystal-cmi2845", "url": "https://pokeapi.co/api/v2/item/1481/"}, {"name": "dynamax-crystal-equ8131", "url": "https://pokeapi.co/api/v2/item/1482/"}, {"name": "dynamax-crystal-vul7405", "url": "https://pokeapi.co/api/v2/item/1483/"}, {"name": "dynamax-crystal-umi424", "url": "https://pokeapi.co/api/v2/item/1484/"}, {"name": "dynamax-crystal-umi5563", "url": "https://pokeapi.co/api/v2/item/1485/"}, {"name": "dynamax-crystal-umi5735", "url": "https://pokeapi.co/api/v2/item/1486/"}, {"name": "dynamax-crystal-umi6789", "url": "https://pokeapi.co/api/v2/item/1487/"}, {"name": "dynamax-crystal-crt4287", "url": "https://pokeapi.co/api/v2/item/1488/"}, {"name": "dynamax-crystal-lyr7001", "url": "https://pokeapi.co/api/v2/item/1489/"}, {"name": "dynamax-crystal-lyr7178", "url": "https://pokeapi.co/api/v2/item/1490/"}, {"name": "dynamax-crystal-lyr7106", "url": "https://pokeapi.co/api/v2/item/1491/"}, {"name": "dynamax-crystal-lyr7298", "url": "https://pokeapi.co/api/v2/item/1492/"}, {"name": "dynamax-crystal-ara6585", "url": "https://pokeapi.co/api/v2/item/1493/"}, {"name": "dynamax-crystal-sco6134", "url": "https://pokeapi.co/api/v2/item/1494/"}, {"name": "dynamax-crystal-sco6527", "url": "https://pokeapi.co/api/v2/item/1495/"}, {"name": "dynamax-crystal-sco6553", "url": "https://pokeapi.co/api/v2/item/1496/"}, {"name": "dynamax-crystal-sco5953", "url": "https://pokeapi.co/api/v2/item/1497/"}, {"name": "dynamax-crystal-sco5984", "url": "https://pokeapi.co/api/v2/item/1498/"}, {"name": "dynamax-crystal-sco6508", "url": "https://pokeapi.co/api/v2/item/1499/"}, {"name": "dynamax-crystal-sco6084", "url": "https://pokeapi.co/api/v2/item/1500/"}, {"name": "dynamax-crystal-sco5944", "url": "https://pokeapi.co/api/v2/item/1501/"}, {"name": "dynamax-crystal-sco6630", "url": "https://pokeapi.co/api/v2/item/1502/"}, {"name": "dynamax-crystal-sco6027", "url": "https://pokeapi.co/api/v2/item/1503/"}, {"name": "dynamax-crystal-sco6247", "url": "https://pokeapi.co/api/v2/item/1504/"}, {"name": "dynamax-crystal-sco6252", "url": "https://pokeapi.co/api/v2/item/1505/"}, {"name": "dynamax-crystal-sco5928", "url": "https://pokeapi.co/api/v2/item/1506/"}, {"name": "dynamax-crystal-sco6241", "url": "https://pokeapi.co/api/v2/item/1507/"}, {"name": "dynamax-crystal-sco6165", "url": "https://pokeapi.co/api/v2/item/1508/"}, {"name": "dynamax-crystal-tri544", "url": "https://pokeapi.co/api/v2/item/1509/"}, {"name": "dynamax-crystal-leo3982", "url": "https://pokeapi.co/api/v2/item/1510/"}, {"name": "dynamax-crystal-leo4534", "url": "https://pokeapi.co/api/v2/item/1511/"}, {"name": "dynamax-crystal-leo4357", "url": "https://pokeapi.co/api/v2/item/1512/"}, {"name": "dynamax-crystal-leo4057", "url": "https://pokeapi.co/api/v2/item/1513/"}, {"name": "dynamax-crystal-leo4359", "url": "https://pokeapi.co/api/v2/item/1514/"}, {"name": "dynamax-crystal-leo4031", "url": "https://pokeapi.co/api/v2/item/1515/"}, {"name": "dynamax-crystal-leo3852", "url": "https://pokeapi.co/api/v2/item/1516/"}, {"name": "dynamax-crystal-leo3905", "url": "https://pokeapi.co/api/v2/item/1517/"}, {"name": "dynamax-crystal-leo3773", "url": "https://pokeapi.co/api/v2/item/1518/"}, {"name": "dynamax-crystal-gru8425", "url": "https://pokeapi.co/api/v2/item/1519/"}, {"name": "dynamax-crystal-gru8636", "url": "https://pokeapi.co/api/v2/item/1520/"}, {"name": "dynamax-crystal-gru8353", "url": "https://pokeapi.co/api/v2/item/1521/"}, {"name": "dynamax-crystal-lib5685", "url": "https://pokeapi.co/api/v2/item/1522/"}, {"name": "dynamax-crystal-lib5531", "url": "https://pokeapi.co/api/v2/item/1523/"}, {"name": "dynamax-crystal-lib5787", "url": "https://pokeapi.co/api/v2/item/1524/"}, {"name": "dynamax-crystal-lib5603", "url": "https://pokeapi.co/api/v2/item/1525/"}, {"name": "dynamax-crystal-pup3165", "url": "https://pokeapi.co/api/v2/item/1526/"}, {"name": "dynamax-crystal-pup3185", "url": "https://pokeapi.co/api/v2/item/1527/"}, {"name": "dynamax-crystal-pup3045", "url": "https://pokeapi.co/api/v2/item/1528/"}, {"name": "dynamax-crystal-cyg7924", "url": "https://pokeapi.co/api/v2/item/1529/"}, {"name": "dynamax-crystal-cyg7417", "url": "https://pokeapi.co/api/v2/item/1530/"}, {"name": "dynamax-crystal-cyg7796", "url": "https://pokeapi.co/api/v2/item/1531/"}, {"name": "dynamax-crystal-cyg8301", "url": "https://pokeapi.co/api/v2/item/1532/"}, {"name": "dynamax-crystal-cyg7949", "url": "https://pokeapi.co/api/v2/item/1533/"}, {"name": "dynamax-crystal-cyg7528", "url": "https://pokeapi.co/api/v2/item/1534/"}, {"name": "dynamax-crystal-oct7228", "url": "https://pokeapi.co/api/v2/item/1535/"}, {"name": "dynamax-crystal-col1956", "url": "https://pokeapi.co/api/v2/item/1536/"}, {"name": "dynamax-crystal-col2040", "url": "https://pokeapi.co/api/v2/item/1537/"}, {"name": "dynamax-crystal-col2177", "url": "https://pokeapi.co/api/v2/item/1538/"}, {"name": "dynamax-crystal-gem2990", "url": "https://pokeapi.co/api/v2/item/1539/"}, {"name": "dynamax-crystal-gem2891", "url": "https://pokeapi.co/api/v2/item/1540/"}, {"name": "dynamax-crystal-gem2421", "url": "https://pokeapi.co/api/v2/item/1541/"}, {"name": "dynamax-crystal-gem2473", "url": "https://pokeapi.co/api/v2/item/1542/"}, {"name": "dynamax-crystal-gem2216", "url": "https://pokeapi.co/api/v2/item/1543/"}, {"name": "dynamax-crystal-gem2777", "url": "https://pokeapi.co/api/v2/item/1544/"}, {"name": "dynamax-crystal-gem2650", "url": "https://pokeapi.co/api/v2/item/1545/"}, {"name": "dynamax-crystal-gem2286", "url": "https://pokeapi.co/api/v2/item/1546/"}, {"name": "dynamax-crystal-gem2484", "url": "https://pokeapi.co/api/v2/item/1547/"}, {"name": "dynamax-crystal-gem2930", "url": "https://pokeapi.co/api/v2/item/1548/"}, {"name": "dynamax-crystal-peg8775", "url": "https://pokeapi.co/api/v2/item/1549/"}, {"name": "dynamax-crystal-peg8781", "url": "https://pokeapi.co/api/v2/item/1550/"}, {"name": "dynamax-crystal-peg39", "url": "https://pokeapi.co/api/v2/item/1551/"}, {"name": "dynamax-crystal-peg8308", "url": "https://pokeapi.co/api/v2/item/1552/"}, {"name": "dynamax-crystal-peg8650", "url": "https://pokeapi.co/api/v2/item/1553/"}, {"name": "dynamax-crystal-peg8634", "url": "https://pokeapi.co/api/v2/item/1554/"}, {"name": "dynamax-crystal-peg8684", "url": "https://pokeapi.co/api/v2/item/1555/"}, {"name": "dynamax-crystal-peg8450", "url": "https://pokeapi.co/api/v2/item/1556/"}, {"name": "dynamax-crystal-peg8880", "url": "https://pokeapi.co/api/v2/item/1557/"}, {"name": "dynamax-crystal-peg8905", "url": "https://pokeapi.co/api/v2/item/1558/"}, {"name": "dynamax-crystal-oph6556", "url": "https://pokeapi.co/api/v2/item/1559/"}, {"name": "dynamax-crystal-oph6378", "url": "https://pokeapi.co/api/v2/item/1560/"}, {"name": "dynamax-crystal-oph6603", "url": "https://pokeapi.co/api/v2/item/1561/"}, {"name": "dynamax-crystal-oph6149", "url": "https://pokeapi.co/api/v2/item/1562/"}, {"name": "dynamax-crystal-oph6056", "url": "https://pokeapi.co/api/v2/item/1563/"}, {"name": "dynamax-crystal-oph6075", "url": "https://pokeapi.co/api/v2/item/1564/"}, {"name": "dynamax-crystal-ser5854", "url": "https://pokeapi.co/api/v2/item/1565/"}, {"name": "dynamax-crystal-ser7141", "url": "https://pokeapi.co/api/v2/item/1566/"}, {"name": "dynamax-crystal-ser5879", "url": "https://pokeapi.co/api/v2/item/1567/"}, {"name": "dynamax-crystal-her6406", "url": "https://pokeapi.co/api/v2/item/1568/"}, {"name": "dynamax-crystal-her6148", "url": "https://pokeapi.co/api/v2/item/1569/"}, {"name": "dynamax-crystal-her6410", "url": "https://pokeapi.co/api/v2/item/1570/"}, {"name": "dynamax-crystal-her6526", "url": "https://pokeapi.co/api/v2/item/1571/"}, {"name": "dynamax-crystal-her6117", "url": "https://pokeapi.co/api/v2/item/1572/"}, {"name": "dynamax-crystal-her6008", "url": "https://pokeapi.co/api/v2/item/1573/"}, {"name": "dynamax-crystal-per936", "url": "https://pokeapi.co/api/v2/item/1574/"}, {"name": "dynamax-crystal-per1017", "url": "https://pokeapi.co/api/v2/item/1575/"}, {"name": "dynamax-crystal-per1131", "url": "https://pokeapi.co/api/v2/item/1576/"}, {"name": "dynamax-crystal-per1228", "url": "https://pokeapi.co/api/v2/item/1577/"}, {"name": "dynamax-crystal-per834", "url": "https://pokeapi.co/api/v2/item/1578/"}, {"name": "dynamax-crystal-per941", "url": "https://pokeapi.co/api/v2/item/1579/"}, {"name": "dynamax-crystal-phe99", "url": "https://pokeapi.co/api/v2/item/1580/"}, {"name": "dynamax-crystal-phe338", "url": "https://pokeapi.co/api/v2/item/1581/"}, {"name": "dynamax-crystal-vel3634", "url": "https://pokeapi.co/api/v2/item/1582/"}, {"name": "dynamax-crystal-vel3485", "url": "https://pokeapi.co/api/v2/item/1583/"}, {"name": "dynamax-crystal-vel3734", "url": "https://pokeapi.co/api/v2/item/1584/"}, {"name": "dynamax-crystal-aqr8232", "url": "https://pokeapi.co/api/v2/item/1585/"}, {"name": "dynamax-crystal-aqr8414", "url": "https://pokeapi.co/api/v2/item/1586/"}, {"name": "dynamax-crystal-aqr8709", "url": "https://pokeapi.co/api/v2/item/1587/"}, {"name": "dynamax-crystal-aqr8518", "url": "https://pokeapi.co/api/v2/item/1588/"}, {"name": "dynamax-crystal-aqr7950", "url": "https://pokeapi.co/api/v2/item/1589/"}, {"name": "dynamax-crystal-aqr8499", "url": "https://pokeapi.co/api/v2/item/1590/"}, {"name": "dynamax-crystal-aqr8610", "url": "https://pokeapi.co/api/v2/item/1591/"}, {"name": "dynamax-crystal-aqr8264", "url": "https://pokeapi.co/api/v2/item/1592/"}, {"name": "dynamax-crystal-cru4853", "url": "https://pokeapi.co/api/v2/item/1593/"}, {"name": "dynamax-crystal-cru4730", "url": "https://pokeapi.co/api/v2/item/1594/"}, {"name": "dynamax-crystal-cru4763", "url": "https://pokeapi.co/api/v2/item/1595/"}, {"name": "dynamax-crystal-cru4700", "url": "https://pokeapi.co/api/v2/item/1596/"}, {"name": "dynamax-crystal-cru4656", "url": "https://pokeapi.co/api/v2/item/1597/"}, {"name": "dynamax-crystal-psa8728", "url": "https://pokeapi.co/api/v2/item/1598/"}, {"name": "dynamax-crystal-tra6217", "url": "https://pokeapi.co/api/v2/item/1599/"}, {"name": "dynamax-crystal-cap7776", "url": "https://pokeapi.co/api/v2/item/1600/"}, {"name": "dynamax-crystal-cap7754", "url": "https://pokeapi.co/api/v2/item/1601/"}, {"name": "dynamax-crystal-cap8278", "url": "https://pokeapi.co/api/v2/item/1602/"}, {"name": "dynamax-crystal-cap8322", "url": "https://pokeapi.co/api/v2/item/1603/"}, {"name": "dynamax-crystal-cap7773", "url": "https://pokeapi.co/api/v2/item/1604/"}, {"name": "dynamax-crystal-sge7479", "url": "https://pokeapi.co/api/v2/item/1605/"}, {"name": "dynamax-crystal-car2326", "url": "https://pokeapi.co/api/v2/item/1606/"}, {"name": "dynamax-crystal-car3685", "url": "https://pokeapi.co/api/v2/item/1607/"}, {"name": "dynamax-crystal-car3307", "url": "https://pokeapi.co/api/v2/item/1608/"}, {"name": "dynamax-crystal-car3699", "url": "https://pokeapi.co/api/v2/item/1609/"}, {"name": "dynamax-crystal-dra5744", "url": "https://pokeapi.co/api/v2/item/1610/"}, {"name": "dynamax-crystal-dra5291", "url": "https://pokeapi.co/api/v2/item/1611/"}, {"name": "dynamax-crystal-dra6705", "url": "https://pokeapi.co/api/v2/item/1612/"}, {"name": "dynamax-crystal-dra6536", "url": "https://pokeapi.co/api/v2/item/1613/"}, {"name": "dynamax-crystal-dra7310", "url": "https://pokeapi.co/api/v2/item/1614/"}, {"name": "dynamax-crystal-dra6688", "url": "https://pokeapi.co/api/v2/item/1615/"}, {"name": "dynamax-crystal-dra4434", "url": "https://pokeapi.co/api/v2/item/1616/"}, {"name": "dynamax-crystal-dra6370", "url": "https://pokeapi.co/api/v2/item/1617/"}, {"name": "dynamax-crystal-dra7462", "url": "https://pokeapi.co/api/v2/item/1618/"}, {"name": "dynamax-crystal-dra6396", "url": "https://pokeapi.co/api/v2/item/1619/"}, {"name": "dynamax-crystal-dra6132", "url": "https://pokeapi.co/api/v2/item/1620/"}, {"name": "dynamax-crystal-dra6636", "url": "https://pokeapi.co/api/v2/item/1621/"}, {"name": "dynamax-crystal-cvn4915", "url": "https://pokeapi.co/api/v2/item/1622/"}, {"name": "dynamax-crystal-cvn4785", "url": "https://pokeapi.co/api/v2/item/1623/"}, {"name": "dynamax-crystal-cvn4846", "url": "https://pokeapi.co/api/v2/item/1624/"}, {"name": "dynamax-crystal-aql7595", "url": "https://pokeapi.co/api/v2/item/1625/"}, {"name": "dynamax-crystal-aql7557", "url": "https://pokeapi.co/api/v2/item/1626/"}, {"name": "dynamax-crystal-aql7525", "url": "https://pokeapi.co/api/v2/item/1627/"}, {"name": "dynamax-crystal-aql7602", "url": "https://pokeapi.co/api/v2/item/1628/"}, {"name": "dynamax-crystal-aql7235", "url": "https://pokeapi.co/api/v2/item/1629/"}, {"name": "max-honey", "url": "https://pokeapi.co/api/v2/item/1630/"}, {"name": "max-mushrooms", "url": "https://pokeapi.co/api/v2/item/1631/"}, {"name": "galarica-twig", "url": "https://pokeapi.co/api/v2/item/1632/"}, {"name": "galarica-cuff", "url": "https://pokeapi.co/api/v2/item/1633/"}, {"name": "style-card", "url": "https://pokeapi.co/api/v2/item/1634/"}, {"name": "armor-pass", "url": "https://pokeapi.co/api/v2/item/1635/"}, {"name": "rotom-bike--sparkling-white", "url": "https://pokeapi.co/api/v2/item/1636/"}, {"name": "rotom-bike--glistening-black", "url": "https://pokeapi.co/api/v2/item/1637/"}, {"name": "exp-charm", "url": "https://pokeapi.co/api/v2/item/1638/"}, {"name": "armorite-ore", "url": "https://pokeapi.co/api/v2/item/1639/"}, {"name": "mark-charm", "url": "https://pokeapi.co/api/v2/item/1640/"}, {"name": "reins-of-unity--merge", "url": "https://pokeapi.co/api/v2/item/1641/"}, {"name": "reins-of-unity--split", "url": "https://pokeapi.co/api/v2/item/1642/"}, {"name": "galarica-wreath", "url": "https://pokeapi.co/api/v2/item/1643/"}, {"name": "legendary-clue-1", "url": "https://pokeapi.co/api/v2/item/1644/"}, {"name": "legendary-clue-2", "url": "https://pokeapi.co/api/v2/item/1645/"}, {"name": "legendary-clue-3", "url": "https://pokeapi.co/api/v2/item/1646/"}, {"name": "legendary-clue-question", "url": "https://pokeapi.co/api/v2/item/1647/"}, {"name": "crown-pass", "url": "https://pokeapi.co/api/v2/item/1648/"}, {"name": "wooden-crown", "url": "https://pokeapi.co/api/v2/item/1649/"}, {"name": "radiant-petal", "url": "https://pokeapi.co/api/v2/item/1650/"}, {"name": "white-mane-hair", "url": "https://pokeapi.co/api/v2/item/1651/"}]}