{"count": 2176, "next": "https://pokeapi.co/api/v2/item?offset=2000&limit=176", "previous": "https://pokeapi.co/api/v2/item?offset=1600&limit=200", "results": [{"name": "axew-scales", "url": "https://pokeapi.co/api/v2/item/1852/"}, {"name": "cubchoo-fur", "url": "https://pokeapi.co/api/v2/item/1853/"}, {"name": "cryogonal-ice", "url": "https://pokeapi.co/api/v2/item/1854/"}, {"name": "pawniard-blade", "url": "https://pokeapi.co/api/v2/item/1855/"}, {"name": "rufflet-feather", "url": "https://pokeapi.co/api/v2/item/1856/"}, {"name": "deino-scales", "url": "https://pokeapi.co/api/v2/item/1857/"}, {"name": "larvesta-fuzz", "url": "https://pokeapi.co/api/v2/item/1858/"}, {"name": "fletchling-feather", "url": "https://pokeapi.co/api/v2/item/1859/"}, {"name": "scatterbug-powder", "url": "https://pokeapi.co/api/v2/item/1860/"}, {"name": "litleo-tuft", "url": "https://pokeapi.co/api/v2/item/1861/"}, {"name": "flabebe-pollen", "url": "https://pokeapi.co/api/v2/item/1862/"}, {"name": "skiddo-leaf", "url": "https://pokeapi.co/api/v2/item/1863/"}, {"name": "skrelp-kelp", "url": "https://pokeapi.co/api/v2/item/1864/"}, {"name": "clauncher-claw", "url": "https://pokeapi.co/api/v2/item/1865/"}, {"name": "hawlucha-down", "url": "https://pokeapi.co/api/v2/item/1866/"}, {"name": "dedenne-fur", "url": "https://pokeapi.co/api/v2/item/1867/"}, {"name": "goomy-goo", "url": "https://pokeapi.co/api/v2/item/1868/"}, {"name": "klefki-key", "url": "https://pokeapi.co/api/v2/item/1869/"}, {"name": "bergmite-ice", "url": "https://pokeapi.co/api/v2/item/1870/"}, {"name": "noibat-fur", "url": "https://pokeapi.co/api/v2/item/1871/"}, {"name": "yungoos-fur", "url": "https://pokeapi.co/api/v2/item/1872/"}, {"name": "crabrawler-shell", "url": "https://pokeapi.co/api/v2/item/1873/"}, {"name": "oricorio-feather", "url": "https://pokeapi.co/api/v2/item/1874/"}, {"name": "rockruff-rock", "url": "https://pokeapi.co/api/v2/item/1875/"}, {"name": "mareanie-spike", "url": "https://pokeapi.co/api/v2/item/1876/"}, {"name": "mudbray-mud", "url": "https://pokeapi.co/api/v2/item/1877/"}, {"name": "fomantis-leaf", "url": "https://pokeapi.co/api/v2/item/1878/"}, {"name": "salandit-gas", "url": "https://pokeapi.co/api/v2/item/1879/"}, {"name": "bounsweet-sweat", "url": "https://pokeapi.co/api/v2/item/1880/"}, {"name": "oranguru-fur", "url": "https://pokeapi.co/api/v2/item/1881/"}, {"name": "passimian-fur", "url": "https://pokeapi.co/api/v2/item/1882/"}, {"name": "sandygast-sand", "url": "https://pokeapi.co/api/v2/item/1883/"}, {"name": "komala-claw", "url": "https://pokeapi.co/api/v2/item/1884/"}, {"name": "mimikyu-scrap", "url": "https://pokeapi.co/api/v2/item/1885/"}, {"name": "bruxish-tooth", "url": "https://pokeapi.co/api/v2/item/1886/"}, {"name": "chewtle-claw", "url": "https://pokeapi.co/api/v2/item/1887/"}, {"name": "skwovet-fur", "url": "https://pokeapi.co/api/v2/item/1888/"}, {"name": "arrokuda-scales", "url": "https://pokeapi.co/api/v2/item/1889/"}, {"name": "rookidee-feather", "url": "https://pokeapi.co/api/v2/item/1890/"}, {"name": "toxel-sparks", "url": "https://pokeapi.co/api/v2/item/1891/"}, {"name": "falinks-sweat", "url": "https://pokeapi.co/api/v2/item/1892/"}, {"name": "cufant-tarnish", "url": "https://pokeapi.co/api/v2/item/1893/"}, {"name": "rolycoly-coal", "url": "https://pokeapi.co/api/v2/item/1894/"}, {"name": "silicobra-sand", "url": "https://pokeapi.co/api/v2/item/1895/"}, {"name": "indeedee-fur", "url": "https://pokeapi.co/api/v2/item/1896/"}, {"name": "pincurchin-spines", "url": "https://pokeapi.co/api/v2/item/1897/"}, {"name": "snom-thread", "url": "https://pokeapi.co/api/v2/item/1898/"}, {"name": "impidimp-hair", "url": "https://pokeapi.co/api/v2/item/1899/"}, {"name": "applin-juice", "url": "https://pokeapi.co/api/v2/item/1900/"}, {"name": "sinistea-chip", "url": "https://pokeapi.co/api/v2/item/1901/"}, {"name": "hatenna-dust", "url": "https://pokeapi.co/api/v2/item/1902/"}, {"name": "stonjourner-stone", "url": "https://pokeapi.co/api/v2/item/1903/"}, {"name": "eiscue-down", "url": "https://pokeapi.co/api/v2/item/1904/"}, {"name": "dreepy-powder", "url": "https://pokeapi.co/api/v2/item/1905/"}, {"name": "lechonk-hair", "url": "https://pokeapi.co/api/v2/item/1906/"}, {"name": "tarountula-thread", "url": "https://pokeapi.co/api/v2/item/1907/"}, {"name": "nymble-claw", "url": "https://pokeapi.co/api/v2/item/1908/"}, {"name": "rellor-mud", "url": "https://pokeapi.co/api/v2/item/1909/"}, {"name": "greavard-wax", "url": "https://pokeapi.co/api/v2/item/1910/"}, {"name": "flittle-down", "url": "https://pokeapi.co/api/v2/item/1911/"}, {"name": "wiglett-sand", "url": "https://pokeapi.co/api/v2/item/1912/"}, {"name": "dondozo-whisker", "url": "https://pokeapi.co/api/v2/item/1913/"}, {"name": "veluza-fillet", "url": "https://pokeapi.co/api/v2/item/1914/"}, {"name": "finizen-mucus", "url": "https://pokeapi.co/api/v2/item/1915/"}, {"name": "smoliv-oil", "url": "https://pokeapi.co/api/v2/item/1916/"}, {"name": "capsakid-seed", "url": "https://pokeapi.co/api/v2/item/1917/"}, {"name": "tadbulb-mucus", "url": "https://pokeapi.co/api/v2/item/1918/"}, {"name": "varoom-fume", "url": "https://pokeapi.co/api/v2/item/1919/"}, {"name": "orthworm-tarnish", "url": "https://pokeapi.co/api/v2/item/1920/"}, {"name": "tandemaus-fur", "url": "https://pokeapi.co/api/v2/item/1921/"}, {"name": "cetoddle-grease", "url": "https://pokeapi.co/api/v2/item/1922/"}, {"name": "frigibax-scales", "url": "https://pokeapi.co/api/v2/item/1923/"}, {"name": "tatsugiri-scales", "url": "https://pokeapi.co/api/v2/item/1924/"}, {"name": "cyclizar-scales", "url": "https://pokeapi.co/api/v2/item/1925/"}, {"name": "pawmi-fur", "url": "https://pokeapi.co/api/v2/item/1926/"}, {"name": "wattrel-feather", "url": "https://pokeapi.co/api/v2/item/1927/"}, {"name": "bombirdier-feather", "url": "https://pokeapi.co/api/v2/item/1928/"}, {"name": "squawkabilly-feather", "url": "https://pokeapi.co/api/v2/item/1929/"}, {"name": "flamigo-down", "url": "https://pokeapi.co/api/v2/item/1930/"}, {"name": "klawf-claw", "url": "https://pokeapi.co/api/v2/item/1931/"}, {"name": "nacli-salt", "url": "https://pokeapi.co/api/v2/item/1932/"}, {"name": "glimmet-crystal", "url": "https://pokeapi.co/api/v2/item/1933/"}, {"name": "shroodle-ink", "url": "https://pokeapi.co/api/v2/item/1934/"}, {"name": "fidough-fur", "url": "https://pokeapi.co/api/v2/item/1935/"}, {"name": "maschiff-fang", "url": "https://pokeapi.co/api/v2/item/1936/"}, {"name": "bramblin-twig", "url": "https://pokeapi.co/api/v2/item/1937/"}, {"name": "gimmighoul-coin", "url": "https://pokeapi.co/api/v2/item/1938/"}, {"name": "tinkatink-hair", "url": "https://pokeapi.co/api/v2/item/1939/"}, {"name": "charcadet-soot", "url": "https://pokeapi.co/api/v2/item/1940/"}, {"name": "toedscool-flaps", "url": "https://pokeapi.co/api/v2/item/1941/"}, {"name": "wooper-slime", "url": "https://pokeapi.co/api/v2/item/1942/"}, {"name": "tm100", "url": "https://pokeapi.co/api/v2/item/1943/"}, {"name": "tm101", "url": "https://pokeapi.co/api/v2/item/1944/"}, {"name": "tm102", "url": "https://pokeapi.co/api/v2/item/1945/"}, {"name": "tm103", "url": "https://pokeapi.co/api/v2/item/1946/"}, {"name": "tm104", "url": "https://pokeapi.co/api/v2/item/1947/"}, {"name": "tm105", "url": "https://pokeapi.co/api/v2/item/1948/"}, {"name": "tm106", "url": "https://pokeapi.co/api/v2/item/1949/"}, {"name": "tm107", "url": "https://pokeapi.co/api/v2/item/1950/"}, {"name": "tm108", "url": "https://pokeapi.co/api/v2/item/1951/"}, {"name": "tm109", "url": "https://pokeapi.co/api/v2/item/1952/"}, {"name": "tm110", "url": "https://pokeapi.co/api/v2/item/1953/"}, {"name": "tm111", "url": "https://pokeapi.co/api/v2/item/1954/"}, {"name": "tm112", "url": "https://pokeapi.co/api/v2/item/1955/"}, {"name": "tm113", "url": "https://pokeapi.co/api/v2/item/1956/"}, {"name": "tm114", "url": "https://pokeapi.co/api/v2/item/1957/"}, {"name": "tm115", "url": "https://pokeapi.co/api/v2/item/1958/"}, {"name": "tm116", "url": "https://pokeapi.co/api/v2/item/1959/"}, {"name": "tm117", "url": "https://pokeapi.co/api/v2/item/1960/"}, {"name": "tm118", "url": "https://pokeapi.co/api/v2/item/1961/"}, {"name": "tm119", "url": "https://pokeapi.co/api/v2/item/1962/"}, {"name": "tm120", "url": "https://pokeapi.co/api/v2/item/1963/"}, {"name": "tm121", "url": "https://pokeapi.co/api/v2/item/1964/"}, {"name": "tm122", "url": "https://pokeapi.co/api/v2/item/1965/"}, {"name": "tm123", "url": "https://pokeapi.co/api/v2/item/1966/"}, {"name": "tm124", "url": "https://pokeapi.co/api/v2/item/1967/"}, {"name": "tm125", "url": "https://pokeapi.co/api/v2/item/1968/"}, {"name": "tm126", "url": "https://pokeapi.co/api/v2/item/1969/"}, {"name": "tm127", "url": "https://pokeapi.co/api/v2/item/1970/"}, {"name": "tm128", "url": "https://pokeapi.co/api/v2/item/1971/"}, {"name": "tm129", "url": "https://pokeapi.co/api/v2/item/1972/"}, {"name": "tm130", "url": "https://pokeapi.co/api/v2/item/1973/"}, {"name": "tm131", "url": "https://pokeapi.co/api/v2/item/1974/"}, {"name": "tm132", "url": "https://pokeapi.co/api/v2/item/1975/"}, {"name": "tm133", "url": "https://pokeapi.co/api/v2/item/1976/"}, {"name": "tm134", "url": "https://pokeapi.co/api/v2/item/1977/"}, {"name": "tm135", "url": "https://pokeapi.co/api/v2/item/1978/"}, {"name": "tm136", "url": "https://pokeapi.co/api/v2/item/1979/"}, {"name": "tm137", "url": "https://pokeapi.co/api/v2/item/1980/"}, {"name": "tm138", "url": "https://pokeapi.co/api/v2/item/1981/"}, {"name": "tm139", "url": "https://pokeapi.co/api/v2/item/1982/"}, {"name": "tm140", "url": "https://pokeapi.co/api/v2/item/1983/"}, {"name": "tm141", "url": "https://pokeapi.co/api/v2/item/1984/"}, {"name": "tm142", "url": "https://pokeapi.co/api/v2/item/1985/"}, {"name": "tm143", "url": "https://pokeapi.co/api/v2/item/1986/"}, {"name": "tm144", "url": "https://pokeapi.co/api/v2/item/1987/"}, {"name": "tm145", "url": "https://pokeapi.co/api/v2/item/1988/"}, {"name": "tm146", "url": "https://pokeapi.co/api/v2/item/1989/"}, {"name": "tm147", "url": "https://pokeapi.co/api/v2/item/1990/"}, {"name": "tm148", "url": "https://pokeapi.co/api/v2/item/1991/"}, {"name": "tm149", "url": "https://pokeapi.co/api/v2/item/1992/"}, {"name": "tm150", "url": "https://pokeapi.co/api/v2/item/1993/"}, {"name": "tm151", "url": "https://pokeapi.co/api/v2/item/1994/"}, {"name": "tm152", "url": "https://pokeapi.co/api/v2/item/1995/"}, {"name": "tm153", "url": "https://pokeapi.co/api/v2/item/1996/"}, {"name": "tm154", "url": "https://pokeapi.co/api/v2/item/1997/"}, {"name": "tm155", "url": "https://pokeapi.co/api/v2/item/1998/"}, {"name": "tm156", "url": "https://pokeapi.co/api/v2/item/1999/"}, {"name": "tm157", "url": "https://pokeapi.co/api/v2/item/2000/"}, {"name": "tm158", "url": "https://pokeapi.co/api/v2/item/2001/"}, {"name": "tm159", "url": "https://pokeapi.co/api/v2/item/2002/"}, {"name": "tm160", "url": "https://pokeapi.co/api/v2/item/2003/"}, {"name": "tm161", "url": "https://pokeapi.co/api/v2/item/2004/"}, {"name": "tm162", "url": "https://pokeapi.co/api/v2/item/2005/"}, {"name": "tm163", "url": "https://pokeapi.co/api/v2/item/2006/"}, {"name": "tm164", "url": "https://pokeapi.co/api/v2/item/2007/"}, {"name": "tm165", "url": "https://pokeapi.co/api/v2/item/2008/"}, {"name": "tm166", "url": "https://pokeapi.co/api/v2/item/2009/"}, {"name": "tm167", "url": "https://pokeapi.co/api/v2/item/2010/"}, {"name": "tm168", "url": "https://pokeapi.co/api/v2/item/2011/"}, {"name": "tm169", "url": "https://pokeapi.co/api/v2/item/2012/"}, {"name": "tm170", "url": "https://pokeapi.co/api/v2/item/2013/"}, {"name": "tm171", "url": "https://pokeapi.co/api/v2/item/2014/"}, {"name": "picnic-set", "url": "https://pokeapi.co/api/v2/item/2015/"}, {"name": "academy-bottle", "url": "https://pokeapi.co/api/v2/item/2016/"}, {"name": "polka-dot-bottle", "url": "https://pokeapi.co/api/v2/item/2018/"}, {"name": "striped-bottle", "url": "https://pokeapi.co/api/v2/item/2019/"}, {"name": "diamond-bottle", "url": "https://pokeapi.co/api/v2/item/2020/"}, {"name": "academy-cup", "url": "https://pokeapi.co/api/v2/item/2021/"}, {"name": "striped-cup", "url": "https://pokeapi.co/api/v2/item/2023/"}, {"name": "polka-dot-cup", "url": "https://pokeapi.co/api/v2/item/2024/"}, {"name": "flower-pattern-cup", "url": "https://pokeapi.co/api/v2/item/2025/"}, {"name": "academy-tablecloth", "url": "https://pokeapi.co/api/v2/item/2026/"}, {"name": "whimsical-tablecloth", "url": "https://pokeapi.co/api/v2/item/2028/"}, {"name": "leafy-tablecloth", "url": "https://pokeapi.co/api/v2/item/2029/"}, {"name": "spooky-tablecloth", "url": "https://pokeapi.co/api/v2/item/2030/"}, {"name": "academy-ball", "url": "https://pokeapi.co/api/v2/item/2031/"}, {"name": "marill-ball", "url": "https://pokeapi.co/api/v2/item/2033/"}, {"name": "yarn-ball", "url": "https://pokeapi.co/api/v2/item/2034/"}, {"name": "cyber-ball", "url": "https://pokeapi.co/api/v2/item/2035/"}, {"name": "gold-pick", "url": "https://pokeapi.co/api/v2/item/2036/"}, {"name": "silver-pick", "url": "https://pokeapi.co/api/v2/item/2037/"}, {"name": "red-flag-pick", "url": "https://pokeapi.co/api/v2/item/2038/"}, {"name": "blue-flag-pick", "url": "https://pokeapi.co/api/v2/item/2039/"}, {"name": "pika-pika-pick", "url": "https://pokeapi.co/api/v2/item/2040/"}, {"name": "winking-pika-pick", "url": "https://pokeapi.co/api/v2/item/2041/"}, {"name": "vee-vee-pick", "url": "https://pokeapi.co/api/v2/item/2042/"}, {"name": "smiling-vee-pick", "url": "https://pokeapi.co/api/v2/item/2043/"}, {"name": "blue-poke-ball-pick", "url": "https://pokeapi.co/api/v2/item/2044/"}, {"name": "auspicious-armor", "url": "https://pokeapi.co/api/v2/item/2045/"}, {"name": "leader\u2019s-crest", "url": "https://pokeapi.co/api/v2/item/2046/"}, {"name": "pink-bottle", "url": "https://pokeapi.co/api/v2/item/2047/"}, {"name": "blue-bottle", "url": "https://pokeapi.co/api/v2/item/2048/"}, {"name": "yellow-bottle", "url": "https://pokeapi.co/api/v2/item/2049/"}, {"name": "steel-bottle-(r)", "url": "https://pokeapi.co/api/v2/item/2050/"}, {"name": "steel-bottle-(y)", "url": "https://pokeapi.co/api/v2/item/2051/"}, {"name": "steel-bottle-(b)", "url": "https://pokeapi.co/api/v2/item/2052/"}, {"name": "silver-bottle", "url": "https://pokeapi.co/api/v2/item/2053/"}, {"name": "barred-cup", "url": "https://pokeapi.co/api/v2/item/2054/"}, {"name": "diamond-pattern-cup", "url": "https://pokeapi.co/api/v2/item/2055/"}]}