{"count": 2176, "next": "https://pokeapi.co/api/v2/item?offset=600&limit=200", "previous": "https://pokeapi.co/api/v2/item?offset=200&limit=200", "results": [{"name": "hm05", "url": "https://pokeapi.co/api/v2/item/401/"}, {"name": "hm06", "url": "https://pokeapi.co/api/v2/item/402/"}, {"name": "hm07", "url": "https://pokeapi.co/api/v2/item/403/"}, {"name": "hm08", "url": "https://pokeapi.co/api/v2/item/404/"}, {"name": "explorer-kit", "url": "https://pokeapi.co/api/v2/item/405/"}, {"name": "loot-sack", "url": "https://pokeapi.co/api/v2/item/406/"}, {"name": "rule-book", "url": "https://pokeapi.co/api/v2/item/407/"}, {"name": "poke-radar", "url": "https://pokeapi.co/api/v2/item/408/"}, {"name": "point-card", "url": "https://pokeapi.co/api/v2/item/409/"}, {"name": "journal", "url": "https://pokeapi.co/api/v2/item/410/"}, {"name": "seal-case", "url": "https://pokeapi.co/api/v2/item/411/"}, {"name": "fashion-case", "url": "https://pokeapi.co/api/v2/item/412/"}, {"name": "seal-bag", "url": "https://pokeapi.co/api/v2/item/413/"}, {"name": "pal-pad", "url": "https://pokeapi.co/api/v2/item/414/"}, {"name": "works-key", "url": "https://pokeapi.co/api/v2/item/415/"}, {"name": "old-charm", "url": "https://pokeapi.co/api/v2/item/416/"}, {"name": "galactic-key", "url": "https://pokeapi.co/api/v2/item/417/"}, {"name": "red-chain", "url": "https://pokeapi.co/api/v2/item/418/"}, {"name": "town-map", "url": "https://pokeapi.co/api/v2/item/419/"}, {"name": "vs-seeker", "url": "https://pokeapi.co/api/v2/item/420/"}, {"name": "coin-case", "url": "https://pokeapi.co/api/v2/item/421/"}, {"name": "old-rod", "url": "https://pokeapi.co/api/v2/item/422/"}, {"name": "good-rod", "url": "https://pokeapi.co/api/v2/item/423/"}, {"name": "super-rod", "url": "https://pokeapi.co/api/v2/item/424/"}, {"name": "sprayduck", "url": "https://pokeapi.co/api/v2/item/425/"}, {"name": "poffin-case", "url": "https://pokeapi.co/api/v2/item/426/"}, {"name": "bicycle", "url": "https://pokeapi.co/api/v2/item/427/"}, {"name": "suite-key", "url": "https://pokeapi.co/api/v2/item/428/"}, {"name": "oaks-letter", "url": "https://pokeapi.co/api/v2/item/429/"}, {"name": "lunar-wing", "url": "https://pokeapi.co/api/v2/item/430/"}, {"name": "member-card", "url": "https://pokeapi.co/api/v2/item/431/"}, {"name": "azure-flute", "url": "https://pokeapi.co/api/v2/item/432/"}, {"name": "ss-ticket", "url": "https://pokeapi.co/api/v2/item/433/"}, {"name": "contest-pass", "url": "https://pokeapi.co/api/v2/item/434/"}, {"name": "magma-stone", "url": "https://pokeapi.co/api/v2/item/435/"}, {"name": "parcel", "url": "https://pokeapi.co/api/v2/item/436/"}, {"name": "coupon-1", "url": "https://pokeapi.co/api/v2/item/437/"}, {"name": "coupon-2", "url": "https://pokeapi.co/api/v2/item/438/"}, {"name": "coupon-3", "url": "https://pokeapi.co/api/v2/item/439/"}, {"name": "storage-key", "url": "https://pokeapi.co/api/v2/item/440/"}, {"name": "secret-potion", "url": "https://pokeapi.co/api/v2/item/441/"}, {"name": "griseous-orb", "url": "https://pokeapi.co/api/v2/item/442/"}, {"name": "vs-recorder", "url": "https://pokeapi.co/api/v2/item/443/"}, {"name": "gracidea", "url": "https://pokeapi.co/api/v2/item/444/"}, {"name": "secret-key", "url": "https://pokeapi.co/api/v2/item/445/"}, {"name": "apricorn-box", "url": "https://pokeapi.co/api/v2/item/446/"}, {"name": "berry-pots", "url": "https://pokeapi.co/api/v2/item/447/"}, {"name": "squirt-bottle", "url": "https://pokeapi.co/api/v2/item/448/"}, {"name": "lure-ball", "url": "https://pokeapi.co/api/v2/item/449/"}, {"name": "level-ball", "url": "https://pokeapi.co/api/v2/item/450/"}, {"name": "moon-ball", "url": "https://pokeapi.co/api/v2/item/451/"}, {"name": "heavy-ball", "url": "https://pokeapi.co/api/v2/item/452/"}, {"name": "fast-ball", "url": "https://pokeapi.co/api/v2/item/453/"}, {"name": "friend-ball", "url": "https://pokeapi.co/api/v2/item/454/"}, {"name": "love-ball", "url": "https://pokeapi.co/api/v2/item/455/"}, {"name": "park-ball", "url": "https://pokeapi.co/api/v2/item/456/"}, {"name": "sport-ball", "url": "https://pokeapi.co/api/v2/item/457/"}, {"name": "red-apricorn", "url": "https://pokeapi.co/api/v2/item/458/"}, {"name": "blue-apricorn", "url": "https://pokeapi.co/api/v2/item/459/"}, {"name": "yellow-apricorn", "url": "https://pokeapi.co/api/v2/item/460/"}, {"name": "green-apricorn", "url": "https://pokeapi.co/api/v2/item/461/"}, {"name": "pink-apricorn", "url": "https://pokeapi.co/api/v2/item/462/"}, {"name": "white-apricorn", "url": "https://pokeapi.co/api/v2/item/463/"}, {"name": "black-apricorn", "url": "https://pokeapi.co/api/v2/item/464/"}, {"name": "dowsing-machine", "url": "https://pokeapi.co/api/v2/item/465/"}, {"name": "rage-candy-bar", "url": "https://pokeapi.co/api/v2/item/466/"}, {"name": "red-orb", "url": "https://pokeapi.co/api/v2/item/467/"}, {"name": "blue-orb", "url": "https://pokeapi.co/api/v2/item/468/"}, {"name": "jade-orb", "url": "https://pokeapi.co/api/v2/item/469/"}, {"name": "enigma-stone", "url": "https://pokeapi.co/api/v2/item/470/"}, {"name": "unown-report", "url": "https://pokeapi.co/api/v2/item/471/"}, {"name": "blue-card", "url": "https://pokeapi.co/api/v2/item/472/"}, {"name": "slowpoke-tail", "url": "https://pokeapi.co/api/v2/item/473/"}, {"name": "clear-bell", "url": "https://pokeapi.co/api/v2/item/474/"}, {"name": "card-key", "url": "https://pokeapi.co/api/v2/item/475/"}, {"name": "basement-key", "url": "https://pokeapi.co/api/v2/item/476/"}, {"name": "red-scale", "url": "https://pokeapi.co/api/v2/item/477/"}, {"name": "lost-item", "url": "https://pokeapi.co/api/v2/item/478/"}, {"name": "pass", "url": "https://pokeapi.co/api/v2/item/479/"}, {"name": "machine-part", "url": "https://pokeapi.co/api/v2/item/480/"}, {"name": "silver-wing", "url": "https://pokeapi.co/api/v2/item/481/"}, {"name": "rainbow-wing", "url": "https://pokeapi.co/api/v2/item/482/"}, {"name": "mystery-egg", "url": "https://pokeapi.co/api/v2/item/483/"}, {"name": "gb-sounds", "url": "https://pokeapi.co/api/v2/item/484/"}, {"name": "tidal-bell", "url": "https://pokeapi.co/api/v2/item/485/"}, {"name": "data-card-01", "url": "https://pokeapi.co/api/v2/item/486/"}, {"name": "data-card-02", "url": "https://pokeapi.co/api/v2/item/487/"}, {"name": "data-card-03", "url": "https://pokeapi.co/api/v2/item/488/"}, {"name": "data-card-04", "url": "https://pokeapi.co/api/v2/item/489/"}, {"name": "data-card-05", "url": "https://pokeapi.co/api/v2/item/490/"}, {"name": "data-card-06", "url": "https://pokeapi.co/api/v2/item/491/"}, {"name": "data-card-07", "url": "https://pokeapi.co/api/v2/item/492/"}, {"name": "data-card-08", "url": "https://pokeapi.co/api/v2/item/493/"}, {"name": "data-card-09", "url": "https://pokeapi.co/api/v2/item/494/"}, {"name": "data-card-10", "url": "https://pokeapi.co/api/v2/item/495/"}, {"name": "data-card-11", "url": "https://pokeapi.co/api/v2/item/496/"}, {"name": "data-card-12", "url": "https://pokeapi.co/api/v2/item/497/"}, {"name": "data-card-13", "url": "https://pokeapi.co/api/v2/item/498/"}, {"name": "data-card-14", "url": "https://pokeapi.co/api/v2/item/499/"}, {"name": "data-card-15", "url": "https://pokeapi.co/api/v2/item/500/"}, {"name": "data-card-16", "url": "https://pokeapi.co/api/v2/item/501/"}, {"name": "data-card-17", "url": "https://pokeapi.co/api/v2/item/502/"}, {"name": "data-card-18", "url": "https://pokeapi.co/api/v2/item/503/"}, {"name": "data-card-19", "url": "https://pokeapi.co/api/v2/item/504/"}, {"name": "data-card-20", "url": "https://pokeapi.co/api/v2/item/505/"}, {"name": "data-card-21", "url": "https://pokeapi.co/api/v2/item/506/"}, {"name": "data-card-22", "url": "https://pokeapi.co/api/v2/item/507/"}, {"name": "data-card-23", "url": "https://pokeapi.co/api/v2/item/508/"}, {"name": "data-card-24", "url": "https://pokeapi.co/api/v2/item/509/"}, {"name": "data-card-25", "url": "https://pokeapi.co/api/v2/item/510/"}, {"name": "data-card-26", "url": "https://pokeapi.co/api/v2/item/511/"}, {"name": "data-card-27", "url": "https://pokeapi.co/api/v2/item/512/"}, {"name": "lock-capsule", "url": "https://pokeapi.co/api/v2/item/513/"}, {"name": "photo-album", "url": "https://pokeapi.co/api/v2/item/514/"}, {"name": "orange-mail", "url": "https://pokeapi.co/api/v2/item/515/"}, {"name": "harbor-mail", "url": "https://pokeapi.co/api/v2/item/516/"}, {"name": "glitter-mail", "url": "https://pokeapi.co/api/v2/item/517/"}, {"name": "mech-mail", "url": "https://pokeapi.co/api/v2/item/518/"}, {"name": "wood-mail", "url": "https://pokeapi.co/api/v2/item/519/"}, {"name": "wave-mail", "url": "https://pokeapi.co/api/v2/item/520/"}, {"name": "bead-mail", "url": "https://pokeapi.co/api/v2/item/521/"}, {"name": "shadow-mail", "url": "https://pokeapi.co/api/v2/item/522/"}, {"name": "tropic-mail", "url": "https://pokeapi.co/api/v2/item/523/"}, {"name": "dream-mail", "url": "https://pokeapi.co/api/v2/item/524/"}, {"name": "fab-mail", "url": "https://pokeapi.co/api/v2/item/525/"}, {"name": "retro-mail", "url": "https://pokeapi.co/api/v2/item/526/"}, {"name": "mach-bike", "url": "https://pokeapi.co/api/v2/item/527/"}, {"name": "acro-bike", "url": "https://pokeapi.co/api/v2/item/528/"}, {"name": "wailmer-pail", "url": "https://pokeapi.co/api/v2/item/529/"}, {"name": "devon-goods", "url": "https://pokeapi.co/api/v2/item/530/"}, {"name": "soot-sack", "url": "https://pokeapi.co/api/v2/item/531/"}, {"name": "pokeblock-case", "url": "https://pokeapi.co/api/v2/item/532/"}, {"name": "letter", "url": "https://pokeapi.co/api/v2/item/533/"}, {"name": "eon-ticket", "url": "https://pokeapi.co/api/v2/item/534/"}, {"name": "scanner", "url": "https://pokeapi.co/api/v2/item/535/"}, {"name": "go-goggles", "url": "https://pokeapi.co/api/v2/item/536/"}, {"name": "meteorite", "url": "https://pokeapi.co/api/v2/item/537/"}, {"name": "rm-1-key", "url": "https://pokeapi.co/api/v2/item/538/"}, {"name": "rm-2-key", "url": "https://pokeapi.co/api/v2/item/539/"}, {"name": "rm-4-key", "url": "https://pokeapi.co/api/v2/item/540/"}, {"name": "rm-6-key", "url": "https://pokeapi.co/api/v2/item/541/"}, {"name": "devon-scope", "url": "https://pokeapi.co/api/v2/item/542/"}, {"name": "oaks-parcel", "url": "https://pokeapi.co/api/v2/item/543/"}, {"name": "poke-flute", "url": "https://pokeapi.co/api/v2/item/544/"}, {"name": "bike-voucher", "url": "https://pokeapi.co/api/v2/item/545/"}, {"name": "gold-teeth", "url": "https://pokeapi.co/api/v2/item/546/"}, {"name": "lift-key", "url": "https://pokeapi.co/api/v2/item/547/"}, {"name": "silph-scope", "url": "https://pokeapi.co/api/v2/item/548/"}, {"name": "fame-checker", "url": "https://pokeapi.co/api/v2/item/549/"}, {"name": "tm-case", "url": "https://pokeapi.co/api/v2/item/550/"}, {"name": "berry-pouch", "url": "https://pokeapi.co/api/v2/item/551/"}, {"name": "teachy-tv", "url": "https://pokeapi.co/api/v2/item/552/"}, {"name": "tri-pass", "url": "https://pokeapi.co/api/v2/item/553/"}, {"name": "rainbow-pass", "url": "https://pokeapi.co/api/v2/item/554/"}, {"name": "tea", "url": "https://pokeapi.co/api/v2/item/555/"}, {"name": "mysticticket", "url": "https://pokeapi.co/api/v2/item/556/"}, {"name": "auroraticket", "url": "https://pokeapi.co/api/v2/item/557/"}, {"name": "powder-jar", "url": "https://pokeapi.co/api/v2/item/558/"}, {"name": "ruby", "url": "https://pokeapi.co/api/v2/item/559/"}, {"name": "sapphire", "url": "https://pokeapi.co/api/v2/item/560/"}, {"name": "magma-emblem", "url": "https://pokeapi.co/api/v2/item/561/"}, {"name": "old-sea-map", "url": "https://pokeapi.co/api/v2/item/562/"}, {"name": "douse-drive", "url": "https://pokeapi.co/api/v2/item/563/"}, {"name": "shock-drive", "url": "https://pokeapi.co/api/v2/item/564/"}, {"name": "burn-drive", "url": "https://pokeapi.co/api/v2/item/565/"}, {"name": "chill-drive", "url": "https://pokeapi.co/api/v2/item/566/"}, {"name": "sweet-heart", "url": "https://pokeapi.co/api/v2/item/567/"}, {"name": "greet-mail", "url": "https://pokeapi.co/api/v2/item/568/"}, {"name": "favored-mail", "url": "https://pokeapi.co/api/v2/item/569/"}, {"name": "rsvp-mail", "url": "https://pokeapi.co/api/v2/item/570/"}, {"name": "thanks-mail", "url": "https://pokeapi.co/api/v2/item/571/"}, {"name": "inquiry-mail", "url": "https://pokeapi.co/api/v2/item/572/"}, {"name": "like-mail", "url": "https://pokeapi.co/api/v2/item/573/"}, {"name": "reply-mail", "url": "https://pokeapi.co/api/v2/item/574/"}, {"name": "bridge-mail-s", "url": "https://pokeapi.co/api/v2/item/575/"}, {"name": "bridge-mail-d", "url": "https://pokeapi.co/api/v2/item/576/"}, {"name": "bridge-mail-t", "url": "https://pokeapi.co/api/v2/item/577/"}, {"name": "bridge-mail-v", "url": "https://pokeapi.co/api/v2/item/578/"}, {"name": "bridge-mail-m", "url": "https://pokeapi.co/api/v2/item/579/"}, {"name": "prism-scale", "url": "https://pokeapi.co/api/v2/item/580/"}, {"name": "eviolite", "url": "https://pokeapi.co/api/v2/item/581/"}, {"name": "float-stone", "url": "https://pokeapi.co/api/v2/item/582/"}, {"name": "rocky-helmet", "url": "https://pokeapi.co/api/v2/item/583/"}, {"name": "air-balloon", "url": "https://pokeapi.co/api/v2/item/584/"}, {"name": "red-card", "url": "https://pokeapi.co/api/v2/item/585/"}, {"name": "ring-target", "url": "https://pokeapi.co/api/v2/item/586/"}, {"name": "binding-band", "url": "https://pokeapi.co/api/v2/item/587/"}, {"name": "absorb-bulb", "url": "https://pokeapi.co/api/v2/item/588/"}, {"name": "cell-battery", "url": "https://pokeapi.co/api/v2/item/589/"}, {"name": "eject-button", "url": "https://pokeapi.co/api/v2/item/590/"}, {"name": "fire-gem", "url": "https://pokeapi.co/api/v2/item/591/"}, {"name": "water-gem", "url": "https://pokeapi.co/api/v2/item/592/"}, {"name": "electric-gem", "url": "https://pokeapi.co/api/v2/item/593/"}, {"name": "grass-gem", "url": "https://pokeapi.co/api/v2/item/594/"}, {"name": "ice-gem", "url": "https://pokeapi.co/api/v2/item/595/"}, {"name": "fighting-gem", "url": "https://pokeapi.co/api/v2/item/596/"}, {"name": "poison-gem", "url": "https://pokeapi.co/api/v2/item/597/"}, {"name": "ground-gem", "url": "https://pokeapi.co/api/v2/item/598/"}, {"name": "flying-gem", "url": "https://pokeapi.co/api/v2/item/599/"}, {"name": "psychic-gem", "url": "https://pokeapi.co/api/v2/item/600/"}]}