{"count": 1070, "next": "https://pokeapi.co/api/v2/location?offset=800&limit=200", "previous": "https://pokeapi.co/api/v2/location?offset=400&limit=200", "results": [{"name": "kalos-route-10", "url": "https://pokeapi.co/api/v2/location/618/"}, {"name": "menhir-trail", "url": "https://pokeapi.co/api/v2/location/619/"}, {"name": "geosenge-town", "url": "https://pokeapi.co/api/v2/location/620/"}, {"name": "kalos-route-11", "url": "https://pokeapi.co/api/v2/location/621/"}, {"name": "miroir-way", "url": "https://pokeapi.co/api/v2/location/622/"}, {"name": "reflection-cave", "url": "https://pokeapi.co/api/v2/location/623/"}, {"name": "shalour-city", "url": "https://pokeapi.co/api/v2/location/624/"}, {"name": "tower-of-mastery", "url": "https://pokeapi.co/api/v2/location/625/"}, {"name": "kalos-route-12", "url": "https://pokeapi.co/api/v2/location/626/"}, {"name": "fourrage-road", "url": "https://pokeapi.co/api/v2/location/627/"}, {"name": "coumarine-city", "url": "https://pokeapi.co/api/v2/location/628/"}, {"name": "kalos-route-13", "url": "https://pokeapi.co/api/v2/location/629/"}, {"name": "lumiose-badlands", "url": "https://pokeapi.co/api/v2/location/630/"}, {"name": "kalos-route-14", "url": "https://pokeapi.co/api/v2/location/631/"}, {"name": "laverre-nature-trail", "url": "https://pokeapi.co/api/v2/location/632/"}, {"name": "laverre-city", "url": "https://pokeapi.co/api/v2/location/633/"}, {"name": "poke-ball-factory", "url": "https://pokeapi.co/api/v2/location/634/"}, {"name": "kalos-route-15", "url": "https://pokeapi.co/api/v2/location/635/"}, {"name": "brun-way", "url": "https://pokeapi.co/api/v2/location/636/"}, {"name": "dendemille-town", "url": "https://pokeapi.co/api/v2/location/637/"}, {"name": "kalos-route-16", "url": "https://pokeapi.co/api/v2/location/638/"}, {"name": "melancolie-path", "url": "https://pokeapi.co/api/v2/location/639/"}, {"name": "frost-cavern", "url": "https://pokeapi.co/api/v2/location/640/"}, {"name": "kalos-route-17", "url": "https://pokeapi.co/api/v2/location/641/"}, {"name": "mamoswine-road", "url": "https://pokeapi.co/api/v2/location/642/"}, {"name": "anistar-city", "url": "https://pokeapi.co/api/v2/location/643/"}, {"name": "kalos-route-18", "url": "https://pokeapi.co/api/v2/location/644/"}, {"name": "vallee-etroite-way", "url": "https://pokeapi.co/api/v2/location/645/"}, {"name": "couriway-town", "url": "https://pokeapi.co/api/v2/location/646/"}, {"name": "kalos-route-19", "url": "https://pokeapi.co/api/v2/location/647/"}, {"name": "grande-vallee-way", "url": "https://pokeapi.co/api/v2/location/648/"}, {"name": "snowbelle-city", "url": "https://pokeapi.co/api/v2/location/649/"}, {"name": "kalos-route-20", "url": "https://pokeapi.co/api/v2/location/650/"}, {"name": "winding-woods", "url": "https://pokeapi.co/api/v2/location/651/"}, {"name": "pokemon-village", "url": "https://pokeapi.co/api/v2/location/652/"}, {"name": "kalos-route-21", "url": "https://pokeapi.co/api/v2/location/653/"}, {"name": "derni\u00e8re-way", "url": "https://pokeapi.co/api/v2/location/654/"}, {"name": "kalos-route-22", "url": "https://pokeapi.co/api/v2/location/655/"}, {"name": "detourner-way", "url": "https://pokeapi.co/api/v2/location/656/"}, {"name": "kalos-victory-road", "url": "https://pokeapi.co/api/v2/location/657/"}, {"name": "kalos-pokemon-league", "url": "https://pokeapi.co/api/v2/location/658/"}, {"name": "kiloude-city", "url": "https://pokeapi.co/api/v2/location/659/"}, {"name": "battle-maison", "url": "https://pokeapi.co/api/v2/location/660/"}, {"name": "azure-bay", "url": "https://pokeapi.co/api/v2/location/661/"}, {"name": "dendemille-gate", "url": "https://pokeapi.co/api/v2/location/662/"}, {"name": "couriway-gate", "url": "https://pokeapi.co/api/v2/location/663/"}, {"name": "ambrette-gate", "url": "https://pokeapi.co/api/v2/location/664/"}, {"name": "lumiose-gate", "url": "https://pokeapi.co/api/v2/location/665/"}, {"name": "shalour-gate", "url": "https://pokeapi.co/api/v2/location/666/"}, {"name": "coumarine-gate", "url": "https://pokeapi.co/api/v2/location/667/"}, {"name": "laverre-gate", "url": "https://pokeapi.co/api/v2/location/668/"}, {"name": "anistar-gate", "url": "https://pokeapi.co/api/v2/location/669/"}, {"name": "snowbelle-gate", "url": "https://pokeapi.co/api/v2/location/670/"}, {"name": "glittering-cave", "url": "https://pokeapi.co/api/v2/location/671/"}, {"name": "connecting-cave", "url": "https://pokeapi.co/api/v2/location/672/"}, {"name": "zubat-roost", "url": "https://pokeapi.co/api/v2/location/673/"}, {"name": "kalos-power-plant", "url": "https://pokeapi.co/api/v2/location/674/"}, {"name": "team-flare-secret-hq", "url": "https://pokeapi.co/api/v2/location/675/"}, {"name": "terminus-cave", "url": "https://pokeapi.co/api/v2/location/676/"}, {"name": "lost-hotel", "url": "https://pokeapi.co/api/v2/location/677/"}, {"name": "chamber-of-emptiness", "url": "https://pokeapi.co/api/v2/location/678/"}, {"name": "sea-spirits-den", "url": "https://pokeapi.co/api/v2/location/679/"}, {"name": "friend-safari", "url": "https://pokeapi.co/api/v2/location/680/"}, {"name": "blazing-chamber", "url": "https://pokeapi.co/api/v2/location/681/"}, {"name": "flood-chamber", "url": "https://pokeapi.co/api/v2/location/682/"}, {"name": "ironworks-chamber", "url": "https://pokeapi.co/api/v2/location/683/"}, {"name": "dragonmark-chamber", "url": "https://pokeapi.co/api/v2/location/684/"}, {"name": "radiant-chamber", "url": "https://pokeapi.co/api/v2/location/685/"}, {"name": "pokemon-league-gate", "url": "https://pokeapi.co/api/v2/location/686/"}, {"name": "lumiose-station", "url": "https://pokeapi.co/api/v2/location/687/"}, {"name": "kiloude-station", "url": "https://pokeapi.co/api/v2/location/688/"}, {"name": "ambrette-aquarium", "url": "https://pokeapi.co/api/v2/location/689/"}, {"name": "unknown-dungeon", "url": "https://pokeapi.co/api/v2/location/690/"}, {"name": "hoenn-pokemon-league", "url": "https://pokeapi.co/api/v2/location/691/"}, {"name": "team-aqua-hideout", "url": "https://pokeapi.co/api/v2/location/692/"}, {"name": "sea-mauville", "url": "https://pokeapi.co/api/v2/location/693/"}, {"name": "team-magma-hideout", "url": "https://pokeapi.co/api/v2/location/694/"}, {"name": "battle-resort", "url": "https://pokeapi.co/api/v2/location/695/"}, {"name": "ss-tidal", "url": "https://pokeapi.co/api/v2/location/696/"}, {"name": "mirage-forest", "url": "https://pokeapi.co/api/v2/location/697/"}, {"name": "mirage-cave", "url": "https://pokeapi.co/api/v2/location/698/"}, {"name": "mirage-mountain", "url": "https://pokeapi.co/api/v2/location/699/"}, {"name": "trackless-forest", "url": "https://pokeapi.co/api/v2/location/700/"}, {"name": "pathless-plain", "url": "https://pokeapi.co/api/v2/location/701/"}, {"name": "nameless-cavern", "url": "https://pokeapi.co/api/v2/location/702/"}, {"name": "fabled-cave", "url": "https://pokeapi.co/api/v2/location/703/"}, {"name": "gnarled-den", "url": "https://pokeapi.co/api/v2/location/704/"}, {"name": "crescent-isle", "url": "https://pokeapi.co/api/v2/location/705/"}, {"name": "secret-islet", "url": "https://pokeapi.co/api/v2/location/706/"}, {"name": "soaring-in-the-sky", "url": "https://pokeapi.co/api/v2/location/707/"}, {"name": "secret-shore", "url": "https://pokeapi.co/api/v2/location/708/"}, {"name": "secret-meadow", "url": "https://pokeapi.co/api/v2/location/709/"}, {"name": "alola-route-1--hauoli-outskirts", "url": "https://pokeapi.co/api/v2/location/710/"}, {"name": "alola-route-1", "url": "https://pokeapi.co/api/v2/location/711/"}, {"name": "alola-route-3", "url": "https://pokeapi.co/api/v2/location/712/"}, {"name": "alola-route-2", "url": "https://pokeapi.co/api/v2/location/713/"}, {"name": "kalae-bay", "url": "https://pokeapi.co/api/v2/location/714/"}, {"name": "melemele-sea", "url": "https://pokeapi.co/api/v2/location/715/"}, {"name": "hauoli-city--beachfront", "url": "https://pokeapi.co/api/v2/location/716/"}, {"name": "hauoli-city--shopping-district", "url": "https://pokeapi.co/api/v2/location/717/"}, {"name": "hauoli-city--marina", "url": "https://pokeapi.co/api/v2/location/718/"}, {"name": "iki-town", "url": "https://pokeapi.co/api/v2/location/719/"}, {"name": "mahalo-trail", "url": "https://pokeapi.co/api/v2/location/720/"}, {"name": "mahalo-trail--plank-bridge", "url": "https://pokeapi.co/api/v2/location/721/"}, {"name": "ruins-of-conflict", "url": "https://pokeapi.co/api/v2/location/722/"}, {"name": "ten-carat-hill", "url": "https://pokeapi.co/api/v2/location/723/"}, {"name": "ten-carat-hill--farthest-hollow", "url": "https://pokeapi.co/api/v2/location/724/"}, {"name": "hauoli-cemetery", "url": "https://pokeapi.co/api/v2/location/725/"}, {"name": "melemele-meadow", "url": "https://pokeapi.co/api/v2/location/726/"}, {"name": "seaward-cave", "url": "https://pokeapi.co/api/v2/location/727/"}, {"name": "berry-fields", "url": "https://pokeapi.co/api/v2/location/728/"}, {"name": "verdant-cavern--trial-site", "url": "https://pokeapi.co/api/v2/location/729/"}, {"name": "verdant-cavern--totems-den", "url": "https://pokeapi.co/api/v2/location/730/"}, {"name": "alola-route-4", "url": "https://pokeapi.co/api/v2/location/731/"}, {"name": "alola-route-5", "url": "https://pokeapi.co/api/v2/location/732/"}, {"name": "alola-route-6", "url": "https://pokeapi.co/api/v2/location/733/"}, {"name": "alola-route-7", "url": "https://pokeapi.co/api/v2/location/734/"}, {"name": "alola-route-8", "url": "https://pokeapi.co/api/v2/location/735/"}, {"name": "alola-route-9", "url": "https://pokeapi.co/api/v2/location/736/"}, {"name": "hano-grand-resort", "url": "https://pokeapi.co/api/v2/location/737/"}, {"name": "hano-beach", "url": "https://pokeapi.co/api/v2/location/738/"}, {"name": "akala-meadow", "url": "https://pokeapi.co/api/v2/location/739/"}, {"name": "paniola-town", "url": "https://pokeapi.co/api/v2/location/740/"}, {"name": "heahea-city", "url": "https://pokeapi.co/api/v2/location/741/"}, {"name": "konikoni-city", "url": "https://pokeapi.co/api/v2/location/742/"}, {"name": "royal-avenue", "url": "https://pokeapi.co/api/v2/location/743/"}, {"name": "memorial-hill", "url": "https://pokeapi.co/api/v2/location/744/"}, {"name": "paniola-ranch", "url": "https://pokeapi.co/api/v2/location/745/"}, {"name": "wela-volcano-park", "url": "https://pokeapi.co/api/v2/location/746/"}, {"name": "wela-volcano-park--totems-den", "url": "https://pokeapi.co/api/v2/location/747/"}, {"name": "brooklet-hill", "url": "https://pokeapi.co/api/v2/location/748/"}, {"name": "brooklet-hill--totems-den", "url": "https://pokeapi.co/api/v2/location/749/"}, {"name": "lush-jungle", "url": "https://pokeapi.co/api/v2/location/750/"}, {"name": "ruins-of-life", "url": "https://pokeapi.co/api/v2/location/751/"}, {"name": "akala-outskirts", "url": "https://pokeapi.co/api/v2/location/752/"}, {"name": "digletts-tunnel", "url": "https://pokeapi.co/api/v2/location/753/"}, {"name": "battle-royal-dome", "url": "https://pokeapi.co/api/v2/location/754/"}, {"name": "alola-route-10", "url": "https://pokeapi.co/api/v2/location/755/"}, {"name": "alola-route-11", "url": "https://pokeapi.co/api/v2/location/756/"}, {"name": "secluded-shore", "url": "https://pokeapi.co/api/v2/location/757/"}, {"name": "alola-route-13", "url": "https://pokeapi.co/api/v2/location/758/"}, {"name": "tapu-village", "url": "https://pokeapi.co/api/v2/location/759/"}, {"name": "alola-route-15", "url": "https://pokeapi.co/api/v2/location/760/"}, {"name": "alola-route-16", "url": "https://pokeapi.co/api/v2/location/761/"}, {"name": "alola-route-17", "url": "https://pokeapi.co/api/v2/location/762/"}, {"name": "alola-route-12", "url": "https://pokeapi.co/api/v2/location/763/"}, {"name": "haina-desert", "url": "https://pokeapi.co/api/v2/location/764/"}, {"name": "alola-route-14", "url": "https://pokeapi.co/api/v2/location/765/"}, {"name": "ulaula-meadow", "url": "https://pokeapi.co/api/v2/location/766/"}, {"name": "po-town", "url": "https://pokeapi.co/api/v2/location/767/"}, {"name": "malie-city-proper", "url": "https://pokeapi.co/api/v2/location/768/"}, {"name": "malie-garden", "url": "https://pokeapi.co/api/v2/location/769/"}, {"name": "mount-hokulani", "url": "https://pokeapi.co/api/v2/location/770/"}, {"name": "blush-mountain", "url": "https://pokeapi.co/api/v2/location/771/"}, {"name": "ruins-of-abundance", "url": "https://pokeapi.co/api/v2/location/772/"}, {"name": "lake-of-the-sunne", "url": "https://pokeapi.co/api/v2/location/773/"}, {"name": "lake-of-the-moone", "url": "https://pokeapi.co/api/v2/location/774/"}, {"name": "mount-lanakila", "url": "https://pokeapi.co/api/v2/location/775/"}, {"name": "shady-house", "url": "https://pokeapi.co/api/v2/location/776/"}, {"name": "thrifty-megamart--abandoned-site", "url": "https://pokeapi.co/api/v2/location/777/"}, {"name": "hokulani-observatory", "url": "https://pokeapi.co/api/v2/location/778/"}, {"name": "alola-pokemon-league", "url": "https://pokeapi.co/api/v2/location/779/"}, {"name": "poni-meadow", "url": "https://pokeapi.co/api/v2/location/780/"}, {"name": "poni-wilds", "url": "https://pokeapi.co/api/v2/location/781/"}, {"name": "ancient-poni-path", "url": "https://pokeapi.co/api/v2/location/782/"}, {"name": "poni-breaker-coast", "url": "https://pokeapi.co/api/v2/location/783/"}, {"name": "poni-grove", "url": "https://pokeapi.co/api/v2/location/784/"}, {"name": "poni-plains", "url": "https://pokeapi.co/api/v2/location/785/"}, {"name": "poni-coast", "url": "https://pokeapi.co/api/v2/location/786/"}, {"name": "poni-gauntlet", "url": "https://pokeapi.co/api/v2/location/787/"}, {"name": "seafolk-village", "url": "https://pokeapi.co/api/v2/location/788/"}, {"name": "vast-poni-canyon", "url": "https://pokeapi.co/api/v2/location/789/"}, {"name": "altar-of-the-sunne", "url": "https://pokeapi.co/api/v2/location/790/"}, {"name": "altar-of-the-moone", "url": "https://pokeapi.co/api/v2/location/791/"}, {"name": "ruins-of-hope", "url": "https://pokeapi.co/api/v2/location/792/"}, {"name": "resolution-cave", "url": "https://pokeapi.co/api/v2/location/793/"}, {"name": "exeggutor-island", "url": "https://pokeapi.co/api/v2/location/794/"}, {"name": "battle-tree", "url": "https://pokeapi.co/api/v2/location/795/"}, {"name": "aether-paradise", "url": "https://pokeapi.co/api/v2/location/796/"}, {"name": "ultra-space", "url": "https://pokeapi.co/api/v2/location/797/"}, {"name": "malie-city--outer-cape", "url": "https://pokeapi.co/api/v2/location/798/"}, {"name": "roaming-kanto", "url": "https://pokeapi.co/api/v2/location/799/"}, {"name": "roaming-johto", "url": "https://pokeapi.co/api/v2/location/800/"}, {"name": "roaming-hoenn", "url": "https://pokeapi.co/api/v2/location/801/"}, {"name": "roaming-sinnoh", "url": "https://pokeapi.co/api/v2/location/802/"}, {"name": "terra-cave", "url": "https://pokeapi.co/api/v2/location/803/"}, {"name": "marine-cave", "url": "https://pokeapi.co/api/v2/location/804/"}, {"name": "two-island", "url": "https://pokeapi.co/api/v2/location/805/"}, {"name": "three-island", "url": "https://pokeapi.co/api/v2/location/806/"}, {"name": "three-isle-path", "url": "https://pokeapi.co/api/v2/location/807/"}, {"name": "six-island", "url": "https://pokeapi.co/api/v2/location/808/"}, {"name": "seven-island", "url": "https://pokeapi.co/api/v2/location/809/"}, {"name": "birth-island", "url": "https://pokeapi.co/api/v2/location/810/"}, {"name": "navel-rock", "url": "https://pokeapi.co/api/v2/location/811/"}, {"name": "faraway-island", "url": "https://pokeapi.co/api/v2/location/812/"}, {"name": "hoenn-battle-frontier", "url": "https://pokeapi.co/api/v2/location/813/"}, {"name": "johto-safari-zone", "url": "https://pokeapi.co/api/v2/location/814/"}, {"name": "cabo-poco", "url": "https://pokeapi.co/api/v2/location/815/"}, {"name": "los-platos", "url": "https://pokeapi.co/api/v2/location/816/"}, {"name": "mesagoza", "url": "https://pokeapi.co/api/v2/location/817/"}]}