{"count": 1070, "next": "https://pokeapi.co/api/v2/location?offset=1000&limit=70", "previous": "https://pokeapi.co/api/v2/location?offset=600&limit=200", "results": [{"name": "cortondo", "url": "https://pokeapi.co/api/v2/location/818/"}, {"name": "alfornada", "url": "https://pokeapi.co/api/v2/location/819/"}, {"name": "pokemon-league", "url": "https://pokeapi.co/api/v2/location/820/"}, {"name": "artazon", "url": "https://pokeapi.co/api/v2/location/821/"}, {"name": "levincia", "url": "https://pokeapi.co/api/v2/location/822/"}, {"name": "zapapico", "url": "https://pokeapi.co/api/v2/location/823/"}, {"name": "cascarrafa", "url": "https://pokeapi.co/api/v2/location/824/"}, {"name": "porto-marinada", "url": "https://pokeapi.co/api/v2/location/825/"}, {"name": "medali", "url": "https://pokeapi.co/api/v2/location/826/"}, {"name": "montenevera", "url": "https://pokeapi.co/api/v2/location/827/"}, {"name": "paldea-south-province-area-one", "url": "https://pokeapi.co/api/v2/location/828/"}, {"name": "paldea-south-province-area-two", "url": "https://pokeapi.co/api/v2/location/829/"}, {"name": "paldea-south-province-area-three", "url": "https://pokeapi.co/api/v2/location/830/"}, {"name": "paldea-south-province-area-four", "url": "https://pokeapi.co/api/v2/location/831/"}, {"name": "paldea-south-province-area-five", "url": "https://pokeapi.co/api/v2/location/832/"}, {"name": "paldea-south-province-area-six", "url": "https://pokeapi.co/api/v2/location/833/"}, {"name": "south-paldean-sea", "url": "https://pokeapi.co/api/v2/location/834/"}, {"name": "poco-path", "url": "https://pokeapi.co/api/v2/location/835/"}, {"name": "inlet-grotto", "url": "https://pokeapi.co/api/v2/location/836/"}, {"name": "naranja-academy", "url": "https://pokeapi.co/api/v2/location/837/"}, {"name": "alfornada-cavern", "url": "https://pokeapi.co/api/v2/location/838/"}, {"name": "grasswither-shrine", "url": "https://pokeapi.co/api/v2/location/839/"}, {"name": "paldea-east-province-area-one", "url": "https://pokeapi.co/api/v2/location/840/"}, {"name": "paldea-east-province-area-two", "url": "https://pokeapi.co/api/v2/location/841/"}, {"name": "paldea-east-province-area-three", "url": "https://pokeapi.co/api/v2/location/842/"}, {"name": "east-paldean-sea", "url": "https://pokeapi.co/api/v2/location/843/"}, {"name": "tagtree-thicket", "url": "https://pokeapi.co/api/v2/location/844/"}, {"name": "schedar-squads-base", "url": "https://pokeapi.co/api/v2/location/845/"}, {"name": "navi-squads-base", "url": "https://pokeapi.co/api/v2/location/846/"}, {"name": "paldea-west-province-area-one", "url": "https://pokeapi.co/api/v2/location/847/"}, {"name": "paldea-west-province-area-two", "url": "https://pokeapi.co/api/v2/location/848/"}, {"name": "paldea-west-province-area-three", "url": "https://pokeapi.co/api/v2/location/849/"}, {"name": "asado-desert", "url": "https://pokeapi.co/api/v2/location/850/"}, {"name": "west-paldean-sea", "url": "https://pokeapi.co/api/v2/location/851/"}, {"name": "segin-squads-base", "url": "https://pokeapi.co/api/v2/location/852/"}, {"name": "icerend-shrine", "url": "https://pokeapi.co/api/v2/location/853/"}, {"name": "paldea-north-province-area-one", "url": "https://pokeapi.co/api/v2/location/854/"}, {"name": "paldea-north-province-area-two", "url": "https://pokeapi.co/api/v2/location/855/"}, {"name": "paldea-north-province-area-three", "url": "https://pokeapi.co/api/v2/location/856/"}, {"name": "casseroya-lake", "url": "https://pokeapi.co/api/v2/location/857/"}, {"name": "dalizapa-passage", "url": "https://pokeapi.co/api/v2/location/858/"}, {"name": "glaseado-mountain", "url": "https://pokeapi.co/api/v2/location/859/"}, {"name": "socarrat-trail", "url": "https://pokeapi.co/api/v2/location/860/"}, {"name": "groundblight-shrine", "url": "https://pokeapi.co/api/v2/location/861/"}, {"name": "firescourge-shrine", "url": "https://pokeapi.co/api/v2/location/862/"}, {"name": "north-paldean-sea", "url": "https://pokeapi.co/api/v2/location/863/"}, {"name": "ruchbah-squads-base", "url": "https://pokeapi.co/api/v2/location/864/"}, {"name": "caph-squads-base", "url": "https://pokeapi.co/api/v2/location/865/"}, {"name": "area-zero", "url": "https://pokeapi.co/api/v2/location/866/"}, {"name": "zero-lab", "url": "https://pokeapi.co/api/v2/location/867/"}, {"name": "galar-route-1", "url": "https://pokeapi.co/api/v2/location/868/"}, {"name": "galar-route-2", "url": "https://pokeapi.co/api/v2/location/869/"}, {"name": "galar-route-3", "url": "https://pokeapi.co/api/v2/location/870/"}, {"name": "galar-route-4", "url": "https://pokeapi.co/api/v2/location/871/"}, {"name": "galar-route-5", "url": "https://pokeapi.co/api/v2/location/872/"}, {"name": "galar-route-6", "url": "https://pokeapi.co/api/v2/location/873/"}, {"name": "galar-route-7", "url": "https://pokeapi.co/api/v2/location/874/"}, {"name": "galar-route-8", "url": "https://pokeapi.co/api/v2/location/875/"}, {"name": "galar-route-9", "url": "https://pokeapi.co/api/v2/location/876/"}, {"name": "galar-route-10", "url": "https://pokeapi.co/api/v2/location/877/"}, {"name": "axews-eye", "url": "https://pokeapi.co/api/v2/location/878/"}, {"name": "ballimere-lake", "url": "https://pokeapi.co/api/v2/location/879/"}, {"name": "ballonlea", "url": "https://pokeapi.co/api/v2/location/880/"}, {"name": "battle-tower", "url": "https://pokeapi.co/api/v2/location/881/"}, {"name": "brawlers-cave", "url": "https://pokeapi.co/api/v2/location/882/"}, {"name": "bridge-field", "url": "https://pokeapi.co/api/v2/location/883/"}, {"name": "challenge-beach", "url": "https://pokeapi.co/api/v2/location/884/"}, {"name": "challenge-road", "url": "https://pokeapi.co/api/v2/location/885/"}, {"name": "circhester", "url": "https://pokeapi.co/api/v2/location/886/"}, {"name": "courageous-cavern", "url": "https://pokeapi.co/api/v2/location/887/"}, {"name": "crown-shrine", "url": "https://pokeapi.co/api/v2/location/888/"}, {"name": "dappled-grove", "url": "https://pokeapi.co/api/v2/location/889/"}, {"name": "dusty-bowl", "url": "https://pokeapi.co/api/v2/location/890/"}, {"name": "dyna-tree-hill", "url": "https://pokeapi.co/api/v2/location/891/"}, {"name": "east-lake-axewell", "url": "https://pokeapi.co/api/v2/location/892/"}, {"name": "fields-of-honor", "url": "https://pokeapi.co/api/v2/location/893/"}, {"name": "forest-of-focus", "url": "https://pokeapi.co/api/v2/location/894/"}, {"name": "freezington", "url": "https://pokeapi.co/api/v2/location/895/"}, {"name": "frigid-sea", "url": "https://pokeapi.co/api/v2/location/896/"}, {"name": "frostpoint-field", "url": "https://pokeapi.co/api/v2/location/897/"}, {"name": "galar-mine", "url": "https://pokeapi.co/api/v2/location/898/"}, {"name": "galar-mine-no-2", "url": "https://pokeapi.co/api/v2/location/899/"}, {"name": "giants-bed", "url": "https://pokeapi.co/api/v2/location/900/"}, {"name": "giants-foot", "url": "https://pokeapi.co/api/v2/location/901/"}, {"name": "giants-mirror", "url": "https://pokeapi.co/api/v2/location/902/"}, {"name": "giants-seat", "url": "https://pokeapi.co/api/v2/location/903/"}, {"name": "glimwood-tangle", "url": "https://pokeapi.co/api/v2/location/904/"}, {"name": "hammerlocke", "url": "https://pokeapi.co/api/v2/location/905/"}, {"name": "hammerlocke-hills", "url": "https://pokeapi.co/api/v2/location/906/"}, {"name": "honeycalm-island", "url": "https://pokeapi.co/api/v2/location/907/"}, {"name": "honeycalm-sea", "url": "https://pokeapi.co/api/v2/location/908/"}, {"name": "hulbury", "url": "https://pokeapi.co/api/v2/location/909/"}, {"name": "galar-iceberg-ruins", "url": "https://pokeapi.co/api/v2/location/910/"}, {"name": "insular-sea", "url": "https://pokeapi.co/api/v2/location/911/"}, {"name": "galar-iron-ruins", "url": "https://pokeapi.co/api/v2/location/912/"}, {"name": "lake-of-outrage", "url": "https://pokeapi.co/api/v2/location/913/"}, {"name": "lakeside-cave", "url": "https://pokeapi.co/api/v2/location/914/"}, {"name": "loop-lagoon", "url": "https://pokeapi.co/api/v2/location/915/"}, {"name": "master-dojo", "url": "https://pokeapi.co/api/v2/location/916/"}, {"name": "max-lair", "url": "https://pokeapi.co/api/v2/location/917/"}, {"name": "motostoke", "url": "https://pokeapi.co/api/v2/location/918/"}, {"name": "motostoke-outskirts", "url": "https://pokeapi.co/api/v2/location/919/"}, {"name": "motostoke-riverbank", "url": "https://pokeapi.co/api/v2/location/920/"}, {"name": "north-lake-miloch", "url": "https://pokeapi.co/api/v2/location/921/"}, {"name": "old-cemetery", "url": "https://pokeapi.co/api/v2/location/922/"}, {"name": "path-to-the-peak", "url": "https://pokeapi.co/api/v2/location/923/"}, {"name": "postwick", "url": "https://pokeapi.co/api/v2/location/924/"}, {"name": "potbottom-desert", "url": "https://pokeapi.co/api/v2/location/925/"}, {"name": "roaring-sea-caves", "url": "https://pokeapi.co/api/v2/location/926/"}, {"name": "galar-rock-peak-ruins", "url": "https://pokeapi.co/api/v2/location/927/"}, {"name": "rolling-fields", "url": "https://pokeapi.co/api/v2/location/928/"}, {"name": "slippery-slope", "url": "https://pokeapi.co/api/v2/location/929/"}, {"name": "slumbering-weald", "url": "https://pokeapi.co/api/v2/location/930/"}, {"name": "snowslide-slope", "url": "https://pokeapi.co/api/v2/location/931/"}, {"name": "soothing-wetlands", "url": "https://pokeapi.co/api/v2/location/932/"}, {"name": "south-lake-miloch", "url": "https://pokeapi.co/api/v2/location/933/"}, {"name": "spikemuth", "url": "https://pokeapi.co/api/v2/location/934/"}, {"name": "split-decision-ruins", "url": "https://pokeapi.co/api/v2/location/935/"}, {"name": "steamdrift-way", "url": "https://pokeapi.co/api/v2/location/936/"}, {"name": "stepping-stone-sea", "url": "https://pokeapi.co/api/v2/location/937/"}, {"name": "stony-wilderness", "url": "https://pokeapi.co/api/v2/location/938/"}, {"name": "stow-on-side", "url": "https://pokeapi.co/api/v2/location/939/"}, {"name": "three-point-pass", "url": "https://pokeapi.co/api/v2/location/940/"}, {"name": "tower-of-darkness", "url": "https://pokeapi.co/api/v2/location/941/"}, {"name": "tower-of-waters", "url": "https://pokeapi.co/api/v2/location/942/"}, {"name": "training-lowlands", "url": "https://pokeapi.co/api/v2/location/943/"}, {"name": "tunnel-to-the-top", "url": "https://pokeapi.co/api/v2/location/944/"}, {"name": "turffield", "url": "https://pokeapi.co/api/v2/location/945/"}, {"name": "warm-up-tunnel", "url": "https://pokeapi.co/api/v2/location/946/"}, {"name": "watchtower-ruins", "url": "https://pokeapi.co/api/v2/location/947/"}, {"name": "wedgehurst", "url": "https://pokeapi.co/api/v2/location/948/"}, {"name": "west-lake-axewell", "url": "https://pokeapi.co/api/v2/location/949/"}, {"name": "workout-sea", "url": "https://pokeapi.co/api/v2/location/950/"}, {"name": "wyndon", "url": "https://pokeapi.co/api/v2/location/951/"}, {"name": "aipom-hill", "url": "https://pokeapi.co/api/v2/location/952/"}, {"name": "ancient-quarry", "url": "https://pokeapi.co/api/v2/location/953/"}, {"name": "arenas-approach", "url": "https://pokeapi.co/api/v2/location/954/"}, {"name": "aspiration-hill", "url": "https://pokeapi.co/api/v2/location/955/"}, {"name": "avalanche-slopes", "url": "https://pokeapi.co/api/v2/location/956/"}, {"name": "avaluggs-legacy", "url": "https://pokeapi.co/api/v2/location/957/"}, {"name": "bathers-lagoon", "url": "https://pokeapi.co/api/v2/location/958/"}, {"name": "bolderoll-ravine", "url": "https://pokeapi.co/api/v2/location/959/"}, {"name": "bolderoll-slope", "url": "https://pokeapi.co/api/v2/location/960/"}, {"name": "bonechill-wastes", "url": "https://pokeapi.co/api/v2/location/961/"}, {"name": "brava-arena", "url": "https://pokeapi.co/api/v2/location/962/"}, {"name": "castaway-shore", "url": "https://pokeapi.co/api/v2/location/963/"}, {"name": "celestica-ruins", "url": "https://pokeapi.co/api/v2/location/964/"}, {"name": "celestica-trail", "url": "https://pokeapi.co/api/v2/location/965/"}, {"name": "clamberclaw-cliffs", "url": "https://pokeapi.co/api/v2/location/966/"}, {"name": "cloudcap-pass", "url": "https://pokeapi.co/api/v2/location/967/"}, {"name": "cloudpool-ridge", "url": "https://pokeapi.co/api/v2/location/968/"}, {"name": "coastlands-camp", "url": "https://pokeapi.co/api/v2/location/969/"}, {"name": "cottonsedge-prairie", "url": "https://pokeapi.co/api/v2/location/970/"}, {"name": "crossing-slope", "url": "https://pokeapi.co/api/v2/location/971/"}, {"name": "deadwood-haunt", "url": "https://pokeapi.co/api/v2/location/972/"}, {"name": "deertrack-heights", "url": "https://pokeapi.co/api/v2/location/973/"}, {"name": "deertrack-path", "url": "https://pokeapi.co/api/v2/location/974/"}, {"name": "diamond-heath", "url": "https://pokeapi.co/api/v2/location/975/"}, {"name": "diamond-settlement", "url": "https://pokeapi.co/api/v2/location/976/"}, {"name": "droning-meadow", "url": "https://pokeapi.co/api/v2/location/977/"}, {"name": "fabled-spring", "url": "https://pokeapi.co/api/v2/location/978/"}, {"name": "firespit-island", "url": "https://pokeapi.co/api/v2/location/979/"}, {"name": "floaro-gardens", "url": "https://pokeapi.co/api/v2/location/980/"}, {"name": "gapejaw-bog", "url": "https://pokeapi.co/api/v2/location/981/"}, {"name": "ginkgo-landing", "url": "https://pokeapi.co/api/v2/location/982/"}, {"name": "glacier-terrace", "url": "https://pokeapi.co/api/v2/location/983/"}, {"name": "golden-lowlands", "url": "https://pokeapi.co/api/v2/location/984/"}, {"name": "grandtree-arena", "url": "https://pokeapi.co/api/v2/location/985/"}, {"name": "grueling-grove", "url": "https://pokeapi.co/api/v2/location/986/"}, {"name": "hearts-crag", "url": "https://pokeapi.co/api/v2/location/987/"}, {"name": "heavenward-lookout", "url": "https://pokeapi.co/api/v2/location/988/"}, {"name": "heights-camp", "url": "https://pokeapi.co/api/v2/location/989/"}, {"name": "hideaway-bay", "url": "https://pokeapi.co/api/v2/location/990/"}, {"name": "holm-of-trials", "url": "https://pokeapi.co/api/v2/location/991/"}, {"name": "horseshoe-plains", "url": "https://pokeapi.co/api/v2/location/992/"}, {"name": "ice-column-chamber", "url": "https://pokeapi.co/api/v2/location/993/"}, {"name": "icebound-falls", "url": "https://pokeapi.co/api/v2/location/994/"}, {"name": "icepeak-arena", "url": "https://pokeapi.co/api/v2/location/995/"}, {"name": "icepeak-cavern", "url": "https://pokeapi.co/api/v2/location/996/"}, {"name": "islespy-shore", "url": "https://pokeapi.co/api/v2/location/997/"}, {"name": "jubilife-village", "url": "https://pokeapi.co/api/v2/location/998/"}, {"name": "hisui-lake-acuity", "url": "https://pokeapi.co/api/v2/location/999/"}, {"name": "hisui-lake-valor", "url": "https://pokeapi.co/api/v2/location/1000/"}, {"name": "hisui-lake-verity", "url": "https://pokeapi.co/api/v2/location/1001/"}, {"name": "lonely-spring", "url": "https://pokeapi.co/api/v2/location/1002/"}, {"name": "lunkers-lair", "url": "https://pokeapi.co/api/v2/location/1003/"}, {"name": "molten-arena", "url": "https://pokeapi.co/api/v2/location/1004/"}, {"name": "moonview-arena", "url": "https://pokeapi.co/api/v2/location/1005/"}, {"name": "natures-pantry", "url": "https://pokeapi.co/api/v2/location/1006/"}, {"name": "obsidian-falls", "url": "https://pokeapi.co/api/v2/location/1007/"}, {"name": "oreburrow-tunnel", "url": "https://pokeapi.co/api/v2/location/1008/"}, {"name": "pearl-settlement", "url": "https://pokeapi.co/api/v2/location/1009/"}, {"name": "primeval-grotto", "url": "https://pokeapi.co/api/v2/location/1010/"}, {"name": "ramanas-island", "url": "https://pokeapi.co/api/v2/location/1011/"}, {"name": "sacred-plaza", "url": "https://pokeapi.co/api/v2/location/1012/"}, {"name": "sands-reach", "url": "https://pokeapi.co/api/v2/location/1013/"}, {"name": "sandgem-flats", "url": "https://pokeapi.co/api/v2/location/1014/"}, {"name": "scarlet-bog", "url": "https://pokeapi.co/api/v2/location/1015/"}, {"name": "seagrass-haven", "url": "https://pokeapi.co/api/v2/location/1016/"}, {"name": "seaside-hollow", "url": "https://pokeapi.co/api/v2/location/1017/"}]}