{"count": 1070, "next": "https://pokeapi.co/api/v2/location?offset=600&limit=200", "previous": "https://pokeapi.co/api/v2/location?offset=200&limit=200", "results": [{"name": "abundant-shrine", "url": "https://pokeapi.co/api/v2/location/412/"}, {"name": "undella-bay", "url": "https://pokeapi.co/api/v2/location/413/"}, {"name": "lostlorn-forest", "url": "https://pokeapi.co/api/v2/location/414/"}, {"name": "trial-chamber", "url": "https://pokeapi.co/api/v2/location/415/"}, {"name": "guidance-chamber", "url": "https://pokeapi.co/api/v2/location/416/"}, {"name": "entree-forest", "url": "https://pokeapi.co/api/v2/location/417/"}, {"name": "accumula-gate", "url": "https://pokeapi.co/api/v2/location/418/"}, {"name": "undella-gate", "url": "https://pokeapi.co/api/v2/location/419/"}, {"name": "nacrene-gate", "url": "https://pokeapi.co/api/v2/location/420/"}, {"name": "castelia-gate", "url": "https://pokeapi.co/api/v2/location/421/"}, {"name": "nimbasa-gate", "url": "https://pokeapi.co/api/v2/location/422/"}, {"name": "opelucid-gate", "url": "https://pokeapi.co/api/v2/location/423/"}, {"name": "black-gate", "url": "https://pokeapi.co/api/v2/location/424/"}, {"name": "white-gate", "url": "https://pokeapi.co/api/v2/location/425/"}, {"name": "bridge-gate", "url": "https://pokeapi.co/api/v2/location/426/"}, {"name": "route-gate", "url": "https://pokeapi.co/api/v2/location/427/"}, {"name": "abyssal-ruins", "url": "https://pokeapi.co/api/v2/location/428/"}, {"name": "petalburg-city", "url": "https://pokeapi.co/api/v2/location/429/"}, {"name": "slateport-city", "url": "https://pokeapi.co/api/v2/location/430/"}, {"name": "lilycove-city", "url": "https://pokeapi.co/api/v2/location/431/"}, {"name": "mossdeep-city", "url": "https://pokeapi.co/api/v2/location/432/"}, {"name": "sootopolis-city", "url": "https://pokeapi.co/api/v2/location/433/"}, {"name": "ever-grande-city", "url": "https://pokeapi.co/api/v2/location/434/"}, {"name": "meteor-falls", "url": "https://pokeapi.co/api/v2/location/435/"}, {"name": "rusturf-tunnel", "url": "https://pokeapi.co/api/v2/location/436/"}, {"name": "granite-cave", "url": "https://pokeapi.co/api/v2/location/437/"}, {"name": "petalburg-woods", "url": "https://pokeapi.co/api/v2/location/438/"}, {"name": "jagged-pass", "url": "https://pokeapi.co/api/v2/location/439/"}, {"name": "fiery-path", "url": "https://pokeapi.co/api/v2/location/440/"}, {"name": "mt-pyre", "url": "https://pokeapi.co/api/v2/location/441/"}, {"name": "seafloor-cavern", "url": "https://pokeapi.co/api/v2/location/442/"}, {"name": "cave-of-origin", "url": "https://pokeapi.co/api/v2/location/443/"}, {"name": "hoenn-victory-road", "url": "https://pokeapi.co/api/v2/location/444/"}, {"name": "shoal-cave", "url": "https://pokeapi.co/api/v2/location/445/"}, {"name": "new-mauville", "url": "https://pokeapi.co/api/v2/location/446/"}, {"name": "abandoned-ship", "url": "https://pokeapi.co/api/v2/location/447/"}, {"name": "sky-pillar", "url": "https://pokeapi.co/api/v2/location/448/"}, {"name": "hoenn-route-101", "url": "https://pokeapi.co/api/v2/location/449/"}, {"name": "hoenn-route-102", "url": "https://pokeapi.co/api/v2/location/450/"}, {"name": "hoenn-route-103", "url": "https://pokeapi.co/api/v2/location/451/"}, {"name": "hoenn-route-104", "url": "https://pokeapi.co/api/v2/location/452/"}, {"name": "hoenn-route-105", "url": "https://pokeapi.co/api/v2/location/453/"}, {"name": "hoenn-route-106", "url": "https://pokeapi.co/api/v2/location/454/"}, {"name": "hoenn-route-107", "url": "https://pokeapi.co/api/v2/location/455/"}, {"name": "hoenn-route-108", "url": "https://pokeapi.co/api/v2/location/456/"}, {"name": "hoenn-route-109", "url": "https://pokeapi.co/api/v2/location/457/"}, {"name": "hoenn-route-110", "url": "https://pokeapi.co/api/v2/location/458/"}, {"name": "hoenn-route-111", "url": "https://pokeapi.co/api/v2/location/459/"}, {"name": "hoenn-route-112", "url": "https://pokeapi.co/api/v2/location/460/"}, {"name": "hoenn-route-113", "url": "https://pokeapi.co/api/v2/location/461/"}, {"name": "hoenn-route-114", "url": "https://pokeapi.co/api/v2/location/462/"}, {"name": "hoenn-route-115", "url": "https://pokeapi.co/api/v2/location/463/"}, {"name": "hoenn-route-116", "url": "https://pokeapi.co/api/v2/location/464/"}, {"name": "hoenn-route-117", "url": "https://pokeapi.co/api/v2/location/465/"}, {"name": "hoenn-route-118", "url": "https://pokeapi.co/api/v2/location/466/"}, {"name": "hoenn-route-119", "url": "https://pokeapi.co/api/v2/location/467/"}, {"name": "hoenn-route-120", "url": "https://pokeapi.co/api/v2/location/468/"}, {"name": "hoenn-route-121", "url": "https://pokeapi.co/api/v2/location/469/"}, {"name": "hoenn-route-122", "url": "https://pokeapi.co/api/v2/location/470/"}, {"name": "hoenn-route-123", "url": "https://pokeapi.co/api/v2/location/471/"}, {"name": "hoenn-route-124", "url": "https://pokeapi.co/api/v2/location/472/"}, {"name": "hoenn-route-125", "url": "https://pokeapi.co/api/v2/location/473/"}, {"name": "hoenn-route-126", "url": "https://pokeapi.co/api/v2/location/474/"}, {"name": "hoenn-route-127", "url": "https://pokeapi.co/api/v2/location/475/"}, {"name": "hoenn-route-128", "url": "https://pokeapi.co/api/v2/location/476/"}, {"name": "hoenn-route-129", "url": "https://pokeapi.co/api/v2/location/477/"}, {"name": "hoenn-route-130", "url": "https://pokeapi.co/api/v2/location/478/"}, {"name": "hoenn-route-131", "url": "https://pokeapi.co/api/v2/location/479/"}, {"name": "hoenn-route-132", "url": "https://pokeapi.co/api/v2/location/480/"}, {"name": "hoenn-route-133", "url": "https://pokeapi.co/api/v2/location/481/"}, {"name": "hoenn-route-134", "url": "https://pokeapi.co/api/v2/location/482/"}, {"name": "hoenn-safari-zone", "url": "https://pokeapi.co/api/v2/location/483/"}, {"name": "dewford-town", "url": "https://pokeapi.co/api/v2/location/484/"}, {"name": "pacifidlog-town", "url": "https://pokeapi.co/api/v2/location/485/"}, {"name": "magma-hideout", "url": "https://pokeapi.co/api/v2/location/486/"}, {"name": "mirage-tower", "url": "https://pokeapi.co/api/v2/location/487/"}, {"name": "desert-underpass", "url": "https://pokeapi.co/api/v2/location/488/"}, {"name": "artisan-cave", "url": "https://pokeapi.co/api/v2/location/489/"}, {"name": "hoenn-altering-cave", "url": "https://pokeapi.co/api/v2/location/490/"}, {"name": "monean-chamber", "url": "https://pokeapi.co/api/v2/location/491/"}, {"name": "liptoo-chamber", "url": "https://pokeapi.co/api/v2/location/492/"}, {"name": "weepth-chamber", "url": "https://pokeapi.co/api/v2/location/493/"}, {"name": "dilford-chamber", "url": "https://pokeapi.co/api/v2/location/494/"}, {"name": "scufib-chamber", "url": "https://pokeapi.co/api/v2/location/495/"}, {"name": "rixy-chamber", "url": "https://pokeapi.co/api/v2/location/496/"}, {"name": "viapos-chamber", "url": "https://pokeapi.co/api/v2/location/497/"}, {"name": "ss-anne", "url": "https://pokeapi.co/api/v2/location/498/"}, {"name": "mt-ember", "url": "https://pokeapi.co/api/v2/location/500/"}, {"name": "berry-forest", "url": "https://pokeapi.co/api/v2/location/501/"}, {"name": "icefall-cave", "url": "https://pokeapi.co/api/v2/location/502/"}, {"name": "pattern-bush", "url": "https://pokeapi.co/api/v2/location/503/"}, {"name": "lost-cave", "url": "https://pokeapi.co/api/v2/location/504/"}, {"name": "kindle-road", "url": "https://pokeapi.co/api/v2/location/505/"}, {"name": "treasure-beach", "url": "https://pokeapi.co/api/v2/location/506/"}, {"name": "cape-brink", "url": "https://pokeapi.co/api/v2/location/507/"}, {"name": "bond-bridge", "url": "https://pokeapi.co/api/v2/location/508/"}, {"name": "three-isle-port", "url": "https://pokeapi.co/api/v2/location/509/"}, {"name": "resort-gorgeous", "url": "https://pokeapi.co/api/v2/location/510/"}, {"name": "water-labyrinth", "url": "https://pokeapi.co/api/v2/location/511/"}, {"name": "five-isle-meadow", "url": "https://pokeapi.co/api/v2/location/512/"}, {"name": "memorial-pillar", "url": "https://pokeapi.co/api/v2/location/513/"}, {"name": "outcast-island", "url": "https://pokeapi.co/api/v2/location/514/"}, {"name": "green-path", "url": "https://pokeapi.co/api/v2/location/515/"}, {"name": "water-path", "url": "https://pokeapi.co/api/v2/location/516/"}, {"name": "ruin-valley", "url": "https://pokeapi.co/api/v2/location/517/"}, {"name": "trainer-tower", "url": "https://pokeapi.co/api/v2/location/518/"}, {"name": "canyon-entrance", "url": "https://pokeapi.co/api/v2/location/519/"}, {"name": "sevault-canyon", "url": "https://pokeapi.co/api/v2/location/520/"}, {"name": "tanoby-ruins", "url": "https://pokeapi.co/api/v2/location/521/"}, {"name": "one-island", "url": "https://pokeapi.co/api/v2/location/526/"}, {"name": "four-island", "url": "https://pokeapi.co/api/v2/location/527/"}, {"name": "five-island", "url": "https://pokeapi.co/api/v2/location/528/"}, {"name": "kanto-altering-cave", "url": "https://pokeapi.co/api/v2/location/529/"}, {"name": "aspertia-city", "url": "https://pokeapi.co/api/v2/location/531/"}, {"name": "virbank-city", "url": "https://pokeapi.co/api/v2/location/532/"}, {"name": "humilau-city", "url": "https://pokeapi.co/api/v2/location/533/"}, {"name": "pokestar-studios", "url": "https://pokeapi.co/api/v2/location/534/"}, {"name": "join-avenue", "url": "https://pokeapi.co/api/v2/location/535/"}, {"name": "floccesy-town", "url": "https://pokeapi.co/api/v2/location/536/"}, {"name": "lentimas-town", "url": "https://pokeapi.co/api/v2/location/537/"}, {"name": "unova-route-19", "url": "https://pokeapi.co/api/v2/location/538/"}, {"name": "unova-route-20", "url": "https://pokeapi.co/api/v2/location/539/"}, {"name": "unova-route-21", "url": "https://pokeapi.co/api/v2/location/540/"}, {"name": "unova-route-22", "url": "https://pokeapi.co/api/v2/location/541/"}, {"name": "unova-route-23", "url": "https://pokeapi.co/api/v2/location/542/"}, {"name": "castelia-sewers", "url": "https://pokeapi.co/api/v2/location/543/"}, {"name": "floccesy-ranch", "url": "https://pokeapi.co/api/v2/location/544/"}, {"name": "virbank-complex", "url": "https://pokeapi.co/api/v2/location/545/"}, {"name": "reversal-mountain", "url": "https://pokeapi.co/api/v2/location/546/"}, {"name": "strange-house", "url": "https://pokeapi.co/api/v2/location/547/"}, {"name": "unova-victory-road-2", "url": "https://pokeapi.co/api/v2/location/548/"}, {"name": "plasma-frigate", "url": "https://pokeapi.co/api/v2/location/549/"}, {"name": "relic-passage", "url": "https://pokeapi.co/api/v2/location/550/"}, {"name": "clay-tunnel", "url": "https://pokeapi.co/api/v2/location/551/"}, {"name": "white-treehollow", "url": "https://pokeapi.co/api/v2/location/552/"}, {"name": "black-tower", "url": "https://pokeapi.co/api/v2/location/553/"}, {"name": "seaside-cave", "url": "https://pokeapi.co/api/v2/location/554/"}, {"name": "cave-of-being", "url": "https://pokeapi.co/api/v2/location/555/"}, {"name": "hidden-grotto", "url": "https://pokeapi.co/api/v2/location/556/"}, {"name": "marine-tube", "url": "https://pokeapi.co/api/v2/location/557/"}, {"name": "virbank-gate", "url": "https://pokeapi.co/api/v2/location/558/"}, {"name": "aspertia-gate", "url": "https://pokeapi.co/api/v2/location/559/"}, {"name": "nature-sanctuary", "url": "https://pokeapi.co/api/v2/location/560/"}, {"name": "medal-secretariat", "url": "https://pokeapi.co/api/v2/location/561/"}, {"name": "underground-ruins", "url": "https://pokeapi.co/api/v2/location/562/"}, {"name": "rocky-mountain-room", "url": "https://pokeapi.co/api/v2/location/563/"}, {"name": "glacier-room", "url": "https://pokeapi.co/api/v2/location/564/"}, {"name": "iron-room", "url": "https://pokeapi.co/api/v2/location/565/"}, {"name": "pledge-grove", "url": "https://pokeapi.co/api/v2/location/566/"}, {"name": "littleroot-town", "url": "https://pokeapi.co/api/v2/location/567/"}, {"name": "oldale-town", "url": "https://pokeapi.co/api/v2/location/568/"}, {"name": "lavaridge-town", "url": "https://pokeapi.co/api/v2/location/569/"}, {"name": "fallarbor-town", "url": "https://pokeapi.co/api/v2/location/570/"}, {"name": "verdanturf-town", "url": "https://pokeapi.co/api/v2/location/571/"}, {"name": "mauville-city", "url": "https://pokeapi.co/api/v2/location/572/"}, {"name": "rustboro-city", "url": "https://pokeapi.co/api/v2/location/573/"}, {"name": "fortree-city", "url": "https://pokeapi.co/api/v2/location/574/"}, {"name": "underwater", "url": "https://pokeapi.co/api/v2/location/575/"}, {"name": "mt-chimney", "url": "https://pokeapi.co/api/v2/location/576/"}, {"name": "mirage-island", "url": "https://pokeapi.co/api/v2/location/577/"}, {"name": "southern-island", "url": "https://pokeapi.co/api/v2/location/578/"}, {"name": "sealed-chamber", "url": "https://pokeapi.co/api/v2/location/579/"}, {"name": "scorched-slab", "url": "https://pokeapi.co/api/v2/location/580/"}, {"name": "island-cave", "url": "https://pokeapi.co/api/v2/location/581/"}, {"name": "desert-ruins", "url": "https://pokeapi.co/api/v2/location/582/"}, {"name": "ancient-tomb", "url": "https://pokeapi.co/api/v2/location/583/"}, {"name": "inside-of-truck", "url": "https://pokeapi.co/api/v2/location/584/"}, {"name": "secret-base", "url": "https://pokeapi.co/api/v2/location/585/"}, {"name": "hoenn-battle-tower", "url": "https://pokeapi.co/api/v2/location/586/"}, {"name": "vaniville-town", "url": "https://pokeapi.co/api/v2/location/587/"}, {"name": "kalos-route-1", "url": "https://pokeapi.co/api/v2/location/588/"}, {"name": "vaniville-pathway", "url": "https://pokeapi.co/api/v2/location/589/"}, {"name": "aquacorde-town", "url": "https://pokeapi.co/api/v2/location/590/"}, {"name": "kalos-route-2", "url": "https://pokeapi.co/api/v2/location/591/"}, {"name": "avance-trail", "url": "https://pokeapi.co/api/v2/location/592/"}, {"name": "santalune-forest", "url": "https://pokeapi.co/api/v2/location/593/"}, {"name": "kalos-route-3", "url": "https://pokeapi.co/api/v2/location/594/"}, {"name": "ouvert-way", "url": "https://pokeapi.co/api/v2/location/595/"}, {"name": "santalune-city", "url": "https://pokeapi.co/api/v2/location/596/"}, {"name": "kalos-route-4", "url": "https://pokeapi.co/api/v2/location/597/"}, {"name": "parterre-way", "url": "https://pokeapi.co/api/v2/location/598/"}, {"name": "lumiose-city", "url": "https://pokeapi.co/api/v2/location/599/"}, {"name": "prism-tower", "url": "https://pokeapi.co/api/v2/location/600/"}, {"name": "lysandre-labs", "url": "https://pokeapi.co/api/v2/location/601/"}, {"name": "kalos-route-5", "url": "https://pokeapi.co/api/v2/location/602/"}, {"name": "versant-road", "url": "https://pokeapi.co/api/v2/location/603/"}, {"name": "camphrier-town", "url": "https://pokeapi.co/api/v2/location/604/"}, {"name": "shabboneau-castle", "url": "https://pokeapi.co/api/v2/location/605/"}, {"name": "kalos-route-6", "url": "https://pokeapi.co/api/v2/location/606/"}, {"name": "palais-lane", "url": "https://pokeapi.co/api/v2/location/607/"}, {"name": "parfum-palace", "url": "https://pokeapi.co/api/v2/location/608/"}, {"name": "kalos-route-7", "url": "https://pokeapi.co/api/v2/location/609/"}, {"name": "rivi\u00e8re-walk", "url": "https://pokeapi.co/api/v2/location/610/"}, {"name": "cyllage-city", "url": "https://pokeapi.co/api/v2/location/611/"}, {"name": "kalos-route-8", "url": "https://pokeapi.co/api/v2/location/612/"}, {"name": "muraille-coast", "url": "https://pokeapi.co/api/v2/location/613/"}, {"name": "ambrette-town", "url": "https://pokeapi.co/api/v2/location/614/"}, {"name": "kalos-route-9", "url": "https://pokeapi.co/api/v2/location/615/"}, {"name": "spikes-passage", "url": "https://pokeapi.co/api/v2/location/616/"}, {"name": "battle-chateau", "url": "https://pokeapi.co/api/v2/location/617/"}]}