{"count": 1070, "next": "https://pokeapi.co/api/v2/location?offset=200&limit=200", "previous": null, "results": [{"name": "canalave-city", "url": "https://pokeapi.co/api/v2/location/1/"}, {"name": "eterna-city", "url": "https://pokeapi.co/api/v2/location/2/"}, {"name": "pastoria-city", "url": "https://pokeapi.co/api/v2/location/3/"}, {"name": "sunyshore-city", "url": "https://pokeapi.co/api/v2/location/4/"}, {"name": "sinnoh-pokemon-league", "url": "https://pokeapi.co/api/v2/location/5/"}, {"name": "oreburgh-mine", "url": "https://pokeapi.co/api/v2/location/6/"}, {"name": "valley-windworks", "url": "https://pokeapi.co/api/v2/location/7/"}, {"name": "eterna-forest", "url": "https://pokeapi.co/api/v2/location/8/"}, {"name": "fuego-ironworks", "url": "https://pokeapi.co/api/v2/location/9/"}, {"name": "mt-coronet", "url": "https://pokeapi.co/api/v2/location/10/"}, {"name": "great-marsh", "url": "https://pokeapi.co/api/v2/location/11/"}, {"name": "solaceon-ruins", "url": "https://pokeapi.co/api/v2/location/12/"}, {"name": "sinnoh-victory-road", "url": "https://pokeapi.co/api/v2/location/13/"}, {"name": "ravaged-path", "url": "https://pokeapi.co/api/v2/location/14/"}, {"name": "oreburgh-gate", "url": "https://pokeapi.co/api/v2/location/15/"}, {"name": "stark-mountain", "url": "https://pokeapi.co/api/v2/location/16/"}, {"name": "spring-path", "url": "https://pokeapi.co/api/v2/location/17/"}, {"name": "turnback-cave", "url": "https://pokeapi.co/api/v2/location/18/"}, {"name": "snowpoint-temple", "url": "https://pokeapi.co/api/v2/location/19/"}, {"name": "wayward-cave", "url": "https://pokeapi.co/api/v2/location/20/"}, {"name": "ruin-maniac-cave", "url": "https://pokeapi.co/api/v2/location/22/"}, {"name": "trophy-garden", "url": "https://pokeapi.co/api/v2/location/23/"}, {"name": "iron-island", "url": "https://pokeapi.co/api/v2/location/24/"}, {"name": "old-chateau", "url": "https://pokeapi.co/api/v2/location/25/"}, {"name": "lake-verity", "url": "https://pokeapi.co/api/v2/location/26/"}, {"name": "lake-valor", "url": "https://pokeapi.co/api/v2/location/27/"}, {"name": "lake-acuity", "url": "https://pokeapi.co/api/v2/location/28/"}, {"name": "valor-lakefront", "url": "https://pokeapi.co/api/v2/location/29/"}, {"name": "acuity-lakefront", "url": "https://pokeapi.co/api/v2/location/30/"}, {"name": "sinnoh-route-201", "url": "https://pokeapi.co/api/v2/location/31/"}, {"name": "sinnoh-route-202", "url": "https://pokeapi.co/api/v2/location/32/"}, {"name": "sinnoh-route-203", "url": "https://pokeapi.co/api/v2/location/33/"}, {"name": "sinnoh-route-204", "url": "https://pokeapi.co/api/v2/location/34/"}, {"name": "sinnoh-route-205", "url": "https://pokeapi.co/api/v2/location/35/"}, {"name": "sinnoh-route-206", "url": "https://pokeapi.co/api/v2/location/36/"}, {"name": "sinnoh-route-207", "url": "https://pokeapi.co/api/v2/location/37/"}, {"name": "sinnoh-route-208", "url": "https://pokeapi.co/api/v2/location/38/"}, {"name": "sinnoh-route-209", "url": "https://pokeapi.co/api/v2/location/39/"}, {"name": "lost-tower", "url": "https://pokeapi.co/api/v2/location/40/"}, {"name": "sinnoh-route-210", "url": "https://pokeapi.co/api/v2/location/41/"}, {"name": "sinnoh-route-211", "url": "https://pokeapi.co/api/v2/location/42/"}, {"name": "sinnoh-route-212", "url": "https://pokeapi.co/api/v2/location/43/"}, {"name": "sinnoh-route-213", "url": "https://pokeapi.co/api/v2/location/44/"}, {"name": "sinnoh-route-214", "url": "https://pokeapi.co/api/v2/location/45/"}, {"name": "sinnoh-route-215", "url": "https://pokeapi.co/api/v2/location/46/"}, {"name": "sinnoh-route-216", "url": "https://pokeapi.co/api/v2/location/47/"}, {"name": "sinnoh-route-217", "url": "https://pokeapi.co/api/v2/location/48/"}, {"name": "sinnoh-route-218", "url": "https://pokeapi.co/api/v2/location/49/"}, {"name": "sinnoh-route-219", "url": "https://pokeapi.co/api/v2/location/50/"}, {"name": "sinnoh-route-221", "url": "https://pokeapi.co/api/v2/location/51/"}, {"name": "sinnoh-route-222", "url": "https://pokeapi.co/api/v2/location/52/"}, {"name": "sinnoh-route-224", "url": "https://pokeapi.co/api/v2/location/53/"}, {"name": "sinnoh-route-225", "url": "https://pokeapi.co/api/v2/location/54/"}, {"name": "sinnoh-route-227", "url": "https://pokeapi.co/api/v2/location/55/"}, {"name": "sinnoh-route-228", "url": "https://pokeapi.co/api/v2/location/56/"}, {"name": "sinnoh-route-229", "url": "https://pokeapi.co/api/v2/location/57/"}, {"name": "twinleaf-town", "url": "https://pokeapi.co/api/v2/location/58/"}, {"name": "celestic-town", "url": "https://pokeapi.co/api/v2/location/59/"}, {"name": "resort-area", "url": "https://pokeapi.co/api/v2/location/60/"}, {"name": "sinnoh-sea-route-220", "url": "https://pokeapi.co/api/v2/location/61/"}, {"name": "sinnoh-sea-route-223", "url": "https://pokeapi.co/api/v2/location/62/"}, {"name": "sinnoh-sea-route-226", "url": "https://pokeapi.co/api/v2/location/63/"}, {"name": "sinnoh-sea-route-230", "url": "https://pokeapi.co/api/v2/location/64/"}, {"name": "blackthorn-city", "url": "https://pokeapi.co/api/v2/location/65/"}, {"name": "burned-tower", "url": "https://pokeapi.co/api/v2/location/66/"}, {"name": "celadon-city", "url": "https://pokeapi.co/api/v2/location/67/"}, {"name": "cerulean-city", "url": "https://pokeapi.co/api/v2/location/68/"}, {"name": "cherrygrove-city", "url": "https://pokeapi.co/api/v2/location/69/"}, {"name": "cianwood-city", "url": "https://pokeapi.co/api/v2/location/70/"}, {"name": "cinnabar-island", "url": "https://pokeapi.co/api/v2/location/71/"}, {"name": "dark-cave", "url": "https://pokeapi.co/api/v2/location/72/"}, {"name": "digletts-cave", "url": "https://pokeapi.co/api/v2/location/73/"}, {"name": "dragons-den", "url": "https://pokeapi.co/api/v2/location/74/"}, {"name": "ecruteak-city", "url": "https://pokeapi.co/api/v2/location/75/"}, {"name": "fuchsia-city", "url": "https://pokeapi.co/api/v2/location/76/"}, {"name": "ice-path", "url": "https://pokeapi.co/api/v2/location/77/"}, {"name": "ilex-forest", "url": "https://pokeapi.co/api/v2/location/78/"}, {"name": "lake-of-rage", "url": "https://pokeapi.co/api/v2/location/79/"}, {"name": "mt-moon", "url": "https://pokeapi.co/api/v2/location/80/"}, {"name": "mt-mortar", "url": "https://pokeapi.co/api/v2/location/81/"}, {"name": "mt-silver", "url": "https://pokeapi.co/api/v2/location/82/"}, {"name": "national-park", "url": "https://pokeapi.co/api/v2/location/83/"}, {"name": "new-bark-town", "url": "https://pokeapi.co/api/v2/location/84/"}, {"name": "olivine-city", "url": "https://pokeapi.co/api/v2/location/85/"}, {"name": "pallet-town", "url": "https://pokeapi.co/api/v2/location/86/"}, {"name": "rock-tunnel", "url": "https://pokeapi.co/api/v2/location/87/"}, {"name": "kanto-route-1", "url": "https://pokeapi.co/api/v2/location/88/"}, {"name": "kanto-route-10", "url": "https://pokeapi.co/api/v2/location/89/"}, {"name": "kanto-route-11", "url": "https://pokeapi.co/api/v2/location/90/"}, {"name": "kanto-route-12", "url": "https://pokeapi.co/api/v2/location/91/"}, {"name": "kanto-route-13", "url": "https://pokeapi.co/api/v2/location/92/"}, {"name": "kanto-route-14", "url": "https://pokeapi.co/api/v2/location/93/"}, {"name": "kanto-route-15", "url": "https://pokeapi.co/api/v2/location/94/"}, {"name": "kanto-route-16", "url": "https://pokeapi.co/api/v2/location/95/"}, {"name": "kanto-route-17", "url": "https://pokeapi.co/api/v2/location/96/"}, {"name": "kanto-route-18", "url": "https://pokeapi.co/api/v2/location/97/"}, {"name": "kanto-sea-route-19", "url": "https://pokeapi.co/api/v2/location/98/"}, {"name": "kanto-route-2", "url": "https://pokeapi.co/api/v2/location/99/"}, {"name": "kanto-sea-route-20", "url": "https://pokeapi.co/api/v2/location/100/"}, {"name": "kanto-sea-route-21", "url": "https://pokeapi.co/api/v2/location/101/"}, {"name": "kanto-route-22", "url": "https://pokeapi.co/api/v2/location/102/"}, {"name": "kanto-route-24", "url": "https://pokeapi.co/api/v2/location/103/"}, {"name": "kanto-route-25", "url": "https://pokeapi.co/api/v2/location/104/"}, {"name": "kanto-route-26", "url": "https://pokeapi.co/api/v2/location/105/"}, {"name": "kanto-route-27", "url": "https://pokeapi.co/api/v2/location/106/"}, {"name": "kanto-route-28", "url": "https://pokeapi.co/api/v2/location/107/"}, {"name": "johto-route-29", "url": "https://pokeapi.co/api/v2/location/108/"}, {"name": "kanto-route-3", "url": "https://pokeapi.co/api/v2/location/109/"}, {"name": "johto-route-30", "url": "https://pokeapi.co/api/v2/location/110/"}, {"name": "johto-route-31", "url": "https://pokeapi.co/api/v2/location/111/"}, {"name": "johto-route-32", "url": "https://pokeapi.co/api/v2/location/112/"}, {"name": "johto-route-33", "url": "https://pokeapi.co/api/v2/location/113/"}, {"name": "johto-route-34", "url": "https://pokeapi.co/api/v2/location/114/"}, {"name": "johto-route-35", "url": "https://pokeapi.co/api/v2/location/115/"}, {"name": "johto-route-36", "url": "https://pokeapi.co/api/v2/location/116/"}, {"name": "johto-route-37", "url": "https://pokeapi.co/api/v2/location/117/"}, {"name": "johto-route-38", "url": "https://pokeapi.co/api/v2/location/118/"}, {"name": "johto-route-39", "url": "https://pokeapi.co/api/v2/location/119/"}, {"name": "kanto-route-4", "url": "https://pokeapi.co/api/v2/location/120/"}, {"name": "johto-sea-route-40", "url": "https://pokeapi.co/api/v2/location/121/"}, {"name": "johto-sea-route-41", "url": "https://pokeapi.co/api/v2/location/122/"}, {"name": "johto-route-42", "url": "https://pokeapi.co/api/v2/location/123/"}, {"name": "johto-route-43", "url": "https://pokeapi.co/api/v2/location/124/"}, {"name": "johto-route-44", "url": "https://pokeapi.co/api/v2/location/125/"}, {"name": "johto-route-45", "url": "https://pokeapi.co/api/v2/location/126/"}, {"name": "johto-route-46", "url": "https://pokeapi.co/api/v2/location/127/"}, {"name": "johto-route-47", "url": "https://pokeapi.co/api/v2/location/128/"}, {"name": "johto-route-48", "url": "https://pokeapi.co/api/v2/location/129/"}, {"name": "kanto-route-5", "url": "https://pokeapi.co/api/v2/location/130/"}, {"name": "kanto-route-6", "url": "https://pokeapi.co/api/v2/location/131/"}, {"name": "kanto-route-7", "url": "https://pokeapi.co/api/v2/location/132/"}, {"name": "kanto-route-8", "url": "https://pokeapi.co/api/v2/location/133/"}, {"name": "kanto-route-9", "url": "https://pokeapi.co/api/v2/location/134/"}, {"name": "ruins-of-alph", "url": "https://pokeapi.co/api/v2/location/135/"}, {"name": "seafoam-islands", "url": "https://pokeapi.co/api/v2/location/136/"}, {"name": "slowpoke-well", "url": "https://pokeapi.co/api/v2/location/137/"}, {"name": "sprout-tower", "url": "https://pokeapi.co/api/v2/location/138/"}, {"name": "bell-tower", "url": "https://pokeapi.co/api/v2/location/139/"}, {"name": "tohjo-falls", "url": "https://pokeapi.co/api/v2/location/140/"}, {"name": "union-cave", "url": "https://pokeapi.co/api/v2/location/141/"}, {"name": "cerulean-cave", "url": "https://pokeapi.co/api/v2/location/147/"}, {"name": "unknown-all-poliwag", "url": "https://pokeapi.co/api/v2/location/148/"}, {"name": "unknown-all-rattata", "url": "https://pokeapi.co/api/v2/location/149/"}, {"name": "unknown-all-bugs", "url": "https://pokeapi.co/api/v2/location/150/"}, {"name": "vermilion-city", "url": "https://pokeapi.co/api/v2/location/151/"}, {"name": "kanto-victory-road-1", "url": "https://pokeapi.co/api/v2/location/152/"}, {"name": "violet-city", "url": "https://pokeapi.co/api/v2/location/153/"}, {"name": "viridian-city", "url": "https://pokeapi.co/api/v2/location/154/"}, {"name": "viridian-forest", "url": "https://pokeapi.co/api/v2/location/155/"}, {"name": "whirl-islands", "url": "https://pokeapi.co/api/v2/location/156/"}, {"name": "kanto-route-23", "url": "https://pokeapi.co/api/v2/location/157/"}, {"name": "power-plant", "url": "https://pokeapi.co/api/v2/location/158/"}, {"name": "kanto-victory-road-2", "url": "https://pokeapi.co/api/v2/location/159/"}, {"name": "pokemon-tower", "url": "https://pokeapi.co/api/v2/location/160/"}, {"name": "pokemon-mansion", "url": "https://pokeapi.co/api/v2/location/161/"}, {"name": "kanto-safari-zone", "url": "https://pokeapi.co/api/v2/location/162/"}, {"name": "sandgem-town", "url": "https://pokeapi.co/api/v2/location/163/"}, {"name": "floaroma-town", "url": "https://pokeapi.co/api/v2/location/164/"}, {"name": "solaceon-town", "url": "https://pokeapi.co/api/v2/location/165/"}, {"name": "jubilife-city", "url": "https://pokeapi.co/api/v2/location/167/"}, {"name": "oreburgh-city", "url": "https://pokeapi.co/api/v2/location/168/"}, {"name": "hearthome-city", "url": "https://pokeapi.co/api/v2/location/169/"}, {"name": "veilstone-city", "url": "https://pokeapi.co/api/v2/location/170/"}, {"name": "snowpoint-city", "url": "https://pokeapi.co/api/v2/location/171/"}, {"name": "spear-pillar", "url": "https://pokeapi.co/api/v2/location/172/"}, {"name": "pal-park", "url": "https://pokeapi.co/api/v2/location/173/"}, {"name": "amity-square", "url": "https://pokeapi.co/api/v2/location/174/"}, {"name": "floaroma-meadow", "url": "https://pokeapi.co/api/v2/location/175/"}, {"name": "fullmoon-island", "url": "https://pokeapi.co/api/v2/location/177/"}, {"name": "sendoff-spring", "url": "https://pokeapi.co/api/v2/location/178/"}, {"name": "flower-paradise", "url": "https://pokeapi.co/api/v2/location/179/"}, {"name": "maniac-tunnel", "url": "https://pokeapi.co/api/v2/location/180/"}, {"name": "galactic-hq", "url": "https://pokeapi.co/api/v2/location/181/"}, {"name": "verity-lakefront", "url": "https://pokeapi.co/api/v2/location/182/"}, {"name": "newmoon-island", "url": "https://pokeapi.co/api/v2/location/183/"}, {"name": "sinnoh-battle-tower", "url": "https://pokeapi.co/api/v2/location/184/"}, {"name": "fight-area", "url": "https://pokeapi.co/api/v2/location/185/"}, {"name": "survival-area", "url": "https://pokeapi.co/api/v2/location/186/"}, {"name": "seabreak-path", "url": "https://pokeapi.co/api/v2/location/187/"}, {"name": "sinnoh-hall-of-origin-1", "url": "https://pokeapi.co/api/v2/location/188/"}, {"name": "sinnoh-hall-of-origin-2", "url": "https://pokeapi.co/api/v2/location/189/"}, {"name": "verity-cavern", "url": "https://pokeapi.co/api/v2/location/190/"}, {"name": "valor-cavern", "url": "https://pokeapi.co/api/v2/location/191/"}, {"name": "acuity-cavern", "url": "https://pokeapi.co/api/v2/location/192/"}, {"name": "jubilife-tv", "url": "https://pokeapi.co/api/v2/location/193/"}, {"name": "poketch-co", "url": "https://pokeapi.co/api/v2/location/194/"}, {"name": "gts", "url": "https://pokeapi.co/api/v2/location/195/"}, {"name": "trainers-school", "url": "https://pokeapi.co/api/v2/location/196/"}, {"name": "mining-museum", "url": "https://pokeapi.co/api/v2/location/197/"}, {"name": "sinnoh-flower-shop", "url": "https://pokeapi.co/api/v2/location/198/"}, {"name": "sinnoh-cycle-shop", "url": "https://pokeapi.co/api/v2/location/199/"}, {"name": "contest-hall", "url": "https://pokeapi.co/api/v2/location/200/"}, {"name": "poffin-house", "url": "https://pokeapi.co/api/v2/location/201/"}, {"name": "sinnoh-foreign-building", "url": "https://pokeapi.co/api/v2/location/202/"}, {"name": "pokemon-day-care", "url": "https://pokeapi.co/api/v2/location/203/"}, {"name": "veilstone-store", "url": "https://pokeapi.co/api/v2/location/204/"}, {"name": "sinnoh-game-corner", "url": "https://pokeapi.co/api/v2/location/205/"}, {"name": "canalave-library", "url": "https://pokeapi.co/api/v2/location/206/"}, {"name": "vista-lighthouse", "url": "https://pokeapi.co/api/v2/location/207/"}, {"name": "sunyshore-market", "url": "https://pokeapi.co/api/v2/location/208/"}]}