{"count": 1070, "next": "https://pokeapi.co/api/v2/location?offset=400&limit=200", "previous": "https://pokeapi.co/api/v2/location?offset=0&limit=200", "results": [{"name": "footstep-house", "url": "https://pokeapi.co/api/v2/location/209/"}, {"name": "sinnoh-cafe", "url": "https://pokeapi.co/api/v2/location/210/"}, {"name": "grand-lake", "url": "https://pokeapi.co/api/v2/location/211/"}, {"name": "sinnoh-restaurant", "url": "https://pokeapi.co/api/v2/location/212/"}, {"name": "battle-park", "url": "https://pokeapi.co/api/v2/location/213/"}, {"name": "battle-frontier", "url": "https://pokeapi.co/api/v2/location/214/"}, {"name": "battle-factory", "url": "https://pokeapi.co/api/v2/location/215/"}, {"name": "battle-castle", "url": "https://pokeapi.co/api/v2/location/216/"}, {"name": "battle-arcade", "url": "https://pokeapi.co/api/v2/location/217/"}, {"name": "battle-hall", "url": "https://pokeapi.co/api/v2/location/218/"}, {"name": "distortion-world", "url": "https://pokeapi.co/api/v2/location/219/"}, {"name": "sinnoh-global-terminal", "url": "https://pokeapi.co/api/v2/location/220/"}, {"name": "sinnoh-villa", "url": "https://pokeapi.co/api/v2/location/221/"}, {"name": "battleground", "url": "https://pokeapi.co/api/v2/location/222/"}, {"name": "rotoms-room", "url": "https://pokeapi.co/api/v2/location/223/"}, {"name": "tg-eterna-bldg", "url": "https://pokeapi.co/api/v2/location/224/"}, {"name": "iron-ruins", "url": "https://pokeapi.co/api/v2/location/225/"}, {"name": "iceberg-ruins", "url": "https://pokeapi.co/api/v2/location/226/"}, {"name": "rock-peak-ruins", "url": "https://pokeapi.co/api/v2/location/227/"}, {"name": "azalea-town", "url": "https://pokeapi.co/api/v2/location/228/"}, {"name": "goldenrod-city", "url": "https://pokeapi.co/api/v2/location/229/"}, {"name": "mahogany-town", "url": "https://pokeapi.co/api/v2/location/230/"}, {"name": "pewter-city", "url": "https://pokeapi.co/api/v2/location/231/"}, {"name": "lavender-town", "url": "https://pokeapi.co/api/v2/location/232/"}, {"name": "indigo-plateau", "url": "https://pokeapi.co/api/v2/location/233/"}, {"name": "saffron-city", "url": "https://pokeapi.co/api/v2/location/234/"}, {"name": "johto-lighthouse", "url": "https://pokeapi.co/api/v2/location/236/"}, {"name": "team-rocket-hq", "url": "https://pokeapi.co/api/v2/location/237/"}, {"name": "goldenrod-tunnel", "url": "https://pokeapi.co/api/v2/location/238/"}, {"name": "mt-silver-cave", "url": "https://pokeapi.co/api/v2/location/239/"}, {"name": "pokeathlon-dome", "url": "https://pokeapi.co/api/v2/location/241/"}, {"name": "ss-aqua", "url": "https://pokeapi.co/api/v2/location/242/"}, {"name": "safari-zone-gate", "url": "https://pokeapi.co/api/v2/location/243/"}, {"name": "cliff-cave", "url": "https://pokeapi.co/api/v2/location/244/"}, {"name": "frontier-access", "url": "https://pokeapi.co/api/v2/location/245/"}, {"name": "bellchime-trail", "url": "https://pokeapi.co/api/v2/location/246/"}, {"name": "sinjoh-ruins", "url": "https://pokeapi.co/api/v2/location/247/"}, {"name": "embedded-tower", "url": "https://pokeapi.co/api/v2/location/248/"}, {"name": "pokewalker", "url": "https://pokeapi.co/api/v2/location/249/"}, {"name": "cliff-edge-gate", "url": "https://pokeapi.co/api/v2/location/250/"}, {"name": "radio-tower", "url": "https://pokeapi.co/api/v2/location/252/"}, {"name": "day-care-couple", "url": "https://pokeapi.co/api/v2/location/253/"}, {"name": "link-trade-arrive", "url": "https://pokeapi.co/api/v2/location/254/"}, {"name": "link-trade-met", "url": "https://pokeapi.co/api/v2/location/255/"}, {"name": "kanto", "url": "https://pokeapi.co/api/v2/location/256/"}, {"name": "johto", "url": "https://pokeapi.co/api/v2/location/257/"}, {"name": "hoenn", "url": "https://pokeapi.co/api/v2/location/258/"}, {"name": "sinnoh", "url": "https://pokeapi.co/api/v2/location/259/"}, {"name": "distant-land", "url": "https://pokeapi.co/api/v2/location/260/"}, {"name": "traveling-man", "url": "https://pokeapi.co/api/v2/location/261/"}, {"name": "riley", "url": "https://pokeapi.co/api/v2/location/262/"}, {"name": "cynthia", "url": "https://pokeapi.co/api/v2/location/263/"}, {"name": "mystery-zone", "url": "https://pokeapi.co/api/v2/location/264/"}, {"name": "lovely-place", "url": "https://pokeapi.co/api/v2/location/265/"}, {"name": "pokemon-ranger", "url": "https://pokeapi.co/api/v2/location/266/"}, {"name": "faraway-place", "url": "https://pokeapi.co/api/v2/location/267/"}, {"name": "pokemon-movie", "url": "https://pokeapi.co/api/v2/location/268/"}, {"name": "pokemon-movie-06", "url": "https://pokeapi.co/api/v2/location/269/"}, {"name": "pokemon-movie-07", "url": "https://pokeapi.co/api/v2/location/270/"}, {"name": "pokemon-movie-08", "url": "https://pokeapi.co/api/v2/location/271/"}, {"name": "pokemon-movie-09", "url": "https://pokeapi.co/api/v2/location/272/"}, {"name": "pokemon-movie-10", "url": "https://pokeapi.co/api/v2/location/273/"}, {"name": "pokemon-movie-11", "url": "https://pokeapi.co/api/v2/location/274/"}, {"name": "pokemon-movie-12", "url": "https://pokeapi.co/api/v2/location/275/"}, {"name": "pokemon-movie-13", "url": "https://pokeapi.co/api/v2/location/276/"}, {"name": "pokemon-movie-14", "url": "https://pokeapi.co/api/v2/location/277/"}, {"name": "pokemon-movie-15", "url": "https://pokeapi.co/api/v2/location/278/"}, {"name": "pokemon-movie-16", "url": "https://pokeapi.co/api/v2/location/279/"}, {"name": "pokemon-cartoon", "url": "https://pokeapi.co/api/v2/location/280/"}, {"name": "space-world", "url": "https://pokeapi.co/api/v2/location/281/"}, {"name": "space-world-06", "url": "https://pokeapi.co/api/v2/location/282/"}, {"name": "space-world-07", "url": "https://pokeapi.co/api/v2/location/283/"}, {"name": "space-world-08", "url": "https://pokeapi.co/api/v2/location/284/"}, {"name": "space-world-09", "url": "https://pokeapi.co/api/v2/location/285/"}, {"name": "space-world-10", "url": "https://pokeapi.co/api/v2/location/286/"}, {"name": "space-world-11", "url": "https://pokeapi.co/api/v2/location/287/"}, {"name": "space-world-12", "url": "https://pokeapi.co/api/v2/location/288/"}, {"name": "space-world-13", "url": "https://pokeapi.co/api/v2/location/289/"}, {"name": "space-world-14", "url": "https://pokeapi.co/api/v2/location/290/"}, {"name": "space-world-15", "url": "https://pokeapi.co/api/v2/location/291/"}, {"name": "space-world-16", "url": "https://pokeapi.co/api/v2/location/292/"}, {"name": "pokemon-festa", "url": "https://pokeapi.co/api/v2/location/293/"}, {"name": "pokemon-festa-06", "url": "https://pokeapi.co/api/v2/location/294/"}, {"name": "pokemon-festa-07", "url": "https://pokeapi.co/api/v2/location/295/"}, {"name": "pokemon-festa-08", "url": "https://pokeapi.co/api/v2/location/296/"}, {"name": "pokemon-festa-09", "url": "https://pokeapi.co/api/v2/location/297/"}, {"name": "pokemon-festa-10", "url": "https://pokeapi.co/api/v2/location/298/"}, {"name": "pokemon-festa-11", "url": "https://pokeapi.co/api/v2/location/299/"}, {"name": "pokemon-festa-12", "url": "https://pokeapi.co/api/v2/location/300/"}, {"name": "pokemon-festa-13", "url": "https://pokeapi.co/api/v2/location/301/"}, {"name": "pokemon-festa-14", "url": "https://pokeapi.co/api/v2/location/302/"}, {"name": "pokemon-festa-15", "url": "https://pokeapi.co/api/v2/location/303/"}, {"name": "pokemon-festa-16", "url": "https://pokeapi.co/api/v2/location/304/"}, {"name": "pokepark", "url": "https://pokeapi.co/api/v2/location/305/"}, {"name": "pokepark-06", "url": "https://pokeapi.co/api/v2/location/306/"}, {"name": "pokepark-07", "url": "https://pokeapi.co/api/v2/location/307/"}, {"name": "pokepark-08", "url": "https://pokeapi.co/api/v2/location/308/"}, {"name": "pokepark-09", "url": "https://pokeapi.co/api/v2/location/309/"}, {"name": "pokepark-10", "url": "https://pokeapi.co/api/v2/location/310/"}, {"name": "pokepark-11", "url": "https://pokeapi.co/api/v2/location/311/"}, {"name": "pokepark-12", "url": "https://pokeapi.co/api/v2/location/312/"}, {"name": "pokepark-13", "url": "https://pokeapi.co/api/v2/location/313/"}, {"name": "pokepark-14", "url": "https://pokeapi.co/api/v2/location/314/"}, {"name": "pokepark-15", "url": "https://pokeapi.co/api/v2/location/315/"}, {"name": "pokepark-16", "url": "https://pokeapi.co/api/v2/location/316/"}, {"name": "pokemon-center", "url": "https://pokeapi.co/api/v2/location/317/"}, {"name": "pc-tokyo", "url": "https://pokeapi.co/api/v2/location/318/"}, {"name": "pc-osaka", "url": "https://pokeapi.co/api/v2/location/319/"}, {"name": "pc-fukuoka", "url": "https://pokeapi.co/api/v2/location/320/"}, {"name": "pc-nagoya", "url": "https://pokeapi.co/api/v2/location/321/"}, {"name": "pc-sapporo", "url": "https://pokeapi.co/api/v2/location/322/"}, {"name": "pc-yokohama", "url": "https://pokeapi.co/api/v2/location/323/"}, {"name": "nintendo-world", "url": "https://pokeapi.co/api/v2/location/324/"}, {"name": "pokemon-event", "url": "https://pokeapi.co/api/v2/location/325/"}, {"name": "pokemon-event-06", "url": "https://pokeapi.co/api/v2/location/326/"}, {"name": "pokemon-event-07", "url": "https://pokeapi.co/api/v2/location/327/"}, {"name": "pokemon-event-08", "url": "https://pokeapi.co/api/v2/location/328/"}, {"name": "pokemon-event-09", "url": "https://pokeapi.co/api/v2/location/329/"}, {"name": "pokemon-event-10", "url": "https://pokeapi.co/api/v2/location/330/"}, {"name": "pokemon-event-11", "url": "https://pokeapi.co/api/v2/location/331/"}, {"name": "pokemon-event-12", "url": "https://pokeapi.co/api/v2/location/332/"}, {"name": "pokemon-event-13", "url": "https://pokeapi.co/api/v2/location/333/"}, {"name": "pokemon-event-14", "url": "https://pokeapi.co/api/v2/location/334/"}, {"name": "pokemon-event-15", "url": "https://pokeapi.co/api/v2/location/335/"}, {"name": "pokemon-event-16", "url": "https://pokeapi.co/api/v2/location/336/"}, {"name": "wi-fi-event", "url": "https://pokeapi.co/api/v2/location/337/"}, {"name": "wi-fi-gift", "url": "https://pokeapi.co/api/v2/location/338/"}, {"name": "pokemon-fan-club", "url": "https://pokeapi.co/api/v2/location/339/"}, {"name": "event-site", "url": "https://pokeapi.co/api/v2/location/340/"}, {"name": "concert-event", "url": "https://pokeapi.co/api/v2/location/341/"}, {"name": "mr-pokemon", "url": "https://pokeapi.co/api/v2/location/342/"}, {"name": "primo", "url": "https://pokeapi.co/api/v2/location/343/"}, {"name": "unova-mystery-zone", "url": "https://pokeapi.co/api/v2/location/344/"}, {"name": "unova-faraway-place", "url": "https://pokeapi.co/api/v2/location/345/"}, {"name": "nuvema-town", "url": "https://pokeapi.co/api/v2/location/346/"}, {"name": "accumula-town", "url": "https://pokeapi.co/api/v2/location/347/"}, {"name": "striaton-city", "url": "https://pokeapi.co/api/v2/location/348/"}, {"name": "nacrene-city", "url": "https://pokeapi.co/api/v2/location/349/"}, {"name": "castelia-city", "url": "https://pokeapi.co/api/v2/location/350/"}, {"name": "nimbasa-city", "url": "https://pokeapi.co/api/v2/location/351/"}, {"name": "driftveil-city", "url": "https://pokeapi.co/api/v2/location/352/"}, {"name": "mistralton-city", "url": "https://pokeapi.co/api/v2/location/353/"}, {"name": "icirrus-city", "url": "https://pokeapi.co/api/v2/location/354/"}, {"name": "opelucid-city", "url": "https://pokeapi.co/api/v2/location/355/"}, {"name": "unova-route-1", "url": "https://pokeapi.co/api/v2/location/356/"}, {"name": "unova-route-2", "url": "https://pokeapi.co/api/v2/location/357/"}, {"name": "unova-route-3", "url": "https://pokeapi.co/api/v2/location/358/"}, {"name": "unova-route-4", "url": "https://pokeapi.co/api/v2/location/359/"}, {"name": "unova-route-5", "url": "https://pokeapi.co/api/v2/location/360/"}, {"name": "unova-route-6", "url": "https://pokeapi.co/api/v2/location/361/"}, {"name": "unova-route-7", "url": "https://pokeapi.co/api/v2/location/362/"}, {"name": "unova-route-8", "url": "https://pokeapi.co/api/v2/location/363/"}, {"name": "unova-route-9", "url": "https://pokeapi.co/api/v2/location/364/"}, {"name": "unova-route-10", "url": "https://pokeapi.co/api/v2/location/365/"}, {"name": "unova-route-11", "url": "https://pokeapi.co/api/v2/location/366/"}, {"name": "unova-route-12", "url": "https://pokeapi.co/api/v2/location/367/"}, {"name": "unova-route-13", "url": "https://pokeapi.co/api/v2/location/368/"}, {"name": "unova-route-14", "url": "https://pokeapi.co/api/v2/location/369/"}, {"name": "unova-route-15", "url": "https://pokeapi.co/api/v2/location/370/"}, {"name": "unova-route-16", "url": "https://pokeapi.co/api/v2/location/371/"}, {"name": "unova-route-17", "url": "https://pokeapi.co/api/v2/location/372/"}, {"name": "unova-route-18", "url": "https://pokeapi.co/api/v2/location/373/"}, {"name": "dreamyard", "url": "https://pokeapi.co/api/v2/location/374/"}, {"name": "pinwheel-forest", "url": "https://pokeapi.co/api/v2/location/375/"}, {"name": "desert-resort", "url": "https://pokeapi.co/api/v2/location/376/"}, {"name": "relic-castle", "url": "https://pokeapi.co/api/v2/location/377/"}, {"name": "cold-storage", "url": "https://pokeapi.co/api/v2/location/378/"}, {"name": "chargestone-cave", "url": "https://pokeapi.co/api/v2/location/379/"}, {"name": "twist-mountain", "url": "https://pokeapi.co/api/v2/location/380/"}, {"name": "dragonspiral-tower", "url": "https://pokeapi.co/api/v2/location/381/"}, {"name": "unova-victory-road", "url": "https://pokeapi.co/api/v2/location/382/"}, {"name": "lacunosa-town", "url": "https://pokeapi.co/api/v2/location/383/"}, {"name": "undella-town", "url": "https://pokeapi.co/api/v2/location/384/"}, {"name": "anville-town", "url": "https://pokeapi.co/api/v2/location/385/"}, {"name": "unova-pokemon-league", "url": "https://pokeapi.co/api/v2/location/386/"}, {"name": "ns-castle", "url": "https://pokeapi.co/api/v2/location/387/"}, {"name": "royal-unova", "url": "https://pokeapi.co/api/v2/location/388/"}, {"name": "gear-station", "url": "https://pokeapi.co/api/v2/location/389/"}, {"name": "battle-subway", "url": "https://pokeapi.co/api/v2/location/390/"}, {"name": "musical-theater", "url": "https://pokeapi.co/api/v2/location/391/"}, {"name": "black-city", "url": "https://pokeapi.co/api/v2/location/392/"}, {"name": "white-forest", "url": "https://pokeapi.co/api/v2/location/393/"}, {"name": "unity-tower", "url": "https://pokeapi.co/api/v2/location/394/"}, {"name": "wellspring-cave", "url": "https://pokeapi.co/api/v2/location/395/"}, {"name": "mistralton-cave", "url": "https://pokeapi.co/api/v2/location/396/"}, {"name": "rumination-field", "url": "https://pokeapi.co/api/v2/location/397/"}, {"name": "celestial-tower", "url": "https://pokeapi.co/api/v2/location/398/"}, {"name": "moor-of-icirrus", "url": "https://pokeapi.co/api/v2/location/399/"}, {"name": "unova-shopping-mall", "url": "https://pokeapi.co/api/v2/location/400/"}, {"name": "challengers-cave", "url": "https://pokeapi.co/api/v2/location/401/"}, {"name": "poke-transfer-lab", "url": "https://pokeapi.co/api/v2/location/402/"}, {"name": "giant-chasm", "url": "https://pokeapi.co/api/v2/location/403/"}, {"name": "liberty-garden", "url": "https://pokeapi.co/api/v2/location/404/"}, {"name": "p2-laboratory", "url": "https://pokeapi.co/api/v2/location/405/"}, {"name": "skyarrow-bridge", "url": "https://pokeapi.co/api/v2/location/406/"}, {"name": "driftveil-drawbridge", "url": "https://pokeapi.co/api/v2/location/407/"}, {"name": "tubeline-bridge", "url": "https://pokeapi.co/api/v2/location/408/"}, {"name": "village-bridge", "url": "https://pokeapi.co/api/v2/location/409/"}, {"name": "marvelous-bridge", "url": "https://pokeapi.co/api/v2/location/410/"}, {"name": "entralink", "url": "https://pokeapi.co/api/v2/location/411/"}]}