{"count": 937, "next": "https://pokeapi.co/api/v2/move?offset=200&limit=200", "previous": null, "results": [{"name": "pound", "url": "https://pokeapi.co/api/v2/move/1/"}, {"name": "karate-chop", "url": "https://pokeapi.co/api/v2/move/2/"}, {"name": "double-slap", "url": "https://pokeapi.co/api/v2/move/3/"}, {"name": "comet-punch", "url": "https://pokeapi.co/api/v2/move/4/"}, {"name": "mega-punch", "url": "https://pokeapi.co/api/v2/move/5/"}, {"name": "pay-day", "url": "https://pokeapi.co/api/v2/move/6/"}, {"name": "fire-punch", "url": "https://pokeapi.co/api/v2/move/7/"}, {"name": "ice-punch", "url": "https://pokeapi.co/api/v2/move/8/"}, {"name": "thunder-punch", "url": "https://pokeapi.co/api/v2/move/9/"}, {"name": "scratch", "url": "https://pokeapi.co/api/v2/move/10/"}, {"name": "vice-grip", "url": "https://pokeapi.co/api/v2/move/11/"}, {"name": "guillotine", "url": "https://pokeapi.co/api/v2/move/12/"}, {"name": "razor-wind", "url": "https://pokeapi.co/api/v2/move/13/"}, {"name": "swords-dance", "url": "https://pokeapi.co/api/v2/move/14/"}, {"name": "cut", "url": "https://pokeapi.co/api/v2/move/15/"}, {"name": "gust", "url": "https://pokeapi.co/api/v2/move/16/"}, {"name": "wing-attack", "url": "https://pokeapi.co/api/v2/move/17/"}, {"name": "whirlwind", "url": "https://pokeapi.co/api/v2/move/18/"}, {"name": "fly", "url": "https://pokeapi.co/api/v2/move/19/"}, {"name": "bind", "url": "https://pokeapi.co/api/v2/move/20/"}, {"name": "slam", "url": "https://pokeapi.co/api/v2/move/21/"}, {"name": "vine-whip", "url": "https://pokeapi.co/api/v2/move/22/"}, {"name": "stomp", "url": "https://pokeapi.co/api/v2/move/23/"}, {"name": "double-kick", "url": "https://pokeapi.co/api/v2/move/24/"}, {"name": "mega-kick", "url": "https://pokeapi.co/api/v2/move/25/"}, {"name": "jump-kick", "url": "https://pokeapi.co/api/v2/move/26/"}, {"name": "rolling-kick", "url": "https://pokeapi.co/api/v2/move/27/"}, {"name": "sand-attack", "url": "https://pokeapi.co/api/v2/move/28/"}, {"name": "headbutt", "url": "https://pokeapi.co/api/v2/move/29/"}, {"name": "horn-attack", "url": "https://pokeapi.co/api/v2/move/30/"}, {"name": "fury-attack", "url": "https://pokeapi.co/api/v2/move/31/"}, {"name": "horn-drill", "url": "https://pokeapi.co/api/v2/move/32/"}, {"name": "tackle", "url": "https://pokeapi.co/api/v2/move/33/"}, {"name": "body-slam", "url": "https://pokeapi.co/api/v2/move/34/"}, {"name": "wrap", "url": "https://pokeapi.co/api/v2/move/35/"}, {"name": "take-down", "url": "https://pokeapi.co/api/v2/move/36/"}, {"name": "thrash", "url": "https://pokeapi.co/api/v2/move/37/"}, {"name": "double-edge", "url": "https://pokeapi.co/api/v2/move/38/"}, {"name": "tail-whip", "url": "https://pokeapi.co/api/v2/move/39/"}, {"name": "poison-sting", "url": "https://pokeapi.co/api/v2/move/40/"}, {"name": "twineedle", "url": "https://pokeapi.co/api/v2/move/41/"}, {"name": "pin-missile", "url": "https://pokeapi.co/api/v2/move/42/"}, {"name": "leer", "url": "https://pokeapi.co/api/v2/move/43/"}, {"name": "bite", "url": "https://pokeapi.co/api/v2/move/44/"}, {"name": "growl", "url": "https://pokeapi.co/api/v2/move/45/"}, {"name": "roar", "url": "https://pokeapi.co/api/v2/move/46/"}, {"name": "sing", "url": "https://pokeapi.co/api/v2/move/47/"}, {"name": "supersonic", "url": "https://pokeapi.co/api/v2/move/48/"}, {"name": "sonic-boom", "url": "https://pokeapi.co/api/v2/move/49/"}, {"name": "disable", "url": "https://pokeapi.co/api/v2/move/50/"}, {"name": "acid", "url": "https://pokeapi.co/api/v2/move/51/"}, {"name": "ember", "url": "https://pokeapi.co/api/v2/move/52/"}, {"name": "flamethrower", "url": "https://pokeapi.co/api/v2/move/53/"}, {"name": "mist", "url": "https://pokeapi.co/api/v2/move/54/"}, {"name": "water-gun", "url": "https://pokeapi.co/api/v2/move/55/"}, {"name": "hydro-pump", "url": "https://pokeapi.co/api/v2/move/56/"}, {"name": "surf", "url": "https://pokeapi.co/api/v2/move/57/"}, {"name": "ice-beam", "url": "https://pokeapi.co/api/v2/move/58/"}, {"name": "blizzard", "url": "https://pokeapi.co/api/v2/move/59/"}, {"name": "psybeam", "url": "https://pokeapi.co/api/v2/move/60/"}, {"name": "bubble-beam", "url": "https://pokeapi.co/api/v2/move/61/"}, {"name": "aurora-beam", "url": "https://pokeapi.co/api/v2/move/62/"}, {"name": "hyper-beam", "url": "https://pokeapi.co/api/v2/move/63/"}, {"name": "peck", "url": "https://pokeapi.co/api/v2/move/64/"}, {"name": "drill-peck", "url": "https://pokeapi.co/api/v2/move/65/"}, {"name": "submission", "url": "https://pokeapi.co/api/v2/move/66/"}, {"name": "low-kick", "url": "https://pokeapi.co/api/v2/move/67/"}, {"name": "counter", "url": "https://pokeapi.co/api/v2/move/68/"}, {"name": "seismic-toss", "url": "https://pokeapi.co/api/v2/move/69/"}, {"name": "strength", "url": "https://pokeapi.co/api/v2/move/70/"}, {"name": "absorb", "url": "https://pokeapi.co/api/v2/move/71/"}, {"name": "mega-drain", "url": "https://pokeapi.co/api/v2/move/72/"}, {"name": "leech-seed", "url": "https://pokeapi.co/api/v2/move/73/"}, {"name": "growth", "url": "https://pokeapi.co/api/v2/move/74/"}, {"name": "razor-leaf", "url": "https://pokeapi.co/api/v2/move/75/"}, {"name": "solar-beam", "url": "https://pokeapi.co/api/v2/move/76/"}, {"name": "poison-powder", "url": "https://pokeapi.co/api/v2/move/77/"}, {"name": "stun-spore", "url": "https://pokeapi.co/api/v2/move/78/"}, {"name": "sleep-powder", "url": "https://pokeapi.co/api/v2/move/79/"}, {"name": "petal-dance", "url": "https://pokeapi.co/api/v2/move/80/"}, {"name": "string-shot", "url": "https://pokeapi.co/api/v2/move/81/"}, {"name": "dragon-rage", "url": "https://pokeapi.co/api/v2/move/82/"}, {"name": "fire-spin", "url": "https://pokeapi.co/api/v2/move/83/"}, {"name": "thunder-shock", "url": "https://pokeapi.co/api/v2/move/84/"}, {"name": "thunderbolt", "url": "https://pokeapi.co/api/v2/move/85/"}, {"name": "thunder-wave", "url": "https://pokeapi.co/api/v2/move/86/"}, {"name": "thunder", "url": "https://pokeapi.co/api/v2/move/87/"}, {"name": "rock-throw", "url": "https://pokeapi.co/api/v2/move/88/"}, {"name": "earthquake", "url": "https://pokeapi.co/api/v2/move/89/"}, {"name": "fissure", "url": "https://pokeapi.co/api/v2/move/90/"}, {"name": "dig", "url": "https://pokeapi.co/api/v2/move/91/"}, {"name": "toxic", "url": "https://pokeapi.co/api/v2/move/92/"}, {"name": "confusion", "url": "https://pokeapi.co/api/v2/move/93/"}, {"name": "psychic", "url": "https://pokeapi.co/api/v2/move/94/"}, {"name": "hypnosis", "url": "https://pokeapi.co/api/v2/move/95/"}, {"name": "meditate", "url": "https://pokeapi.co/api/v2/move/96/"}, {"name": "agility", "url": "https://pokeapi.co/api/v2/move/97/"}, {"name": "quick-attack", "url": "https://pokeapi.co/api/v2/move/98/"}, {"name": "rage", "url": "https://pokeapi.co/api/v2/move/99/"}, {"name": "teleport", "url": "https://pokeapi.co/api/v2/move/100/"}, {"name": "night-shade", "url": "https://pokeapi.co/api/v2/move/101/"}, {"name": "mimic", "url": "https://pokeapi.co/api/v2/move/102/"}, {"name": "screech", "url": "https://pokeapi.co/api/v2/move/103/"}, {"name": "double-team", "url": "https://pokeapi.co/api/v2/move/104/"}, {"name": "recover", "url": "https://pokeapi.co/api/v2/move/105/"}, {"name": "harden", "url": "https://pokeapi.co/api/v2/move/106/"}, {"name": "minimize", "url": "https://pokeapi.co/api/v2/move/107/"}, {"name": "smokescreen", "url": "https://pokeapi.co/api/v2/move/108/"}, {"name": "confuse-ray", "url": "https://pokeapi.co/api/v2/move/109/"}, {"name": "withdraw", "url": "https://pokeapi.co/api/v2/move/110/"}, {"name": "defense-curl", "url": "https://pokeapi.co/api/v2/move/111/"}, {"name": "barrier", "url": "https://pokeapi.co/api/v2/move/112/"}, {"name": "light-screen", "url": "https://pokeapi.co/api/v2/move/113/"}, {"name": "haze", "url": "https://pokeapi.co/api/v2/move/114/"}, {"name": "reflect", "url": "https://pokeapi.co/api/v2/move/115/"}, {"name": "focus-energy", "url": "https://pokeapi.co/api/v2/move/116/"}, {"name": "bide", "url": "https://pokeapi.co/api/v2/move/117/"}, {"name": "metronome", "url": "https://pokeapi.co/api/v2/move/118/"}, {"name": "mirror-move", "url": "https://pokeapi.co/api/v2/move/119/"}, {"name": "self-destruct", "url": "https://pokeapi.co/api/v2/move/120/"}, {"name": "egg-bomb", "url": "https://pokeapi.co/api/v2/move/121/"}, {"name": "lick", "url": "https://pokeapi.co/api/v2/move/122/"}, {"name": "smog", "url": "https://pokeapi.co/api/v2/move/123/"}, {"name": "sludge", "url": "https://pokeapi.co/api/v2/move/124/"}, {"name": "bone-club", "url": "https://pokeapi.co/api/v2/move/125/"}, {"name": "fire-blast", "url": "https://pokeapi.co/api/v2/move/126/"}, {"name": "waterfall", "url": "https://pokeapi.co/api/v2/move/127/"}, {"name": "clamp", "url": "https://pokeapi.co/api/v2/move/128/"}, {"name": "swift", "url": "https://pokeapi.co/api/v2/move/129/"}, {"name": "skull-bash", "url": "https://pokeapi.co/api/v2/move/130/"}, {"name": "spike-cannon", "url": "https://pokeapi.co/api/v2/move/131/"}, {"name": "constrict", "url": "https://pokeapi.co/api/v2/move/132/"}, {"name": "amnesia", "url": "https://pokeapi.co/api/v2/move/133/"}, {"name": "kinesis", "url": "https://pokeapi.co/api/v2/move/134/"}, {"name": "soft-boiled", "url": "https://pokeapi.co/api/v2/move/135/"}, {"name": "high-jump-kick", "url": "https://pokeapi.co/api/v2/move/136/"}, {"name": "glare", "url": "https://pokeapi.co/api/v2/move/137/"}, {"name": "dream-eater", "url": "https://pokeapi.co/api/v2/move/138/"}, {"name": "poison-gas", "url": "https://pokeapi.co/api/v2/move/139/"}, {"name": "barrage", "url": "https://pokeapi.co/api/v2/move/140/"}, {"name": "leech-life", "url": "https://pokeapi.co/api/v2/move/141/"}, {"name": "lovely-kiss", "url": "https://pokeapi.co/api/v2/move/142/"}, {"name": "sky-attack", "url": "https://pokeapi.co/api/v2/move/143/"}, {"name": "transform", "url": "https://pokeapi.co/api/v2/move/144/"}, {"name": "bubble", "url": "https://pokeapi.co/api/v2/move/145/"}, {"name": "dizzy-punch", "url": "https://pokeapi.co/api/v2/move/146/"}, {"name": "spore", "url": "https://pokeapi.co/api/v2/move/147/"}, {"name": "flash", "url": "https://pokeapi.co/api/v2/move/148/"}, {"name": "psywave", "url": "https://pokeapi.co/api/v2/move/149/"}, {"name": "splash", "url": "https://pokeapi.co/api/v2/move/150/"}, {"name": "acid-armor", "url": "https://pokeapi.co/api/v2/move/151/"}, {"name": "crabhammer", "url": "https://pokeapi.co/api/v2/move/152/"}, {"name": "explosion", "url": "https://pokeapi.co/api/v2/move/153/"}, {"name": "fury-swipes", "url": "https://pokeapi.co/api/v2/move/154/"}, {"name": "bonemerang", "url": "https://pokeapi.co/api/v2/move/155/"}, {"name": "rest", "url": "https://pokeapi.co/api/v2/move/156/"}, {"name": "rock-slide", "url": "https://pokeapi.co/api/v2/move/157/"}, {"name": "hyper-fang", "url": "https://pokeapi.co/api/v2/move/158/"}, {"name": "sharpen", "url": "https://pokeapi.co/api/v2/move/159/"}, {"name": "conversion", "url": "https://pokeapi.co/api/v2/move/160/"}, {"name": "tri-attack", "url": "https://pokeapi.co/api/v2/move/161/"}, {"name": "super-fang", "url": "https://pokeapi.co/api/v2/move/162/"}, {"name": "slash", "url": "https://pokeapi.co/api/v2/move/163/"}, {"name": "substitute", "url": "https://pokeapi.co/api/v2/move/164/"}, {"name": "struggle", "url": "https://pokeapi.co/api/v2/move/165/"}, {"name": "sketch", "url": "https://pokeapi.co/api/v2/move/166/"}, {"name": "triple-kick", "url": "https://pokeapi.co/api/v2/move/167/"}, {"name": "thief", "url": "https://pokeapi.co/api/v2/move/168/"}, {"name": "spider-web", "url": "https://pokeapi.co/api/v2/move/169/"}, {"name": "mind-reader", "url": "https://pokeapi.co/api/v2/move/170/"}, {"name": "nightmare", "url": "https://pokeapi.co/api/v2/move/171/"}, {"name": "flame-wheel", "url": "https://pokeapi.co/api/v2/move/172/"}, {"name": "snore", "url": "https://pokeapi.co/api/v2/move/173/"}, {"name": "curse", "url": "https://pokeapi.co/api/v2/move/174/"}, {"name": "flail", "url": "https://pokeapi.co/api/v2/move/175/"}, {"name": "conversion-2", "url": "https://pokeapi.co/api/v2/move/176/"}, {"name": "aeroblast", "url": "https://pokeapi.co/api/v2/move/177/"}, {"name": "cotton-spore", "url": "https://pokeapi.co/api/v2/move/178/"}, {"name": "reversal", "url": "https://pokeapi.co/api/v2/move/179/"}, {"name": "spite", "url": "https://pokeapi.co/api/v2/move/180/"}, {"name": "powder-snow", "url": "https://pokeapi.co/api/v2/move/181/"}, {"name": "protect", "url": "https://pokeapi.co/api/v2/move/182/"}, {"name": "mach-punch", "url": "https://pokeapi.co/api/v2/move/183/"}, {"name": "scary-face", "url": "https://pokeapi.co/api/v2/move/184/"}, {"name": "feint-attack", "url": "https://pokeapi.co/api/v2/move/185/"}, {"name": "sweet-kiss", "url": "https://pokeapi.co/api/v2/move/186/"}, {"name": "belly-drum", "url": "https://pokeapi.co/api/v2/move/187/"}, {"name": "sludge-bomb", "url": "https://pokeapi.co/api/v2/move/188/"}, {"name": "mud-slap", "url": "https://pokeapi.co/api/v2/move/189/"}, {"name": "octazooka", "url": "https://pokeapi.co/api/v2/move/190/"}, {"name": "spikes", "url": "https://pokeapi.co/api/v2/move/191/"}, {"name": "zap-cannon", "url": "https://pokeapi.co/api/v2/move/192/"}, {"name": "foresight", "url": "https://pokeapi.co/api/v2/move/193/"}, {"name": "destiny-bond", "url": "https://pokeapi.co/api/v2/move/194/"}, {"name": "perish-song", "url": "https://pokeapi.co/api/v2/move/195/"}, {"name": "icy-wind", "url": "https://pokeapi.co/api/v2/move/196/"}, {"name": "detect", "url": "https://pokeapi.co/api/v2/move/197/"}, {"name": "bone-rush", "url": "https://pokeapi.co/api/v2/move/198/"}, {"name": "lock-on", "url": "https://pokeapi.co/api/v2/move/199/"}, {"name": "outrage", "url": "https://pokeapi.co/api/v2/move/200/"}]}