{"count": 937, "next": "https://pokeapi.co/api/v2/move?offset=400&limit=200", "previous": "https://pokeapi.co/api/v2/move?offset=0&limit=200", "results": [{"name": "sandstorm", "url": "https://pokeapi.co/api/v2/move/201/"}, {"name": "giga-drain", "url": "https://pokeapi.co/api/v2/move/202/"}, {"name": "endure", "url": "https://pokeapi.co/api/v2/move/203/"}, {"name": "charm", "url": "https://pokeapi.co/api/v2/move/204/"}, {"name": "rollout", "url": "https://pokeapi.co/api/v2/move/205/"}, {"name": "false-swipe", "url": "https://pokeapi.co/api/v2/move/206/"}, {"name": "swagger", "url": "https://pokeapi.co/api/v2/move/207/"}, {"name": "milk-drink", "url": "https://pokeapi.co/api/v2/move/208/"}, {"name": "spark", "url": "https://pokeapi.co/api/v2/move/209/"}, {"name": "fury-cutter", "url": "https://pokeapi.co/api/v2/move/210/"}, {"name": "steel-wing", "url": "https://pokeapi.co/api/v2/move/211/"}, {"name": "mean-look", "url": "https://pokeapi.co/api/v2/move/212/"}, {"name": "attract", "url": "https://pokeapi.co/api/v2/move/213/"}, {"name": "sleep-talk", "url": "https://pokeapi.co/api/v2/move/214/"}, {"name": "heal-bell", "url": "https://pokeapi.co/api/v2/move/215/"}, {"name": "return", "url": "https://pokeapi.co/api/v2/move/216/"}, {"name": "present", "url": "https://pokeapi.co/api/v2/move/217/"}, {"name": "frustration", "url": "https://pokeapi.co/api/v2/move/218/"}, {"name": "safeguard", "url": "https://pokeapi.co/api/v2/move/219/"}, {"name": "pain-split", "url": "https://pokeapi.co/api/v2/move/220/"}, {"name": "sacred-fire", "url": "https://pokeapi.co/api/v2/move/221/"}, {"name": "magnitude", "url": "https://pokeapi.co/api/v2/move/222/"}, {"name": "dynamic-punch", "url": "https://pokeapi.co/api/v2/move/223/"}, {"name": "megahorn", "url": "https://pokeapi.co/api/v2/move/224/"}, {"name": "dragon-breath", "url": "https://pokeapi.co/api/v2/move/225/"}, {"name": "baton-pass", "url": "https://pokeapi.co/api/v2/move/226/"}, {"name": "encore", "url": "https://pokeapi.co/api/v2/move/227/"}, {"name": "pursuit", "url": "https://pokeapi.co/api/v2/move/228/"}, {"name": "rapid-spin", "url": "https://pokeapi.co/api/v2/move/229/"}, {"name": "sweet-scent", "url": "https://pokeapi.co/api/v2/move/230/"}, {"name": "iron-tail", "url": "https://pokeapi.co/api/v2/move/231/"}, {"name": "metal-claw", "url": "https://pokeapi.co/api/v2/move/232/"}, {"name": "vital-throw", "url": "https://pokeapi.co/api/v2/move/233/"}, {"name": "morning-sun", "url": "https://pokeapi.co/api/v2/move/234/"}, {"name": "synthesis", "url": "https://pokeapi.co/api/v2/move/235/"}, {"name": "moonlight", "url": "https://pokeapi.co/api/v2/move/236/"}, {"name": "hidden-power", "url": "https://pokeapi.co/api/v2/move/237/"}, {"name": "cross-chop", "url": "https://pokeapi.co/api/v2/move/238/"}, {"name": "twister", "url": "https://pokeapi.co/api/v2/move/239/"}, {"name": "rain-dance", "url": "https://pokeapi.co/api/v2/move/240/"}, {"name": "sunny-day", "url": "https://pokeapi.co/api/v2/move/241/"}, {"name": "crunch", "url": "https://pokeapi.co/api/v2/move/242/"}, {"name": "mirror-coat", "url": "https://pokeapi.co/api/v2/move/243/"}, {"name": "psych-up", "url": "https://pokeapi.co/api/v2/move/244/"}, {"name": "extreme-speed", "url": "https://pokeapi.co/api/v2/move/245/"}, {"name": "ancient-power", "url": "https://pokeapi.co/api/v2/move/246/"}, {"name": "shadow-ball", "url": "https://pokeapi.co/api/v2/move/247/"}, {"name": "future-sight", "url": "https://pokeapi.co/api/v2/move/248/"}, {"name": "rock-smash", "url": "https://pokeapi.co/api/v2/move/249/"}, {"name": "whirlpool", "url": "https://pokeapi.co/api/v2/move/250/"}, {"name": "beat-up", "url": "https://pokeapi.co/api/v2/move/251/"}, {"name": "fake-out", "url": "https://pokeapi.co/api/v2/move/252/"}, {"name": "uproar", "url": "https://pokeapi.co/api/v2/move/253/"}, {"name": "stockpile", "url": "https://pokeapi.co/api/v2/move/254/"}, {"name": "spit-up", "url": "https://pokeapi.co/api/v2/move/255/"}, {"name": "swallow", "url": "https://pokeapi.co/api/v2/move/256/"}, {"name": "heat-wave", "url": "https://pokeapi.co/api/v2/move/257/"}, {"name": "hail", "url": "https://pokeapi.co/api/v2/move/258/"}, {"name": "torment", "url": "https://pokeapi.co/api/v2/move/259/"}, {"name": "flatter", "url": "https://pokeapi.co/api/v2/move/260/"}, {"name": "will-o-wisp", "url": "https://pokeapi.co/api/v2/move/261/"}, {"name": "memento", "url": "https://pokeapi.co/api/v2/move/262/"}, {"name": "facade", "url": "https://pokeapi.co/api/v2/move/263/"}, {"name": "focus-punch", "url": "https://pokeapi.co/api/v2/move/264/"}, {"name": "smelling-salts", "url": "https://pokeapi.co/api/v2/move/265/"}, {"name": "follow-me", "url": "https://pokeapi.co/api/v2/move/266/"}, {"name": "nature-power", "url": "https://pokeapi.co/api/v2/move/267/"}, {"name": "charge", "url": "https://pokeapi.co/api/v2/move/268/"}, {"name": "taunt", "url": "https://pokeapi.co/api/v2/move/269/"}, {"name": "helping-hand", "url": "https://pokeapi.co/api/v2/move/270/"}, {"name": "trick", "url": "https://pokeapi.co/api/v2/move/271/"}, {"name": "role-play", "url": "https://pokeapi.co/api/v2/move/272/"}, {"name": "wish", "url": "https://pokeapi.co/api/v2/move/273/"}, {"name": "assist", "url": "https://pokeapi.co/api/v2/move/274/"}, {"name": "ingrain", "url": "https://pokeapi.co/api/v2/move/275/"}, {"name": "superpower", "url": "https://pokeapi.co/api/v2/move/276/"}, {"name": "magic-coat", "url": "https://pokeapi.co/api/v2/move/277/"}, {"name": "recycle", "url": "https://pokeapi.co/api/v2/move/278/"}, {"name": "revenge", "url": "https://pokeapi.co/api/v2/move/279/"}, {"name": "brick-break", "url": "https://pokeapi.co/api/v2/move/280/"}, {"name": "yawn", "url": "https://pokeapi.co/api/v2/move/281/"}, {"name": "knock-off", "url": "https://pokeapi.co/api/v2/move/282/"}, {"name": "endeavor", "url": "https://pokeapi.co/api/v2/move/283/"}, {"name": "eruption", "url": "https://pokeapi.co/api/v2/move/284/"}, {"name": "skill-swap", "url": "https://pokeapi.co/api/v2/move/285/"}, {"name": "imprison", "url": "https://pokeapi.co/api/v2/move/286/"}, {"name": "refresh", "url": "https://pokeapi.co/api/v2/move/287/"}, {"name": "grudge", "url": "https://pokeapi.co/api/v2/move/288/"}, {"name": "snatch", "url": "https://pokeapi.co/api/v2/move/289/"}, {"name": "secret-power", "url": "https://pokeapi.co/api/v2/move/290/"}, {"name": "dive", "url": "https://pokeapi.co/api/v2/move/291/"}, {"name": "arm-thrust", "url": "https://pokeapi.co/api/v2/move/292/"}, {"name": "camouflage", "url": "https://pokeapi.co/api/v2/move/293/"}, {"name": "tail-glow", "url": "https://pokeapi.co/api/v2/move/294/"}, {"name": "luster-purge", "url": "https://pokeapi.co/api/v2/move/295/"}, {"name": "mist-ball", "url": "https://pokeapi.co/api/v2/move/296/"}, {"name": "feather-dance", "url": "https://pokeapi.co/api/v2/move/297/"}, {"name": "teeter-dance", "url": "https://pokeapi.co/api/v2/move/298/"}, {"name": "blaze-kick", "url": "https://pokeapi.co/api/v2/move/299/"}, {"name": "mud-sport", "url": "https://pokeapi.co/api/v2/move/300/"}, {"name": "ice-ball", "url": "https://pokeapi.co/api/v2/move/301/"}, {"name": "needle-arm", "url": "https://pokeapi.co/api/v2/move/302/"}, {"name": "slack-off", "url": "https://pokeapi.co/api/v2/move/303/"}, {"name": "hyper-voice", "url": "https://pokeapi.co/api/v2/move/304/"}, {"name": "poison-fang", "url": "https://pokeapi.co/api/v2/move/305/"}, {"name": "crush-claw", "url": "https://pokeapi.co/api/v2/move/306/"}, {"name": "blast-burn", "url": "https://pokeapi.co/api/v2/move/307/"}, {"name": "hydro-cannon", "url": "https://pokeapi.co/api/v2/move/308/"}, {"name": "meteor-mash", "url": "https://pokeapi.co/api/v2/move/309/"}, {"name": "astonish", "url": "https://pokeapi.co/api/v2/move/310/"}, {"name": "weather-ball", "url": "https://pokeapi.co/api/v2/move/311/"}, {"name": "aromatherapy", "url": "https://pokeapi.co/api/v2/move/312/"}, {"name": "fake-tears", "url": "https://pokeapi.co/api/v2/move/313/"}, {"name": "air-cutter", "url": "https://pokeapi.co/api/v2/move/314/"}, {"name": "overheat", "url": "https://pokeapi.co/api/v2/move/315/"}, {"name": "odor-sleuth", "url": "https://pokeapi.co/api/v2/move/316/"}, {"name": "rock-tomb", "url": "https://pokeapi.co/api/v2/move/317/"}, {"name": "silver-wind", "url": "https://pokeapi.co/api/v2/move/318/"}, {"name": "metal-sound", "url": "https://pokeapi.co/api/v2/move/319/"}, {"name": "grass-whistle", "url": "https://pokeapi.co/api/v2/move/320/"}, {"name": "tickle", "url": "https://pokeapi.co/api/v2/move/321/"}, {"name": "cosmic-power", "url": "https://pokeapi.co/api/v2/move/322/"}, {"name": "water-spout", "url": "https://pokeapi.co/api/v2/move/323/"}, {"name": "signal-beam", "url": "https://pokeapi.co/api/v2/move/324/"}, {"name": "shadow-punch", "url": "https://pokeapi.co/api/v2/move/325/"}, {"name": "extrasensory", "url": "https://pokeapi.co/api/v2/move/326/"}, {"name": "sky-uppercut", "url": "https://pokeapi.co/api/v2/move/327/"}, {"name": "sand-tomb", "url": "https://pokeapi.co/api/v2/move/328/"}, {"name": "sheer-cold", "url": "https://pokeapi.co/api/v2/move/329/"}, {"name": "muddy-water", "url": "https://pokeapi.co/api/v2/move/330/"}, {"name": "bullet-seed", "url": "https://pokeapi.co/api/v2/move/331/"}, {"name": "aerial-ace", "url": "https://pokeapi.co/api/v2/move/332/"}, {"name": "icicle-spear", "url": "https://pokeapi.co/api/v2/move/333/"}, {"name": "iron-defense", "url": "https://pokeapi.co/api/v2/move/334/"}, {"name": "block", "url": "https://pokeapi.co/api/v2/move/335/"}, {"name": "howl", "url": "https://pokeapi.co/api/v2/move/336/"}, {"name": "dragon-claw", "url": "https://pokeapi.co/api/v2/move/337/"}, {"name": "frenzy-plant", "url": "https://pokeapi.co/api/v2/move/338/"}, {"name": "bulk-up", "url": "https://pokeapi.co/api/v2/move/339/"}, {"name": "bounce", "url": "https://pokeapi.co/api/v2/move/340/"}, {"name": "mud-shot", "url": "https://pokeapi.co/api/v2/move/341/"}, {"name": "poison-tail", "url": "https://pokeapi.co/api/v2/move/342/"}, {"name": "covet", "url": "https://pokeapi.co/api/v2/move/343/"}, {"name": "volt-tackle", "url": "https://pokeapi.co/api/v2/move/344/"}, {"name": "magical-leaf", "url": "https://pokeapi.co/api/v2/move/345/"}, {"name": "water-sport", "url": "https://pokeapi.co/api/v2/move/346/"}, {"name": "calm-mind", "url": "https://pokeapi.co/api/v2/move/347/"}, {"name": "leaf-blade", "url": "https://pokeapi.co/api/v2/move/348/"}, {"name": "dragon-dance", "url": "https://pokeapi.co/api/v2/move/349/"}, {"name": "rock-blast", "url": "https://pokeapi.co/api/v2/move/350/"}, {"name": "shock-wave", "url": "https://pokeapi.co/api/v2/move/351/"}, {"name": "water-pulse", "url": "https://pokeapi.co/api/v2/move/352/"}, {"name": "doom-desire", "url": "https://pokeapi.co/api/v2/move/353/"}, {"name": "psycho-boost", "url": "https://pokeapi.co/api/v2/move/354/"}, {"name": "roost", "url": "https://pokeapi.co/api/v2/move/355/"}, {"name": "gravity", "url": "https://pokeapi.co/api/v2/move/356/"}, {"name": "miracle-eye", "url": "https://pokeapi.co/api/v2/move/357/"}, {"name": "wake-up-slap", "url": "https://pokeapi.co/api/v2/move/358/"}, {"name": "hammer-arm", "url": "https://pokeapi.co/api/v2/move/359/"}, {"name": "gyro-ball", "url": "https://pokeapi.co/api/v2/move/360/"}, {"name": "healing-wish", "url": "https://pokeapi.co/api/v2/move/361/"}, {"name": "brine", "url": "https://pokeapi.co/api/v2/move/362/"}, {"name": "natural-gift", "url": "https://pokeapi.co/api/v2/move/363/"}, {"name": "feint", "url": "https://pokeapi.co/api/v2/move/364/"}, {"name": "pluck", "url": "https://pokeapi.co/api/v2/move/365/"}, {"name": "tailwind", "url": "https://pokeapi.co/api/v2/move/366/"}, {"name": "acupressure", "url": "https://pokeapi.co/api/v2/move/367/"}, {"name": "metal-burst", "url": "https://pokeapi.co/api/v2/move/368/"}, {"name": "u-turn", "url": "https://pokeapi.co/api/v2/move/369/"}, {"name": "close-combat", "url": "https://pokeapi.co/api/v2/move/370/"}, {"name": "payback", "url": "https://pokeapi.co/api/v2/move/371/"}, {"name": "assurance", "url": "https://pokeapi.co/api/v2/move/372/"}, {"name": "embargo", "url": "https://pokeapi.co/api/v2/move/373/"}, {"name": "fling", "url": "https://pokeapi.co/api/v2/move/374/"}, {"name": "psycho-shift", "url": "https://pokeapi.co/api/v2/move/375/"}, {"name": "trump-card", "url": "https://pokeapi.co/api/v2/move/376/"}, {"name": "heal-block", "url": "https://pokeapi.co/api/v2/move/377/"}, {"name": "wring-out", "url": "https://pokeapi.co/api/v2/move/378/"}, {"name": "power-trick", "url": "https://pokeapi.co/api/v2/move/379/"}, {"name": "gastro-acid", "url": "https://pokeapi.co/api/v2/move/380/"}, {"name": "lucky-chant", "url": "https://pokeapi.co/api/v2/move/381/"}, {"name": "me-first", "url": "https://pokeapi.co/api/v2/move/382/"}, {"name": "copycat", "url": "https://pokeapi.co/api/v2/move/383/"}, {"name": "power-swap", "url": "https://pokeapi.co/api/v2/move/384/"}, {"name": "guard-swap", "url": "https://pokeapi.co/api/v2/move/385/"}, {"name": "punishment", "url": "https://pokeapi.co/api/v2/move/386/"}, {"name": "last-resort", "url": "https://pokeapi.co/api/v2/move/387/"}, {"name": "worry-seed", "url": "https://pokeapi.co/api/v2/move/388/"}, {"name": "sucker-punch", "url": "https://pokeapi.co/api/v2/move/389/"}, {"name": "toxic-spikes", "url": "https://pokeapi.co/api/v2/move/390/"}, {"name": "heart-swap", "url": "https://pokeapi.co/api/v2/move/391/"}, {"name": "aqua-ring", "url": "https://pokeapi.co/api/v2/move/392/"}, {"name": "magnet-rise", "url": "https://pokeapi.co/api/v2/move/393/"}, {"name": "flare-blitz", "url": "https://pokeapi.co/api/v2/move/394/"}, {"name": "force-palm", "url": "https://pokeapi.co/api/v2/move/395/"}, {"name": "aura-sphere", "url": "https://pokeapi.co/api/v2/move/396/"}, {"name": "rock-polish", "url": "https://pokeapi.co/api/v2/move/397/"}, {"name": "poison-jab", "url": "https://pokeapi.co/api/v2/move/398/"}, {"name": "dark-pulse", "url": "https://pokeapi.co/api/v2/move/399/"}, {"name": "night-slash", "url": "https://pokeapi.co/api/v2/move/400/"}]}