{"count": 937, "next": "https://pokeapi.co/api/v2/move?offset=600&limit=200", "previous": "https://pokeapi.co/api/v2/move?offset=200&limit=200", "results": [{"name": "aqua-tail", "url": "https://pokeapi.co/api/v2/move/401/"}, {"name": "seed-bomb", "url": "https://pokeapi.co/api/v2/move/402/"}, {"name": "air-slash", "url": "https://pokeapi.co/api/v2/move/403/"}, {"name": "x-scissor", "url": "https://pokeapi.co/api/v2/move/404/"}, {"name": "bug-buzz", "url": "https://pokeapi.co/api/v2/move/405/"}, {"name": "dragon-pulse", "url": "https://pokeapi.co/api/v2/move/406/"}, {"name": "dragon-rush", "url": "https://pokeapi.co/api/v2/move/407/"}, {"name": "power-gem", "url": "https://pokeapi.co/api/v2/move/408/"}, {"name": "drain-punch", "url": "https://pokeapi.co/api/v2/move/409/"}, {"name": "vacuum-wave", "url": "https://pokeapi.co/api/v2/move/410/"}, {"name": "focus-blast", "url": "https://pokeapi.co/api/v2/move/411/"}, {"name": "energy-ball", "url": "https://pokeapi.co/api/v2/move/412/"}, {"name": "brave-bird", "url": "https://pokeapi.co/api/v2/move/413/"}, {"name": "earth-power", "url": "https://pokeapi.co/api/v2/move/414/"}, {"name": "switcheroo", "url": "https://pokeapi.co/api/v2/move/415/"}, {"name": "giga-impact", "url": "https://pokeapi.co/api/v2/move/416/"}, {"name": "nasty-plot", "url": "https://pokeapi.co/api/v2/move/417/"}, {"name": "bullet-punch", "url": "https://pokeapi.co/api/v2/move/418/"}, {"name": "avalanche", "url": "https://pokeapi.co/api/v2/move/419/"}, {"name": "ice-shard", "url": "https://pokeapi.co/api/v2/move/420/"}, {"name": "shadow-claw", "url": "https://pokeapi.co/api/v2/move/421/"}, {"name": "thunder-fang", "url": "https://pokeapi.co/api/v2/move/422/"}, {"name": "ice-fang", "url": "https://pokeapi.co/api/v2/move/423/"}, {"name": "fire-fang", "url": "https://pokeapi.co/api/v2/move/424/"}, {"name": "shadow-sneak", "url": "https://pokeapi.co/api/v2/move/425/"}, {"name": "mud-bomb", "url": "https://pokeapi.co/api/v2/move/426/"}, {"name": "psycho-cut", "url": "https://pokeapi.co/api/v2/move/427/"}, {"name": "zen-headbutt", "url": "https://pokeapi.co/api/v2/move/428/"}, {"name": "mirror-shot", "url": "https://pokeapi.co/api/v2/move/429/"}, {"name": "flash-cannon", "url": "https://pokeapi.co/api/v2/move/430/"}, {"name": "rock-climb", "url": "https://pokeapi.co/api/v2/move/431/"}, {"name": "defog", "url": "https://pokeapi.co/api/v2/move/432/"}, {"name": "trick-room", "url": "https://pokeapi.co/api/v2/move/433/"}, {"name": "draco-meteor", "url": "https://pokeapi.co/api/v2/move/434/"}, {"name": "discharge", "url": "https://pokeapi.co/api/v2/move/435/"}, {"name": "lava-plume", "url": "https://pokeapi.co/api/v2/move/436/"}, {"name": "leaf-storm", "url": "https://pokeapi.co/api/v2/move/437/"}, {"name": "power-whip", "url": "https://pokeapi.co/api/v2/move/438/"}, {"name": "rock-wrecker", "url": "https://pokeapi.co/api/v2/move/439/"}, {"name": "cross-poison", "url": "https://pokeapi.co/api/v2/move/440/"}, {"name": "gunk-shot", "url": "https://pokeapi.co/api/v2/move/441/"}, {"name": "iron-head", "url": "https://pokeapi.co/api/v2/move/442/"}, {"name": "magnet-bomb", "url": "https://pokeapi.co/api/v2/move/443/"}, {"name": "stone-edge", "url": "https://pokeapi.co/api/v2/move/444/"}, {"name": "captivate", "url": "https://pokeapi.co/api/v2/move/445/"}, {"name": "stealth-rock", "url": "https://pokeapi.co/api/v2/move/446/"}, {"name": "grass-knot", "url": "https://pokeapi.co/api/v2/move/447/"}, {"name": "chatter", "url": "https://pokeapi.co/api/v2/move/448/"}, {"name": "judgment", "url": "https://pokeapi.co/api/v2/move/449/"}, {"name": "bug-bite", "url": "https://pokeapi.co/api/v2/move/450/"}, {"name": "charge-beam", "url": "https://pokeapi.co/api/v2/move/451/"}, {"name": "wood-hammer", "url": "https://pokeapi.co/api/v2/move/452/"}, {"name": "aqua-jet", "url": "https://pokeapi.co/api/v2/move/453/"}, {"name": "attack-order", "url": "https://pokeapi.co/api/v2/move/454/"}, {"name": "defend-order", "url": "https://pokeapi.co/api/v2/move/455/"}, {"name": "heal-order", "url": "https://pokeapi.co/api/v2/move/456/"}, {"name": "head-smash", "url": "https://pokeapi.co/api/v2/move/457/"}, {"name": "double-hit", "url": "https://pokeapi.co/api/v2/move/458/"}, {"name": "roar-of-time", "url": "https://pokeapi.co/api/v2/move/459/"}, {"name": "spacial-rend", "url": "https://pokeapi.co/api/v2/move/460/"}, {"name": "lunar-dance", "url": "https://pokeapi.co/api/v2/move/461/"}, {"name": "crush-grip", "url": "https://pokeapi.co/api/v2/move/462/"}, {"name": "magma-storm", "url": "https://pokeapi.co/api/v2/move/463/"}, {"name": "dark-void", "url": "https://pokeapi.co/api/v2/move/464/"}, {"name": "seed-flare", "url": "https://pokeapi.co/api/v2/move/465/"}, {"name": "ominous-wind", "url": "https://pokeapi.co/api/v2/move/466/"}, {"name": "shadow-force", "url": "https://pokeapi.co/api/v2/move/467/"}, {"name": "hone-claws", "url": "https://pokeapi.co/api/v2/move/468/"}, {"name": "wide-guard", "url": "https://pokeapi.co/api/v2/move/469/"}, {"name": "guard-split", "url": "https://pokeapi.co/api/v2/move/470/"}, {"name": "power-split", "url": "https://pokeapi.co/api/v2/move/471/"}, {"name": "wonder-room", "url": "https://pokeapi.co/api/v2/move/472/"}, {"name": "psyshock", "url": "https://pokeapi.co/api/v2/move/473/"}, {"name": "venoshock", "url": "https://pokeapi.co/api/v2/move/474/"}, {"name": "autotomize", "url": "https://pokeapi.co/api/v2/move/475/"}, {"name": "rage-powder", "url": "https://pokeapi.co/api/v2/move/476/"}, {"name": "telekinesis", "url": "https://pokeapi.co/api/v2/move/477/"}, {"name": "magic-room", "url": "https://pokeapi.co/api/v2/move/478/"}, {"name": "smack-down", "url": "https://pokeapi.co/api/v2/move/479/"}, {"name": "storm-throw", "url": "https://pokeapi.co/api/v2/move/480/"}, {"name": "flame-burst", "url": "https://pokeapi.co/api/v2/move/481/"}, {"name": "sludge-wave", "url": "https://pokeapi.co/api/v2/move/482/"}, {"name": "quiver-dance", "url": "https://pokeapi.co/api/v2/move/483/"}, {"name": "heavy-slam", "url": "https://pokeapi.co/api/v2/move/484/"}, {"name": "synchronoise", "url": "https://pokeapi.co/api/v2/move/485/"}, {"name": "electro-ball", "url": "https://pokeapi.co/api/v2/move/486/"}, {"name": "soak", "url": "https://pokeapi.co/api/v2/move/487/"}, {"name": "flame-charge", "url": "https://pokeapi.co/api/v2/move/488/"}, {"name": "coil", "url": "https://pokeapi.co/api/v2/move/489/"}, {"name": "low-sweep", "url": "https://pokeapi.co/api/v2/move/490/"}, {"name": "acid-spray", "url": "https://pokeapi.co/api/v2/move/491/"}, {"name": "foul-play", "url": "https://pokeapi.co/api/v2/move/492/"}, {"name": "simple-beam", "url": "https://pokeapi.co/api/v2/move/493/"}, {"name": "entrainment", "url": "https://pokeapi.co/api/v2/move/494/"}, {"name": "after-you", "url": "https://pokeapi.co/api/v2/move/495/"}, {"name": "round", "url": "https://pokeapi.co/api/v2/move/496/"}, {"name": "echoed-voice", "url": "https://pokeapi.co/api/v2/move/497/"}, {"name": "chip-away", "url": "https://pokeapi.co/api/v2/move/498/"}, {"name": "clear-smog", "url": "https://pokeapi.co/api/v2/move/499/"}, {"name": "stored-power", "url": "https://pokeapi.co/api/v2/move/500/"}, {"name": "quick-guard", "url": "https://pokeapi.co/api/v2/move/501/"}, {"name": "ally-switch", "url": "https://pokeapi.co/api/v2/move/502/"}, {"name": "scald", "url": "https://pokeapi.co/api/v2/move/503/"}, {"name": "shell-smash", "url": "https://pokeapi.co/api/v2/move/504/"}, {"name": "heal-pulse", "url": "https://pokeapi.co/api/v2/move/505/"}, {"name": "hex", "url": "https://pokeapi.co/api/v2/move/506/"}, {"name": "sky-drop", "url": "https://pokeapi.co/api/v2/move/507/"}, {"name": "shift-gear", "url": "https://pokeapi.co/api/v2/move/508/"}, {"name": "circle-throw", "url": "https://pokeapi.co/api/v2/move/509/"}, {"name": "incinerate", "url": "https://pokeapi.co/api/v2/move/510/"}, {"name": "quash", "url": "https://pokeapi.co/api/v2/move/511/"}, {"name": "acrobatics", "url": "https://pokeapi.co/api/v2/move/512/"}, {"name": "reflect-type", "url": "https://pokeapi.co/api/v2/move/513/"}, {"name": "retaliate", "url": "https://pokeapi.co/api/v2/move/514/"}, {"name": "final-gambit", "url": "https://pokeapi.co/api/v2/move/515/"}, {"name": "bestow", "url": "https://pokeapi.co/api/v2/move/516/"}, {"name": "inferno", "url": "https://pokeapi.co/api/v2/move/517/"}, {"name": "water-pledge", "url": "https://pokeapi.co/api/v2/move/518/"}, {"name": "fire-pledge", "url": "https://pokeapi.co/api/v2/move/519/"}, {"name": "grass-pledge", "url": "https://pokeapi.co/api/v2/move/520/"}, {"name": "volt-switch", "url": "https://pokeapi.co/api/v2/move/521/"}, {"name": "struggle-bug", "url": "https://pokeapi.co/api/v2/move/522/"}, {"name": "bulldoze", "url": "https://pokeapi.co/api/v2/move/523/"}, {"name": "frost-breath", "url": "https://pokeapi.co/api/v2/move/524/"}, {"name": "dragon-tail", "url": "https://pokeapi.co/api/v2/move/525/"}, {"name": "work-up", "url": "https://pokeapi.co/api/v2/move/526/"}, {"name": "electroweb", "url": "https://pokeapi.co/api/v2/move/527/"}, {"name": "wild-charge", "url": "https://pokeapi.co/api/v2/move/528/"}, {"name": "drill-run", "url": "https://pokeapi.co/api/v2/move/529/"}, {"name": "dual-chop", "url": "https://pokeapi.co/api/v2/move/530/"}, {"name": "heart-stamp", "url": "https://pokeapi.co/api/v2/move/531/"}, {"name": "horn-leech", "url": "https://pokeapi.co/api/v2/move/532/"}, {"name": "sacred-sword", "url": "https://pokeapi.co/api/v2/move/533/"}, {"name": "razor-shell", "url": "https://pokeapi.co/api/v2/move/534/"}, {"name": "heat-crash", "url": "https://pokeapi.co/api/v2/move/535/"}, {"name": "leaf-tornado", "url": "https://pokeapi.co/api/v2/move/536/"}, {"name": "steamroller", "url": "https://pokeapi.co/api/v2/move/537/"}, {"name": "cotton-guard", "url": "https://pokeapi.co/api/v2/move/538/"}, {"name": "night-daze", "url": "https://pokeapi.co/api/v2/move/539/"}, {"name": "psystrike", "url": "https://pokeapi.co/api/v2/move/540/"}, {"name": "tail-slap", "url": "https://pokeapi.co/api/v2/move/541/"}, {"name": "hurricane", "url": "https://pokeapi.co/api/v2/move/542/"}, {"name": "head-charge", "url": "https://pokeapi.co/api/v2/move/543/"}, {"name": "gear-grind", "url": "https://pokeapi.co/api/v2/move/544/"}, {"name": "searing-shot", "url": "https://pokeapi.co/api/v2/move/545/"}, {"name": "techno-blast", "url": "https://pokeapi.co/api/v2/move/546/"}, {"name": "relic-song", "url": "https://pokeapi.co/api/v2/move/547/"}, {"name": "secret-sword", "url": "https://pokeapi.co/api/v2/move/548/"}, {"name": "glaciate", "url": "https://pokeapi.co/api/v2/move/549/"}, {"name": "bolt-strike", "url": "https://pokeapi.co/api/v2/move/550/"}, {"name": "blue-flare", "url": "https://pokeapi.co/api/v2/move/551/"}, {"name": "fiery-dance", "url": "https://pokeapi.co/api/v2/move/552/"}, {"name": "freeze-shock", "url": "https://pokeapi.co/api/v2/move/553/"}, {"name": "ice-burn", "url": "https://pokeapi.co/api/v2/move/554/"}, {"name": "snarl", "url": "https://pokeapi.co/api/v2/move/555/"}, {"name": "icicle-crash", "url": "https://pokeapi.co/api/v2/move/556/"}, {"name": "v-create", "url": "https://pokeapi.co/api/v2/move/557/"}, {"name": "fusion-flare", "url": "https://pokeapi.co/api/v2/move/558/"}, {"name": "fusion-bolt", "url": "https://pokeapi.co/api/v2/move/559/"}, {"name": "flying-press", "url": "https://pokeapi.co/api/v2/move/560/"}, {"name": "mat-block", "url": "https://pokeapi.co/api/v2/move/561/"}, {"name": "belch", "url": "https://pokeapi.co/api/v2/move/562/"}, {"name": "rototiller", "url": "https://pokeapi.co/api/v2/move/563/"}, {"name": "sticky-web", "url": "https://pokeapi.co/api/v2/move/564/"}, {"name": "fell-stinger", "url": "https://pokeapi.co/api/v2/move/565/"}, {"name": "phantom-force", "url": "https://pokeapi.co/api/v2/move/566/"}, {"name": "trick-or-treat", "url": "https://pokeapi.co/api/v2/move/567/"}, {"name": "noble-roar", "url": "https://pokeapi.co/api/v2/move/568/"}, {"name": "ion-deluge", "url": "https://pokeapi.co/api/v2/move/569/"}, {"name": "parabolic-charge", "url": "https://pokeapi.co/api/v2/move/570/"}, {"name": "forests-curse", "url": "https://pokeapi.co/api/v2/move/571/"}, {"name": "petal-blizzard", "url": "https://pokeapi.co/api/v2/move/572/"}, {"name": "freeze-dry", "url": "https://pokeapi.co/api/v2/move/573/"}, {"name": "disarming-voice", "url": "https://pokeapi.co/api/v2/move/574/"}, {"name": "parting-shot", "url": "https://pokeapi.co/api/v2/move/575/"}, {"name": "topsy-turvy", "url": "https://pokeapi.co/api/v2/move/576/"}, {"name": "draining-kiss", "url": "https://pokeapi.co/api/v2/move/577/"}, {"name": "crafty-shield", "url": "https://pokeapi.co/api/v2/move/578/"}, {"name": "flower-shield", "url": "https://pokeapi.co/api/v2/move/579/"}, {"name": "grassy-terrain", "url": "https://pokeapi.co/api/v2/move/580/"}, {"name": "misty-terrain", "url": "https://pokeapi.co/api/v2/move/581/"}, {"name": "electrify", "url": "https://pokeapi.co/api/v2/move/582/"}, {"name": "play-rough", "url": "https://pokeapi.co/api/v2/move/583/"}, {"name": "fairy-wind", "url": "https://pokeapi.co/api/v2/move/584/"}, {"name": "moonblast", "url": "https://pokeapi.co/api/v2/move/585/"}, {"name": "boomburst", "url": "https://pokeapi.co/api/v2/move/586/"}, {"name": "fairy-lock", "url": "https://pokeapi.co/api/v2/move/587/"}, {"name": "kings-shield", "url": "https://pokeapi.co/api/v2/move/588/"}, {"name": "play-nice", "url": "https://pokeapi.co/api/v2/move/589/"}, {"name": "confide", "url": "https://pokeapi.co/api/v2/move/590/"}, {"name": "diamond-storm", "url": "https://pokeapi.co/api/v2/move/591/"}, {"name": "steam-eruption", "url": "https://pokeapi.co/api/v2/move/592/"}, {"name": "hyperspace-hole", "url": "https://pokeapi.co/api/v2/move/593/"}, {"name": "water-shuriken", "url": "https://pokeapi.co/api/v2/move/594/"}, {"name": "mystical-fire", "url": "https://pokeapi.co/api/v2/move/595/"}, {"name": "spiky-shield", "url": "https://pokeapi.co/api/v2/move/596/"}, {"name": "aromatic-mist", "url": "https://pokeapi.co/api/v2/move/597/"}, {"name": "eerie-impulse", "url": "https://pokeapi.co/api/v2/move/598/"}, {"name": "venom-drench", "url": "https://pokeapi.co/api/v2/move/599/"}, {"name": "powder", "url": "https://pokeapi.co/api/v2/move/600/"}]}