{"count": 937, "next": "https://pokeapi.co/api/v2/move?offset=800&limit=137", "previous": "https://pokeapi.co/api/v2/move?offset=400&limit=200", "results": [{"name": "geomancy", "url": "https://pokeapi.co/api/v2/move/601/"}, {"name": "magnetic-flux", "url": "https://pokeapi.co/api/v2/move/602/"}, {"name": "happy-hour", "url": "https://pokeapi.co/api/v2/move/603/"}, {"name": "electric-terrain", "url": "https://pokeapi.co/api/v2/move/604/"}, {"name": "dazzling-gleam", "url": "https://pokeapi.co/api/v2/move/605/"}, {"name": "celebrate", "url": "https://pokeapi.co/api/v2/move/606/"}, {"name": "hold-hands", "url": "https://pokeapi.co/api/v2/move/607/"}, {"name": "baby-doll-eyes", "url": "https://pokeapi.co/api/v2/move/608/"}, {"name": "nuzzle", "url": "https://pokeapi.co/api/v2/move/609/"}, {"name": "hold-back", "url": "https://pokeapi.co/api/v2/move/610/"}, {"name": "infestation", "url": "https://pokeapi.co/api/v2/move/611/"}, {"name": "power-up-punch", "url": "https://pokeapi.co/api/v2/move/612/"}, {"name": "oblivion-wing", "url": "https://pokeapi.co/api/v2/move/613/"}, {"name": "thousand-arrows", "url": "https://pokeapi.co/api/v2/move/614/"}, {"name": "thousand-waves", "url": "https://pokeapi.co/api/v2/move/615/"}, {"name": "lands-wrath", "url": "https://pokeapi.co/api/v2/move/616/"}, {"name": "light-of-ruin", "url": "https://pokeapi.co/api/v2/move/617/"}, {"name": "origin-pulse", "url": "https://pokeapi.co/api/v2/move/618/"}, {"name": "precipice-blades", "url": "https://pokeapi.co/api/v2/move/619/"}, {"name": "dragon-ascent", "url": "https://pokeapi.co/api/v2/move/620/"}, {"name": "hyperspace-fury", "url": "https://pokeapi.co/api/v2/move/621/"}, {"name": "breakneck-blitz--physical", "url": "https://pokeapi.co/api/v2/move/622/"}, {"name": "breakneck-blitz--special", "url": "https://pokeapi.co/api/v2/move/623/"}, {"name": "all-out-pummeling--physical", "url": "https://pokeapi.co/api/v2/move/624/"}, {"name": "all-out-pummeling--special", "url": "https://pokeapi.co/api/v2/move/625/"}, {"name": "supersonic-skystrike--physical", "url": "https://pokeapi.co/api/v2/move/626/"}, {"name": "supersonic-skystrike--special", "url": "https://pokeapi.co/api/v2/move/627/"}, {"name": "acid-downpour--physical", "url": "https://pokeapi.co/api/v2/move/628/"}, {"name": "acid-downpour--special", "url": "https://pokeapi.co/api/v2/move/629/"}, {"name": "tectonic-rage--physical", "url": "https://pokeapi.co/api/v2/move/630/"}, {"name": "tectonic-rage--special", "url": "https://pokeapi.co/api/v2/move/631/"}, {"name": "continental-crush--physical", "url": "https://pokeapi.co/api/v2/move/632/"}, {"name": "continental-crush--special", "url": "https://pokeapi.co/api/v2/move/633/"}, {"name": "savage-spin-out--physical", "url": "https://pokeapi.co/api/v2/move/634/"}, {"name": "savage-spin-out--special", "url": "https://pokeapi.co/api/v2/move/635/"}, {"name": "never-ending-nightmare--physical", "url": "https://pokeapi.co/api/v2/move/636/"}, {"name": "never-ending-nightmare--special", "url": "https://pokeapi.co/api/v2/move/637/"}, {"name": "corkscrew-crash--physical", "url": "https://pokeapi.co/api/v2/move/638/"}, {"name": "corkscrew-crash--special", "url": "https://pokeapi.co/api/v2/move/639/"}, {"name": "inferno-overdrive--physical", "url": "https://pokeapi.co/api/v2/move/640/"}, {"name": "inferno-overdrive--special", "url": "https://pokeapi.co/api/v2/move/641/"}, {"name": "hydro-vortex--physical", "url": "https://pokeapi.co/api/v2/move/642/"}, {"name": "hydro-vortex--special", "url": "https://pokeapi.co/api/v2/move/643/"}, {"name": "bloom-doom--physical", "url": "https://pokeapi.co/api/v2/move/644/"}, {"name": "bloom-doom--special", "url": "https://pokeapi.co/api/v2/move/645/"}, {"name": "gigavolt-havoc--physical", "url": "https://pokeapi.co/api/v2/move/646/"}, {"name": "gigavolt-havoc--special", "url": "https://pokeapi.co/api/v2/move/647/"}, {"name": "shattered-psyche--physical", "url": "https://pokeapi.co/api/v2/move/648/"}, {"name": "shattered-psyche--special", "url": "https://pokeapi.co/api/v2/move/649/"}, {"name": "subzero-slammer--physical", "url": "https://pokeapi.co/api/v2/move/650/"}, {"name": "subzero-slammer--special", "url": "https://pokeapi.co/api/v2/move/651/"}, {"name": "devastating-drake--physical", "url": "https://pokeapi.co/api/v2/move/652/"}, {"name": "devastating-drake--special", "url": "https://pokeapi.co/api/v2/move/653/"}, {"name": "black-hole-eclipse--physical", "url": "https://pokeapi.co/api/v2/move/654/"}, {"name": "black-hole-eclipse--special", "url": "https://pokeapi.co/api/v2/move/655/"}, {"name": "twinkle-tackle--physical", "url": "https://pokeapi.co/api/v2/move/656/"}, {"name": "twinkle-tackle--special", "url": "https://pokeapi.co/api/v2/move/657/"}, {"name": "catastropika", "url": "https://pokeapi.co/api/v2/move/658/"}, {"name": "shore-up", "url": "https://pokeapi.co/api/v2/move/659/"}, {"name": "first-impression", "url": "https://pokeapi.co/api/v2/move/660/"}, {"name": "baneful-bunker", "url": "https://pokeapi.co/api/v2/move/661/"}, {"name": "spirit-shackle", "url": "https://pokeapi.co/api/v2/move/662/"}, {"name": "darkest-lariat", "url": "https://pokeapi.co/api/v2/move/663/"}, {"name": "sparkling-aria", "url": "https://pokeapi.co/api/v2/move/664/"}, {"name": "ice-hammer", "url": "https://pokeapi.co/api/v2/move/665/"}, {"name": "floral-healing", "url": "https://pokeapi.co/api/v2/move/666/"}, {"name": "high-horsepower", "url": "https://pokeapi.co/api/v2/move/667/"}, {"name": "strength-sap", "url": "https://pokeapi.co/api/v2/move/668/"}, {"name": "solar-blade", "url": "https://pokeapi.co/api/v2/move/669/"}, {"name": "leafage", "url": "https://pokeapi.co/api/v2/move/670/"}, {"name": "spotlight", "url": "https://pokeapi.co/api/v2/move/671/"}, {"name": "toxic-thread", "url": "https://pokeapi.co/api/v2/move/672/"}, {"name": "laser-focus", "url": "https://pokeapi.co/api/v2/move/673/"}, {"name": "gear-up", "url": "https://pokeapi.co/api/v2/move/674/"}, {"name": "throat-chop", "url": "https://pokeapi.co/api/v2/move/675/"}, {"name": "pollen-puff", "url": "https://pokeapi.co/api/v2/move/676/"}, {"name": "anchor-shot", "url": "https://pokeapi.co/api/v2/move/677/"}, {"name": "psychic-terrain", "url": "https://pokeapi.co/api/v2/move/678/"}, {"name": "lunge", "url": "https://pokeapi.co/api/v2/move/679/"}, {"name": "fire-lash", "url": "https://pokeapi.co/api/v2/move/680/"}, {"name": "power-trip", "url": "https://pokeapi.co/api/v2/move/681/"}, {"name": "burn-up", "url": "https://pokeapi.co/api/v2/move/682/"}, {"name": "speed-swap", "url": "https://pokeapi.co/api/v2/move/683/"}, {"name": "smart-strike", "url": "https://pokeapi.co/api/v2/move/684/"}, {"name": "purify", "url": "https://pokeapi.co/api/v2/move/685/"}, {"name": "revelation-dance", "url": "https://pokeapi.co/api/v2/move/686/"}, {"name": "core-enforcer", "url": "https://pokeapi.co/api/v2/move/687/"}, {"name": "trop-kick", "url": "https://pokeapi.co/api/v2/move/688/"}, {"name": "instruct", "url": "https://pokeapi.co/api/v2/move/689/"}, {"name": "beak-blast", "url": "https://pokeapi.co/api/v2/move/690/"}, {"name": "clanging-scales", "url": "https://pokeapi.co/api/v2/move/691/"}, {"name": "dragon-hammer", "url": "https://pokeapi.co/api/v2/move/692/"}, {"name": "brutal-swing", "url": "https://pokeapi.co/api/v2/move/693/"}, {"name": "aurora-veil", "url": "https://pokeapi.co/api/v2/move/694/"}, {"name": "sinister-arrow-raid", "url": "https://pokeapi.co/api/v2/move/695/"}, {"name": "malicious-moonsault", "url": "https://pokeapi.co/api/v2/move/696/"}, {"name": "oceanic-operetta", "url": "https://pokeapi.co/api/v2/move/697/"}, {"name": "guardian-of-alola", "url": "https://pokeapi.co/api/v2/move/698/"}, {"name": "soul-stealing-7-star-strike", "url": "https://pokeapi.co/api/v2/move/699/"}, {"name": "stoked-sparksurfer", "url": "https://pokeapi.co/api/v2/move/700/"}, {"name": "pulverizing-pancake", "url": "https://pokeapi.co/api/v2/move/701/"}, {"name": "extreme-evoboost", "url": "https://pokeapi.co/api/v2/move/702/"}, {"name": "genesis-supernova", "url": "https://pokeapi.co/api/v2/move/703/"}, {"name": "shell-trap", "url": "https://pokeapi.co/api/v2/move/704/"}, {"name": "fleur-cannon", "url": "https://pokeapi.co/api/v2/move/705/"}, {"name": "psychic-fangs", "url": "https://pokeapi.co/api/v2/move/706/"}, {"name": "stomping-tantrum", "url": "https://pokeapi.co/api/v2/move/707/"}, {"name": "shadow-bone", "url": "https://pokeapi.co/api/v2/move/708/"}, {"name": "accelerock", "url": "https://pokeapi.co/api/v2/move/709/"}, {"name": "liquidation", "url": "https://pokeapi.co/api/v2/move/710/"}, {"name": "prismatic-laser", "url": "https://pokeapi.co/api/v2/move/711/"}, {"name": "spectral-thief", "url": "https://pokeapi.co/api/v2/move/712/"}, {"name": "sunsteel-strike", "url": "https://pokeapi.co/api/v2/move/713/"}, {"name": "moongeist-beam", "url": "https://pokeapi.co/api/v2/move/714/"}, {"name": "tearful-look", "url": "https://pokeapi.co/api/v2/move/715/"}, {"name": "zing-zap", "url": "https://pokeapi.co/api/v2/move/716/"}, {"name": "natures-madness", "url": "https://pokeapi.co/api/v2/move/717/"}, {"name": "multi-attack", "url": "https://pokeapi.co/api/v2/move/718/"}, {"name": "10-000-000-volt-thunderbolt", "url": "https://pokeapi.co/api/v2/move/719/"}, {"name": "mind-blown", "url": "https://pokeapi.co/api/v2/move/720/"}, {"name": "plasma-fists", "url": "https://pokeapi.co/api/v2/move/721/"}, {"name": "photon-geyser", "url": "https://pokeapi.co/api/v2/move/722/"}, {"name": "light-that-burns-the-sky", "url": "https://pokeapi.co/api/v2/move/723/"}, {"name": "searing-sunraze-smash", "url": "https://pokeapi.co/api/v2/move/724/"}, {"name": "menacing-moonraze-maelstrom", "url": "https://pokeapi.co/api/v2/move/725/"}, {"name": "lets-snuggle-forever", "url": "https://pokeapi.co/api/v2/move/726/"}, {"name": "splintered-stormshards", "url": "https://pokeapi.co/api/v2/move/727/"}, {"name": "clangorous-soulblaze", "url": "https://pokeapi.co/api/v2/move/728/"}, {"name": "zippy-zap", "url": "https://pokeapi.co/api/v2/move/729/"}, {"name": "splishy-splash", "url": "https://pokeapi.co/api/v2/move/730/"}, {"name": "floaty-fall", "url": "https://pokeapi.co/api/v2/move/731/"}, {"name": "pika-papow", "url": "https://pokeapi.co/api/v2/move/732/"}, {"name": "bouncy-bubble", "url": "https://pokeapi.co/api/v2/move/733/"}, {"name": "buzzy-buzz", "url": "https://pokeapi.co/api/v2/move/734/"}, {"name": "sizzly-slide", "url": "https://pokeapi.co/api/v2/move/735/"}, {"name": "glitzy-glow", "url": "https://pokeapi.co/api/v2/move/736/"}, {"name": "baddy-bad", "url": "https://pokeapi.co/api/v2/move/737/"}, {"name": "sappy-seed", "url": "https://pokeapi.co/api/v2/move/738/"}, {"name": "freezy-frost", "url": "https://pokeapi.co/api/v2/move/739/"}, {"name": "sparkly-swirl", "url": "https://pokeapi.co/api/v2/move/740/"}, {"name": "veevee-volley", "url": "https://pokeapi.co/api/v2/move/741/"}, {"name": "double-iron-bash", "url": "https://pokeapi.co/api/v2/move/742/"}, {"name": "max-guard", "url": "https://pokeapi.co/api/v2/move/743/"}, {"name": "dynamax-cannon", "url": "https://pokeapi.co/api/v2/move/744/"}, {"name": "snipe-shot", "url": "https://pokeapi.co/api/v2/move/745/"}, {"name": "jaw-lock", "url": "https://pokeapi.co/api/v2/move/746/"}, {"name": "stuff-cheeks", "url": "https://pokeapi.co/api/v2/move/747/"}, {"name": "no-retreat", "url": "https://pokeapi.co/api/v2/move/748/"}, {"name": "tar-shot", "url": "https://pokeapi.co/api/v2/move/749/"}, {"name": "magic-powder", "url": "https://pokeapi.co/api/v2/move/750/"}, {"name": "dragon-darts", "url": "https://pokeapi.co/api/v2/move/751/"}, {"name": "teatime", "url": "https://pokeapi.co/api/v2/move/752/"}, {"name": "octolock", "url": "https://pokeapi.co/api/v2/move/753/"}, {"name": "bolt-beak", "url": "https://pokeapi.co/api/v2/move/754/"}, {"name": "fishious-rend", "url": "https://pokeapi.co/api/v2/move/755/"}, {"name": "court-change", "url": "https://pokeapi.co/api/v2/move/756/"}, {"name": "max-flare", "url": "https://pokeapi.co/api/v2/move/757/"}, {"name": "max-flutterby", "url": "https://pokeapi.co/api/v2/move/758/"}, {"name": "max-lightning", "url": "https://pokeapi.co/api/v2/move/759/"}, {"name": "max-strike", "url": "https://pokeapi.co/api/v2/move/760/"}, {"name": "max-knuckle", "url": "https://pokeapi.co/api/v2/move/761/"}, {"name": "max-phantasm", "url": "https://pokeapi.co/api/v2/move/762/"}, {"name": "max-hailstorm", "url": "https://pokeapi.co/api/v2/move/763/"}, {"name": "max-ooze", "url": "https://pokeapi.co/api/v2/move/764/"}, {"name": "max-geyser", "url": "https://pokeapi.co/api/v2/move/765/"}, {"name": "max-airstream", "url": "https://pokeapi.co/api/v2/move/766/"}, {"name": "max-starfall", "url": "https://pokeapi.co/api/v2/move/767/"}, {"name": "max-wyrmwind", "url": "https://pokeapi.co/api/v2/move/768/"}, {"name": "max-mindstorm", "url": "https://pokeapi.co/api/v2/move/769/"}, {"name": "max-rockfall", "url": "https://pokeapi.co/api/v2/move/770/"}, {"name": "max-quake", "url": "https://pokeapi.co/api/v2/move/771/"}, {"name": "max-darkness", "url": "https://pokeapi.co/api/v2/move/772/"}, {"name": "max-overgrowth", "url": "https://pokeapi.co/api/v2/move/773/"}, {"name": "max-steelspike", "url": "https://pokeapi.co/api/v2/move/774/"}, {"name": "clangorous-soul", "url": "https://pokeapi.co/api/v2/move/775/"}, {"name": "body-press", "url": "https://pokeapi.co/api/v2/move/776/"}, {"name": "decorate", "url": "https://pokeapi.co/api/v2/move/777/"}, {"name": "drum-beating", "url": "https://pokeapi.co/api/v2/move/778/"}, {"name": "snap-trap", "url": "https://pokeapi.co/api/v2/move/779/"}, {"name": "pyro-ball", "url": "https://pokeapi.co/api/v2/move/780/"}, {"name": "behemoth-blade", "url": "https://pokeapi.co/api/v2/move/781/"}, {"name": "behemoth-bash", "url": "https://pokeapi.co/api/v2/move/782/"}, {"name": "aura-wheel", "url": "https://pokeapi.co/api/v2/move/783/"}, {"name": "breaking-swipe", "url": "https://pokeapi.co/api/v2/move/784/"}, {"name": "branch-poke", "url": "https://pokeapi.co/api/v2/move/785/"}, {"name": "overdrive", "url": "https://pokeapi.co/api/v2/move/786/"}, {"name": "apple-acid", "url": "https://pokeapi.co/api/v2/move/787/"}, {"name": "grav-apple", "url": "https://pokeapi.co/api/v2/move/788/"}, {"name": "spirit-break", "url": "https://pokeapi.co/api/v2/move/789/"}, {"name": "strange-steam", "url": "https://pokeapi.co/api/v2/move/790/"}, {"name": "life-dew", "url": "https://pokeapi.co/api/v2/move/791/"}, {"name": "obstruct", "url": "https://pokeapi.co/api/v2/move/792/"}, {"name": "false-surrender", "url": "https://pokeapi.co/api/v2/move/793/"}, {"name": "meteor-assault", "url": "https://pokeapi.co/api/v2/move/794/"}, {"name": "eternabeam", "url": "https://pokeapi.co/api/v2/move/795/"}, {"name": "steel-beam", "url": "https://pokeapi.co/api/v2/move/796/"}, {"name": "expanding-force", "url": "https://pokeapi.co/api/v2/move/797/"}, {"name": "steel-roller", "url": "https://pokeapi.co/api/v2/move/798/"}, {"name": "scale-shot", "url": "https://pokeapi.co/api/v2/move/799/"}, {"name": "meteor-beam", "url": "https://pokeapi.co/api/v2/move/800/"}]}